EESchema Schematic File Version 4
EELAYER 30 0
EELAYER END
$Descr A4 11693 8268
encoding utf-8
Sheet 1 1
Title "USS-Module_V1b"
Date "2022-03-22"
Rev "V1b"
Comp ""
Comment1 ""
Comment2 ""
Comment3 ""
Comment4 "sch"
$EndDescr
Text GLabel 1900 4350 2    50   Input ~ 0
2.2
Text GLabel 1900 4550 2    50   Input ~ 0
2.6
Text GLabel 1900 4750 2    50   Input ~ 0
2.10
Text GLabel 1900 4850 2    50   Input ~ 0
2.12
Text GLabel 1900 4650 2    50   Input ~ 0
2.8
Text GLabel 1400 4750 0    50   Input ~ 0
2.9
Text GLabel 1400 4450 0    50   Input ~ 0
2.3
Text GLabel 1400 4550 0    50   Input ~ 0
2.5
Text GLabel 1400 4650 0    50   Input ~ 0
2.7
Text GLabel 1400 4850 0    50   Input ~ 0
2.11
Text GLabel 1900 4450 2    50   Input ~ 0
2.4
Text GLabel 1900 3800 2    50   Input ~ 0
1.52
Text GLabel 1900 3600 2    50   Input ~ 0
1.48
Text GLabel 1900 3700 2    50   Input ~ 0
1.50
Text GLabel 1400 4350 0    50   Input ~ 0
2.1
Text GLabel 1400 3800 0    50   Input ~ 0
1.51
Text GLabel 1400 3600 0    50   Input ~ 0
1.47
Text GLabel 1400 3700 0    50   Input ~ 0
1.49
Text GLabel 1900 3400 2    50   Input ~ 0
1.44
Text GLabel 1900 3300 2    50   Input ~ 0
1.42
Text GLabel 1900 3100 2    50   Input ~ 0
1.38
Text GLabel 1900 3200 2    50   Input ~ 0
1.40
Text GLabel 1900 3500 2    50   Input ~ 0
1.46
Text GLabel 2800 3800 0    50   Input ~ 0
1.51
Text GLabel 2800 4350 0    50   Input ~ 0
2.1
Text GLabel 2800 4450 0    50   Input ~ 0
2.3
Text GLabel 2800 4550 0    50   Input ~ 0
2.5
Text GLabel 3300 4450 2    50   Input ~ 0
2.4
Text GLabel 2800 3500 0    50   Input ~ 0
1.45
Text GLabel 2800 3700 0    50   Input ~ 0
1.49
Text GLabel 2800 3600 0    50   Input ~ 0
1.47
Text GLabel 2800 3400 0    50   Input ~ 0
1.43
Text GLabel 2800 3300 0    50   Input ~ 0
1.41
Text GLabel 3300 3300 2    50   Input ~ 0
1.42
Text GLabel 3300 3200 2    50   Input ~ 0
1.40
Text GLabel 2800 3200 0    50   Input ~ 0
1.39
Text GLabel 3300 3100 2    50   Input ~ 0
1.38
Text GLabel 3300 3500 2    50   Input ~ 0
1.46
Text GLabel 3300 3800 2    50   Input ~ 0
1.52
Text GLabel 3300 3700 2    50   Input ~ 0
1.50
Text GLabel 3300 3600 2    50   Input ~ 0
1.48
Text GLabel 3300 3400 2    50   Input ~ 0
1.44
Text GLabel 1400 5350 0    50   Input ~ 0
2.21
Text GLabel 1400 5250 0    50   Input ~ 0
2.19
Text GLabel 1400 5150 0    50   Input ~ 0
2.17
Text GLabel 1400 5050 0    50   Input ~ 0
2.15
Text GLabel 1400 4950 0    50   Input ~ 0
2.13
Text GLabel 1400 6850 0    50   Input ~ 0
2.51
Text GLabel 1400 6750 0    50   Input ~ 0
2.49
Text GLabel 1400 6650 0    50   Input ~ 0
2.47
Text GLabel 1400 6550 0    50   Input ~ 0
2.45
Text GLabel 1400 6450 0    50   Input ~ 0
2.43
Text GLabel 1400 6350 0    50   Input ~ 0
2.41
Text GLabel 1400 6250 0    50   Input ~ 0
2.39
Text GLabel 1400 6150 0    50   Input ~ 0
2.37
Text GLabel 1400 5650 0    50   Input ~ 0
2.27
Text GLabel 1400 5450 0    50   Input ~ 0
2.23
Text GLabel 1400 5550 0    50   Input ~ 0
2.25
Text GLabel 1400 5850 0    50   Input ~ 0
2.31
Text GLabel 1400 5750 0    50   Input ~ 0
2.29
Text GLabel 1400 5950 0    50   Input ~ 0
2.33
Text GLabel 1400 6050 0    50   Input ~ 0
2.35
Text GLabel 1900 6150 2    50   Input ~ 0
2.38
Text GLabel 1900 6250 2    50   Input ~ 0
2.40
Text GLabel 1900 5850 2    50   Input ~ 0
2.32
Text GLabel 1900 5750 2    50   Input ~ 0
2.30
$Comp
L Connector_Generic:Conn_02x26_Odd_Even J2
U 1 1 5D197155
P 1600 5550
F 0 "J2" H 1650 7050 60  0000 C CNN
F 1 "HEADER_2x26" H 1625 6925 60  0001 C CNN
F 2 "Spacemanic_header:Header_2x26_2.54mm" H 1600 6941 60  0001 C CNN
F 3 "" H 1600 6800 60  0000 C CNN
	1    1600 5550
	1    0    0    -1  
$EndComp
Text GLabel 1900 5250 2    50   Input ~ 0
2.20
Text GLabel 1900 5350 2    50   Input ~ 0
2.22
Text GLabel 1900 5150 2    50   Input ~ 0
2.18
Text GLabel 1900 5050 2    50   Input ~ 0
2.16
Text GLabel 1900 4950 2    50   Input ~ 0
2.14
Text GLabel 1900 5450 2    50   Input ~ 0
2.24
Text GLabel 1900 5550 2    50   Input ~ 0
2.26
Text GLabel 1900 5650 2    50   Input ~ 0
2.28
Text GLabel 2800 6150 0    50   Input ~ 0
2.37
Text GLabel 2800 6250 0    50   Input ~ 0
2.39
Text GLabel 2800 6350 0    50   Input ~ 0
2.41
Text GLabel 2800 6450 0    50   Input ~ 0
2.43
Text GLabel 2800 6550 0    50   Input ~ 0
2.45
Text GLabel 2800 5850 0    50   Input ~ 0
2.31
Text GLabel 2800 6650 0    50   Input ~ 0
2.47
Text GLabel 2800 6750 0    50   Input ~ 0
2.49
Text GLabel 2800 6850 0    50   Input ~ 0
2.51
Text GLabel 3300 6850 2    50   Input ~ 0
2.52
Text GLabel 3300 6750 2    50   Input ~ 0
2.50
Text GLabel 3300 6650 2    50   Input ~ 0
2.48
Text GLabel 3300 6550 2    50   Input ~ 0
2.46
Text GLabel 3300 6450 2    50   Input ~ 0
2.44
Text GLabel 3300 6350 2    50   Input ~ 0
2.42
Text GLabel 2800 5950 0    50   Input ~ 0
2.33
Text GLabel 2800 6050 0    50   Input ~ 0
2.35
Text GLabel 1900 6350 2    50   Input ~ 0
2.42
Text GLabel 1900 5950 2    50   Input ~ 0
2.34
Text GLabel 1900 6050 2    50   Input ~ 0
2.36
Text GLabel 1900 6450 2    50   Input ~ 0
2.44
Text GLabel 1900 6550 2    50   Input ~ 0
2.46
Text GLabel 1900 6650 2    50   Input ~ 0
2.48
Text GLabel 1900 6750 2    50   Input ~ 0
2.50
Text GLabel 1900 6850 2    50   Input ~ 0
2.52
Text GLabel 3300 6250 2    50   Input ~ 0
2.40
Text GLabel 3300 6150 2    50   Input ~ 0
2.38
Text GLabel 3300 6050 2    50   Input ~ 0
2.36
Text GLabel 3300 5950 2    50   Input ~ 0
2.34
Text GLabel 3300 5850 2    50   Input ~ 0
2.32
Text GLabel 2800 5750 0    50   Input ~ 0
2.29
Text GLabel 2800 5650 0    50   Input ~ 0
2.27
Text GLabel 2800 5450 0    50   Input ~ 0
2.23
Text GLabel 2800 5550 0    50   Input ~ 0
2.25
Text GLabel 3300 5750 2    50   Input ~ 0
2.30
$Comp
L Connector_Generic:Conn_02x26_Odd_Even J4
U 1 1 5E34ACC1
P 3000 5550
F 0 "J4" H 3050 6900 60  0000 C CNN
F 1 "HEADER_2x26" H 3050 6900 60  0001 C CNN
F 2 "Spacemanic_header:Header_2x26_2.54mm" H 3000 6941 60  0001 C CNN
F 3 "" H 3000 6800 60  0000 C CNN
	1    3000 5550
	1    0    0    -1  
$EndComp
Text GLabel 2800 5250 0    50   Input ~ 0
2.19
Text GLabel 2800 5350 0    50   Input ~ 0
2.21
Text GLabel 2800 5150 0    50   Input ~ 0
2.17
Text GLabel 2800 5050 0    50   Input ~ 0
2.15
Text GLabel 2800 4950 0    50   Input ~ 0
2.13
Text GLabel 2800 4750 0    50   Input ~ 0
2.9
Text GLabel 2800 4850 0    50   Input ~ 0
2.11
Text GLabel 2800 4650 0    50   Input ~ 0
2.7
Text GLabel 3300 5350 2    50   Input ~ 0
2.22
Text GLabel 3300 5450 2    50   Input ~ 0
2.24
Text GLabel 3300 5250 2    50   Input ~ 0
2.20
Text GLabel 3300 5550 2    50   Input ~ 0
2.26
Text GLabel 3300 5150 2    50   Input ~ 0
2.18
Text GLabel 3300 5650 2    50   Input ~ 0
2.28
Text GLabel 3300 4950 2    50   Input ~ 0
2.14
Text GLabel 3300 5050 2    50   Input ~ 0
2.16
Text GLabel 3300 4350 2    50   Input ~ 0
2.2
Text GLabel 3300 4550 2    50   Input ~ 0
2.6
Text GLabel 3300 4650 2    50   Input ~ 0
2.8
Text GLabel 3300 4750 2    50   Input ~ 0
2.10
Text GLabel 3300 4850 2    50   Input ~ 0
2.12
Text GLabel 1400 3500 0    50   Input ~ 0
1.45
Text GLabel 1400 3400 0    50   Input ~ 0
1.43
Text GLabel 1400 3300 0    50   Input ~ 0
1.41
Text GLabel 1400 3100 0    50   Input ~ 0
1.37
Text GLabel 1400 3200 0    50   Input ~ 0
1.39
Text GLabel 1400 2900 0    50   Input ~ 0
1.33
Text GLabel 1400 3000 0    50   Input ~ 0
1.35
Text GLabel 1900 3000 2    50   Input ~ 0
1.36
Text GLabel 1900 2900 2    50   Input ~ 0
1.34
Text GLabel 1400 2800 0    50   Input ~ 0
1.31
Text GLabel 1900 2800 2    50   Input ~ 0
1.32
Text GLabel 1900 2700 2    50   Input ~ 0
1.30
Text GLabel 1900 2600 2    50   Input ~ 0
1.28
Text GLabel 1900 2400 2    50   Input ~ 0
1.24
Text GLabel 1900 2500 2    50   Input ~ 0
1.26
Text GLabel 1900 2300 2    50   Input ~ 0
1.22
Text GLabel 1400 2700 0    50   Input ~ 0
1.29
Text GLabel 1400 2600 0    50   Input ~ 0
1.27
Text GLabel 1400 2500 0    50   Input ~ 0
1.25
Text GLabel 1400 2400 0    50   Input ~ 0
1.23
Text GLabel 1400 2300 0    50   Input ~ 0
1.21
Text GLabel 1400 2200 0    50   Input ~ 0
1.19
Text GLabel 1400 1900 0    50   Input ~ 0
1.13
Text GLabel 1400 2000 0    50   Input ~ 0
1.15
Text GLabel 1400 2100 0    50   Input ~ 0
1.17
Text GLabel 1400 1800 0    50   Input ~ 0
1.11
Text GLabel 1900 2200 2    50   Input ~ 0
1.20
Text GLabel 1900 2100 2    50   Input ~ 0
1.18
Text GLabel 1900 1800 2    50   Input ~ 0
1.12
Text GLabel 1900 1900 2    50   Input ~ 0
1.14
Text GLabel 1900 2000 2    50   Input ~ 0
1.16
Text GLabel 1400 1500 0    50   Input ~ 0
1.5
Text GLabel 1900 1400 2    50   Input ~ 0
1.4
Text GLabel 1900 1300 2    50   Input ~ 0
1.2
Text GLabel 1400 1300 0    50   Input ~ 0
1.1
Text GLabel 1400 1700 0    50   Input ~ 0
1.9
Text GLabel 1400 1400 0    50   Input ~ 0
1.3
Text GLabel 1400 1600 0    50   Input ~ 0
1.7
Text GLabel 1900 1500 2    50   Input ~ 0
1.6
Text GLabel 1900 1600 2    50   Input ~ 0
1.8
Text GLabel 1900 1700 2    50   Input ~ 0
1.10
Text GLabel 2800 1800 0    50   Input ~ 0
1.11
Text GLabel 2800 1900 0    50   Input ~ 0
1.13
Text GLabel 2800 2600 0    50   Input ~ 0
1.27
Text GLabel 2800 2500 0    50   Input ~ 0
1.25
Text GLabel 2800 2400 0    50   Input ~ 0
1.23
Text GLabel 2800 2300 0    50   Input ~ 0
1.21
Text GLabel 2800 2200 0    50   Input ~ 0
1.19
Text GLabel 2800 2100 0    50   Input ~ 0
1.17
Text GLabel 2800 2000 0    50   Input ~ 0
1.15
Text GLabel 2800 1400 0    50   Input ~ 0
1.3
Text GLabel 2800 1500 0    50   Input ~ 0
1.5
Text GLabel 2800 1600 0    50   Input ~ 0
1.7
Text GLabel 2800 1700 0    50   Input ~ 0
1.9
Text GLabel 2800 1300 0    50   Input ~ 0
1.1
Text GLabel 2800 3000 0    50   Input ~ 0
1.35
Text GLabel 2800 3100 0    50   Input ~ 0
1.37
Text GLabel 2800 2900 0    50   Input ~ 0
1.33
Text GLabel 2800 2800 0    50   Input ~ 0
1.31
Text GLabel 2800 2700 0    50   Input ~ 0
1.29
$Comp
L Connector_Generic:Conn_02x26_Odd_Even J3
U 1 1 5E34AA3A
P 3000 2500
F 0 "J3" H 3050 3850 60  0000 C CNN
F 1 "HEADER_2x26" H 3075 3850 60  0001 C CNN
F 2 "Spacemanic_header:Header_2x26_2.54mm" H 3000 3891 60  0001 C CNN
F 3 "" H 3000 3750 60  0000 C CNN
	1    3000 2500
	1    0    0    -1  
$EndComp
Text GLabel 3300 2900 2    50   Input ~ 0
1.34
Text GLabel 3300 3000 2    50   Input ~ 0
1.36
Text GLabel 3300 2800 2    50   Input ~ 0
1.32
Text GLabel 3300 2700 2    50   Input ~ 0
1.30
Text GLabel 3300 2200 2    50   Input ~ 0
1.20
Text GLabel 3300 2000 2    50   Input ~ 0
1.16
Text GLabel 3300 2100 2    50   Input ~ 0
1.18
Text GLabel 3300 1900 2    50   Input ~ 0
1.14
Text GLabel 3300 1800 2    50   Input ~ 0
1.12
Text GLabel 3300 1700 2    50   Input ~ 0
1.10
Text GLabel 3300 1600 2    50   Input ~ 0
1.8
Text GLabel 3300 1300 2    50   Input ~ 0
1.2
Text GLabel 3300 1400 2    50   Input ~ 0
1.4
Text GLabel 3300 1500 2    50   Input ~ 0
1.6
Text GLabel 3300 2300 2    50   Input ~ 0
1.22
Text GLabel 3300 2400 2    50   Input ~ 0
1.24
Text GLabel 3300 2600 2    50   Input ~ 0
1.28
Text GLabel 3300 2500 2    50   Input ~ 0
1.26
Text GLabel 6700 3075 0    50   Input ~ 0
RS485_B
Text GLabel 6700 3375 0    50   Input ~ 0
SPI_0_MOSI
Text GLabel 6700 3275 0    50   Input ~ 0
SPI_0_CS
Text GLabel 6700 3175 0    50   Input ~ 0
RS485_A
Wire Wire Line
	6600 3475 6700 3475
Text GLabel 6700 2975 0    50   Input ~ 0
I2C_0_SCL
Wire Wire Line
	6675 2675 6675 2775
Connection ~ 6675 2775
Wire Wire Line
	6675 2775 6700 2775
Wire Wire Line
	6600 2775 6675 2775
Wire Wire Line
	6600 2875 6700 2875
$Comp
L power:GND #PWR0103
U 1 1 5E4EC7B2
P 6600 2875
F 0 "#PWR0103" H 6600 2625 50  0001 C CNN
F 1 "GND" V 6605 2747 50  0000 R CNN
F 2 "" H 6600 2875 50  0001 C CNN
F 3 "" H 6600 2875 50  0001 C CNN
	1    6600 2875
	0    1    1    0   
$EndComp
Connection ~ 6675 2575
Wire Wire Line
	6700 2675 6675 2675
Wire Wire Line
	6675 2575 6700 2575
Wire Wire Line
	6675 2475 6675 2575
Wire Wire Line
	6700 2475 6675 2475
Wire Wire Line
	6600 2375 6700 2375
Wire Wire Line
	6600 2575 6675 2575
Text GLabel 7200 3875 2    50   Input ~ 0
GPIO0
Text GLabel 7200 3675 2    50   Input ~ 0
CAN_L
Wire Wire Line
	7200 3775 7300 3775
Text GLabel 7200 4175 2    50   Input ~ 0
GPIO6_ADC2
Text GLabel 7200 4275 2    50   Input ~ 0
PWM1
Text GLabel 7200 3975 2    50   Input ~ 0
GPIO2
Text GLabel 7200 4075 2    50   Input ~ 0
GPIOO4_ADC0
Text GLabel 7200 3575 2    50   Input ~ 0
CAN_H
Wire Wire Line
	7200 3475 7300 3475
Text GLabel 7200 3375 2    50   Input ~ 0
SPI_0_MISO
Text GLabel 7200 3175 2    50   Input ~ 0
UART_0_RXD
Text GLabel 7200 3275 2    50   Input ~ 0
SPI_0_CLK
Text GLabel 7200 3075 2    50   Input ~ 0
UART_0_TXD
Text GLabel 7200 2975 2    50   Input ~ 0
I2C_0_SDA
Wire Wire Line
	7200 2575 7225 2575
Connection ~ 7225 2575
Wire Wire Line
	7200 2375 7300 2375
Wire Wire Line
	7200 2475 7225 2475
Wire Wire Line
	7225 2475 7225 2575
Wire Wire Line
	7225 2675 7225 2775
Wire Wire Line
	7200 2675 7225 2675
Wire Wire Line
	7225 2575 7300 2575
Wire Wire Line
	7225 2775 7300 2775
Wire Wire Line
	7200 2775 7225 2775
Wire Wire Line
	7200 2875 7300 2875
Connection ~ 7225 2775
Text GLabel 6700 3575 0    50   Input ~ 0
CAN_H
Text GLabel 6700 3875 0    50   Input ~ 0
GPIO1
Text GLabel 6700 3975 0    50   Input ~ 0
GPIO3
Text GLabel 6700 4075 0    50   Input ~ 0
GPIO5_ADC1
Text GLabel 6700 3675 0    50   Input ~ 0
CAN_L
Text GLabel 6700 4275 0    50   Input ~ 0
PWM2
Text GLabel 6700 4175 0    50   Input ~ 0
GPIO7_ADC3
Wire Wire Line
	7200 4675 7300 4675
Wire Wire Line
	6600 4675 6700 4675
NoConn ~ 6700 4375
Text GLabel 6700 4575 0    50   Input ~ 0
PPS
Text GLabel 6700 4475 0    50   Input ~ 0
MCLK
Text GLabel 7200 4375 2    50   Input ~ 0
PWM3
Text GLabel 7200 4475 2    50   Input ~ 0
DMA_TRIG
Text GLabel 7200 4575 2    50   Input ~ 0
EXT_RST
Wire Wire Line
	7200 4975 7300 4975
Text GLabel 7200 5175 2    50   Input ~ 0
I2C_ISOL_SCL
Wire Wire Line
	7200 5275 7300 5275
Text GLabel 7200 5075 2    50   Input ~ 0
I2C_ISOL_SDA
$Comp
L spacemanic_power:GND_ISOL #PWR8
U 1 1 5E4EC71E
P 7300 5275
F 0 "#PWR8" H 7475 5125 50  0001 C CNN
F 1 "GND_ISOL" V 7296 5147 50  0000 R CNN
F 2 "" H 7300 5275 50  0001 C CNN
F 3 "" H 7300 5275 50  0001 C CNN
	1    7300 5275
	0    -1   -1   0   
$EndComp
Wire Wire Line
	6575 4975 6700 4975
Wire Wire Line
	6600 5275 6700 5275
Text GLabel 6700 5175 0    50   Input ~ 0
I2C_ISOL_SCL
Text GLabel 6700 5075 0    50   Input ~ 0
I2C_ISOL_SDA
$Comp
L spacemanic_power:GND_ISOL #PWR7
U 1 1 5E4EC762
P 6600 5275
F 0 "#PWR7" H 6775 5125 50  0001 C CNN
F 1 "GND_ISOL" V 6595 5147 50  0000 R CNN
F 2 "" H 6600 5275 50  0001 C CNN
F 3 "" H 6600 5275 50  0001 C CNN
	1    6600 5275
	0    1    1    0   
$EndComp
$Comp
L power:+BATT #PWR0105
U 1 1 5E4EC3B2
P 7300 2375
F 0 "#PWR0105" H 7300 2225 50  0001 C CNN
F 1 "+BATT" V 7315 2503 50  0000 L CNN
F 2 "" H 7300 2375 50  0001 C CNN
F 3 "" H 7300 2375 50  0001 C CNN
	1    7300 2375
	0    1    1    0   
$EndComp
$Comp
L power:+BATT #PWR0106
U 1 1 5E4EC3D2
P 6600 2375
F 0 "#PWR0106" H 6600 2225 50  0001 C CNN
F 1 "+BATT" V 6615 2503 50  0000 L CNN
F 2 "" H 6600 2375 50  0001 C CNN
F 3 "" H 6600 2375 50  0001 C CNN
	1    6600 2375
	0    -1   -1   0   
$EndComp
$Comp
L power:GND #PWR0116
U 1 1 5E4EC81A
P 7300 2875
F 0 "#PWR0116" H 7300 2625 50  0001 C CNN
F 1 "GND" V 7305 2747 50  0000 R CNN
F 2 "" H 7300 2875 50  0001 C CNN
F 3 "" H 7300 2875 50  0001 C CNN
	1    7300 2875
	0    -1   -1   0   
$EndComp
$Comp
L spacemanic_power:+3.3V_IN #PWR4
U 1 1 5E4EC419
P 7300 2775
F 0 "#PWR4" H 7300 2700 50  0001 C CNN
F 1 "+3.3V_IN" V 7286 2903 50  0000 L CNN
F 2 "" H 7300 2775 50  0001 C CNN
F 3 "" H 7300 2775 50  0001 C CNN
	1    7300 2775
	0    1    1    0   
$EndComp
$Comp
L spacemanic_power:+3.3V_IN #PWR3
U 1 1 5E4EC7C9
P 6600 2775
F 0 "#PWR3" H 6600 2700 50  0001 C CNN
F 1 "+3.3V_IN" V 6586 2903 50  0000 L CNN
F 2 "" H 6600 2775 50  0001 C CNN
F 3 "" H 6600 2775 50  0001 C CNN
	1    6600 2775
	0    -1   -1   0   
$EndComp
$Comp
L spacemanic_power:+5V_IN #PWR2
U 1 1 5E4EC434
P 7300 2575
F 0 "#PWR2" H 7300 2500 50  0001 C CNN
F 1 "+5V_IN" V 7286 2703 50  0000 L CNN
F 2 "" H 7300 2575 50  0001 C CNN
F 3 "" H 7300 2575 50  0001 C CNN
	1    7300 2575
	0    1    1    0   
$EndComp
$Comp
L spacemanic_power:+5V_IN #PWR1
U 1 1 5E4EC3ED
P 6600 2575
F 0 "#PWR1" H 6600 2500 50  0001 C CNN
F 1 "+5V_IN" V 6586 2703 50  0000 L CNN
F 2 "" H 6600 2575 50  0001 C CNN
F 3 "" H 6600 2575 50  0001 C CNN
	1    6600 2575
	0    -1   -1   0   
$EndComp
Wire Wire Line
	6600 3775 6700 3775
$Comp
L power:GND #PWR0104
U 1 1 5E4EC796
P 6600 4675
F 0 "#PWR0104" H 6600 4425 50  0001 C CNN
F 1 "GND" V 6605 4547 50  0000 R CNN
F 2 "" H 6600 4675 50  0001 C CNN
F 3 "" H 6600 4675 50  0001 C CNN
	1    6600 4675
	0    1    1    0   
$EndComp
$Comp
L power:GND #PWR0102
U 1 1 5E4EC84A
P 6600 3475
F 0 "#PWR0102" H 6600 3225 50  0001 C CNN
F 1 "GND" V 6605 3347 50  0000 R CNN
F 2 "" H 6600 3475 50  0001 C CNN
F 3 "" H 6600 3475 50  0001 C CNN
	1    6600 3475
	0    1    1    0   
$EndComp
$Comp
L power:GND #PWR0101
U 1 1 5E4EC833
P 6600 3775
F 0 "#PWR0101" H 6600 3525 50  0001 C CNN
F 1 "GND" V 6605 3647 50  0000 R CNN
F 2 "" H 6600 3775 50  0001 C CNN
F 3 "" H 6600 3775 50  0001 C CNN
	1    6600 3775
	0    1    1    0   
$EndComp
$Comp
L Connector_Generic:Conn_02x30_Odd_Even J5
U 1 1 5E4EC44F
P 7000 3775
F 0 "J5" H 7050 5350 60  0000 C CNN
F 1 "HEADER_2x30" H 7000 5472 60  0001 C CNN
F 2 "Pin_Headers:Pin_Header_Straight_2x30_Pitch2.54mm" H 7000 5365 60  0001 C CNN
F 3 "" H 7000 5225 60  0000 C CNN
	1    7000 3775
	-1   0    0    -1  
$EndComp
$Comp
L power:GND #PWR0113
U 1 1 5E4EC803
P 7300 3475
F 0 "#PWR0113" H 7300 3225 50  0001 C CNN
F 1 "GND" V 7305 3347 50  0000 R CNN
F 2 "" H 7300 3475 50  0001 C CNN
F 3 "" H 7300 3475 50  0001 C CNN
	1    7300 3475
	0    -1   -1   0   
$EndComp
$Comp
L power:GND #PWR0114
U 1 1 5E4EC77C
P 7300 4675
F 0 "#PWR0114" H 7300 4425 50  0001 C CNN
F 1 "GND" V 7305 4547 50  0000 R CNN
F 2 "" H 7300 4675 50  0001 C CNN
F 3 "" H 7300 4675 50  0001 C CNN
	1    7300 4675
	0    -1   -1   0   
$EndComp
$Comp
L power:GND #PWR0115
U 1 1 5E4EC7EC
P 7300 3775
F 0 "#PWR0115" H 7300 3525 50  0001 C CNN
F 1 "GND" V 7305 3647 50  0000 R CNN
F 2 "" H 7300 3775 50  0001 C CNN
F 3 "" H 7300 3775 50  0001 C CNN
	1    7300 3775
	0    -1   -1   0   
$EndComp
$Comp
L spacemanic_power:+3.3V_ISOL #PWR6
U 1 1 5E4EC703
P 7300 4975
F 0 "#PWR6" H 7275 4900 50  0001 C CNN
F 1 "+3.3V_ISOL" V 7285 5103 50  0000 L CNN
F 2 "" H 7525 5350 50  0001 C CNN
F 3 "" H 7525 5350 50  0001 C CNN
	1    7300 4975
	0    1    1    0   
$EndComp
$Comp
L spacemanic_power:+3.3V_ISOL #PWR5
U 1 1 5E4EC747
P 6575 4975
F 0 "#PWR5" H 6550 4900 50  0001 C CNN
F 1 "+3.3V_ISOL" V 6561 5103 50  0000 L CNN
F 2 "" H 6800 5350 50  0001 C CNN
F 3 "" H 6800 5350 50  0001 C CNN
	1    6575 4975
	0    -1   -1   0   
$EndComp
Wire Wire Line
	8700 3475 8800 3475
Text GLabel 8800 3375 0    50   Input ~ 0
SPI_0_MOSI
Text GLabel 8800 3275 0    50   Input ~ 0
SPI_0_CS
Wire Wire Line
	9325 2575 9400 2575
Wire Wire Line
	9300 2375 9400 2375
Wire Wire Line
	9300 2575 9325 2575
Connection ~ 9325 2575
Wire Wire Line
	8775 2475 8775 2575
Wire Wire Line
	8800 2475 8775 2475
Wire Wire Line
	9325 2475 9325 2575
Wire Wire Line
	9300 2475 9325 2475
Wire Wire Line
	8775 2575 8800 2575
Connection ~ 8775 2575
Wire Wire Line
	8700 2575 8775 2575
Wire Wire Line
	8700 2375 8800 2375
Connection ~ 8775 2775
Wire Wire Line
	8800 2675 8775 2675
Wire Wire Line
	8775 2775 8800 2775
Wire Wire Line
	8700 2775 8775 2775
Wire Wire Line
	8775 2675 8775 2775
Wire Wire Line
	8700 2875 8800 2875
Text GLabel 8800 3175 0    50   Input ~ 0
RS485_A
Text GLabel 8800 3075 0    50   Input ~ 0
RS485_B
Text GLabel 8800 2975 0    50   Input ~ 0
I2C_0_SCL
Text GLabel 8800 4075 0    50   Input ~ 0
GPIO5_ADC1
Text GLabel 8800 3975 0    50   Input ~ 0
GPIO3
Text GLabel 8800 3875 0    50   Input ~ 0
GPIO1
Text GLabel 8800 3675 0    50   Input ~ 0
CAN_L
Wire Wire Line
	8700 3775 8800 3775
Text GLabel 8800 3575 0    50   Input ~ 0
CAN_H
Text GLabel 8800 4175 0    50   Input ~ 0
GPIO7_ADC3
Text GLabel 8800 4275 0    50   Input ~ 0
PWM2
Text GLabel 8800 4475 0    50   Input ~ 0
MCLK
Text GLabel 8800 4575 0    50   Input ~ 0
PPS
NoConn ~ 8800 4375
Wire Wire Line
	9300 4675 9400 4675
Text GLabel 9300 4575 2    50   Input ~ 0
EXT_RST
Text GLabel 9300 4475 2    50   Input ~ 0
DMA_TRIG
Text GLabel 9300 4375 2    50   Input ~ 0
PWM3
Wire Wire Line
	8700 4675 8800 4675
NoConn ~ 8800 4775
NoConn ~ 8800 4875
Wire Wire Line
	8675 4975 8800 4975
Wire Wire Line
	8700 5275 8800 5275
Text GLabel 8800 5175 0    50   Input ~ 0
I2C_ISOL_SCL
Text GLabel 8800 5075 0    50   Input ~ 0
I2C_ISOL_SDA
$Comp
L spacemanic_power:GND_ISOL #PWR12
U 1 1 5E6441EB
P 8700 5275
F 0 "#PWR12" H 8875 5125 50  0001 C CNN
F 1 "GND_ISOL" V 8695 5147 50  0000 R CNN
F 2 "" H 8700 5275 50  0001 C CNN
F 3 "" H 8700 5275 50  0001 C CNN
	1    8700 5275
	0    1    1    0   
$EndComp
Wire Wire Line
	9300 2675 9325 2675
Connection ~ 9325 2775
Wire Wire Line
	9325 2775 9400 2775
Wire Wire Line
	9300 2775 9325 2775
Wire Wire Line
	9325 2675 9325 2775
$Comp
L power:GND #PWR0125
U 1 1 5E710BB7
P 9775 1150
F 0 "#PWR0125" H 9775 900 50  0001 C CNN
F 1 "GND" V 9780 1022 50  0000 R CNN
F 2 "" H 9775 1150 50  0001 C CNN
F 3 "" H 9775 1150 50  0001 C CNN
	1    9775 1150
	0    1    1    0   
$EndComp
Text GLabel 9300 2975 2    50   Input ~ 0
I2C_0_SDA
Text GLabel 9300 3075 2    50   Input ~ 0
UART_0_TXD
Text GLabel 9300 3175 2    50   Input ~ 0
UART_0_RXD
Wire Wire Line
	9300 2875 9400 2875
$Comp
L power:GND #PWR0110
U 1 1 5E5D3C45
P 9400 3475
F 0 "#PWR0110" H 9400 3225 50  0001 C CNN
F 1 "GND" V 9405 3347 50  0000 R CNN
F 2 "" H 9400 3475 50  0001 C CNN
F 3 "" H 9400 3475 50  0001 C CNN
	1    9400 3475
	0    -1   -1   0   
$EndComp
$Comp
L power:GND #PWR0107
U 1 1 5E588945
P 9400 2875
F 0 "#PWR0107" H 9400 2625 50  0001 C CNN
F 1 "GND" V 9405 2747 50  0000 R CNN
F 2 "" H 9400 2875 50  0001 C CNN
F 3 "" H 9400 2875 50  0001 C CNN
	1    9400 2875
	0    -1   -1   0   
$EndComp
Wire Wire Line
	9400 5900 9400 5800
Wire Wire Line
	9175 5900 9400 5900
Connection ~ 9175 5900
Wire Wire Line
	9175 5800 9175 5900
Wire Wire Line
	8925 5900 9175 5900
Wire Wire Line
	8675 5800 8675 5900
Connection ~ 8925 5900
Wire Wire Line
	8675 5900 8925 5900
Wire Wire Line
	8925 5800 8925 5900
Wire Wire Line
	10050 1150 10050 1075
Wire Wire Line
	9975 1150 10050 1150
$Comp
L Device:L_Small L1
U 1 1 5E702FEF
P 9875 1150
F 0 "L1" V 9975 1150 50  0000 C CNN
F 1 "FBMH3225HM102NT" V 9750 775 50  0000 L CNN
F 2 "Inductors_SMD:L_1210_HandSoldering" H 9875 1150 50  0001 C CNN
F 3 "~" H 9875 1150 50  0001 C CNN
	1    9875 1150
	0    -1   -1   0   
$EndComp
$Comp
L Mechanical:MountingHole_Pad M2
U 1 1 5D096AD3
P 10300 975
F 0 "M2" H 10300 1150 60  0000 C CNN
F 1 "HOLE" H 10319 1083 60  0001 C CNN
F 2 "Mounting_Holes:MountingHole_3.2mm_M3_DIN965_Pad" H 10319 1083 60  0001 C CNN
F 3 "" H 10300 975 60  0000 C CNN
	1    10300 975 
	1    0    0    -1  
$EndComp
$Comp
L Mechanical:MountingHole_Pad M4
U 1 1 5D097003
P 10800 975
F 0 "M4" H 10800 1150 60  0000 C CNN
F 1 "HOLE" H 10819 1083 60  0001 C CNN
F 2 "Mounting_Holes:MountingHole_3.2mm_M3_DIN965_Pad" H 10819 1083 60  0001 C CNN
F 3 "" H 10800 975 60  0000 C CNN
	1    10800 975 
	1    0    0    -1  
$EndComp
$Comp
L Mechanical:MountingHole_Pad M3
U 1 1 5D096D66
P 10550 975
F 0 "M3" H 10550 1150 60  0000 C CNN
F 1 "HOLE" H 10569 1083 60  0001 C CNN
F 2 "Mounting_Holes:MountingHole_3.2mm_M3_DIN965_Pad" H 10569 1083 60  0001 C CNN
F 3 "" H 10550 975 60  0000 C CNN
	1    10550 975 
	1    0    0    -1  
$EndComp
$Comp
L Mechanical:MountingHole_Pad M1
U 1 1 5D096865
P 10050 975
F 0 "M1" H 10050 1150 60  0000 C CNN
F 1 "HOLE" V 9950 975 60  0001 C CNN
F 2 "Mounting_Holes:MountingHole_3.2mm_M3_DIN965_Pad" H 10069 1083 60  0001 C CNN
F 3 "" H 10050 975 60  0000 C CNN
	1    10050 975 
	1    0    0    -1  
$EndComp
Wire Wire Line
	8925 5900 8925 6000
$Comp
L Mechanical:MountingHole_Pad M6
U 1 1 5E43C207
P 8925 5700
F 0 "M6" H 8925 5875 60  0000 C CNN
F 1 "HOLE" V 8825 5700 60  0001 C CNN
F 2 "Spacemanic_mechanical:Spacer_hole_4.4mm" H 8944 5808 60  0001 C CNN
F 3 "" H 8925 5700 60  0000 C CNN
	1    8925 5700
	1    0    0    -1  
$EndComp
$Comp
L Mechanical:MountingHole_Pad M8
U 1 1 5E43C1D9
P 9400 5700
F 0 "M8" H 9400 5875 60  0000 C CNN
F 1 "HOLE" V 9300 5725 60  0001 C CNN
F 2 "Spacemanic_mechanical:Spacer_hole_4.4mm" H 9419 5808 60  0001 C CNN
F 3 "" H 9400 5700 60  0000 C CNN
	1    9400 5700
	1    0    0    -1  
$EndComp
$Comp
L Mechanical:MountingHole_Pad M7
U 1 1 5E43C21E
P 9175 5700
F 0 "M7" H 9175 5875 60  0000 C CNN
F 1 "HOLE" V 9075 5700 60  0001 C CNN
F 2 "Spacemanic_mechanical:Spacer_hole_4.4mm" H 9194 5808 60  0001 C CNN
F 3 "" H 9175 5700 60  0000 C CNN
	1    9175 5700
	1    0    0    -1  
$EndComp
$Comp
L Mechanical:MountingHole_Pad M5
U 1 1 5E43C1F0
P 8675 5700
F 0 "M5" H 8675 5875 60  0000 C CNN
F 1 "HOLE" V 8575 5700 60  0001 C CNN
F 2 "Spacemanic_mechanical:Spacer_hole_4.4mm" H 8694 5808 60  0001 C CNN
F 3 "" H 8675 5700 60  0000 C CNN
	1    8675 5700
	1    0    0    -1  
$EndComp
$Comp
L power:GND #PWR0121
U 1 1 5E512676
P 8925 6000
F 0 "#PWR0121" H 8925 5750 50  0001 C CNN
F 1 "GND" H 9000 5850 50  0000 R CNN
F 2 "" H 8925 6000 50  0001 C CNN
F 3 "" H 8925 6000 50  0001 C CNN
	1    8925 6000
	1    0    0    -1  
$EndComp
Wire Wire Line
	9300 4975 9400 4975
NoConn ~ 9300 4875
NoConn ~ 9300 4775
Wire Wire Line
	9300 5275 9400 5275
Text GLabel 9300 5175 2    50   Input ~ 0
I2C_ISOL_SCL
Text GLabel 9300 5075 2    50   Input ~ 0
I2C_ISOL_SDA
$Comp
L spacemanic_power:GND_ISOL #PWR16
U 1 1 5E6435EE
P 9400 5275
F 0 "#PWR16" H 9575 5125 50  0001 C CNN
F 1 "GND_ISOL" V 9396 5147 50  0000 R CNN
F 2 "" H 9400 5275 50  0001 C CNN
F 3 "" H 9400 5275 50  0001 C CNN
	1    9400 5275
	0    -1   -1   0   
$EndComp
Text GLabel 9300 3875 2    50   Input ~ 0
GPIO0
Wire Wire Line
	9300 3775 9400 3775
Wire Wire Line
	9300 3475 9400 3475
Text GLabel 9300 3275 2    50   Input ~ 0
SPI_0_CLK
Text GLabel 9300 3375 2    50   Input ~ 0
SPI_0_MISO
Text GLabel 9300 4275 2    50   Input ~ 0
PWM1
Text GLabel 9300 3975 2    50   Input ~ 0
GPIO2
Text GLabel 9300 4175 2    50   Input ~ 0
GPIO6_ADC2
Text GLabel 9300 4075 2    50   Input ~ 0
GPIOO4_ADC0
$Comp
L power:+BATT #PWR0111
U 1 1 5E4E3F25
P 9400 2375
F 0 "#PWR0111" H 9400 2225 50  0001 C CNN
F 1 "+BATT" V 9415 2503 50  0000 L CNN
F 2 "" H 9400 2375 50  0001 C CNN
F 3 "" H 9400 2375 50  0001 C CNN
	1    9400 2375
	0    1    1    0   
$EndComp
$Comp
L power:+BATT #PWR0117
U 1 1 5E4DD784
P 8700 2375
F 0 "#PWR0117" H 8700 2225 50  0001 C CNN
F 1 "+BATT" V 8715 2503 50  0000 L CNN
F 2 "" H 8700 2375 50  0001 C CNN
F 3 "" H 8700 2375 50  0001 C CNN
	1    8700 2375
	0    -1   -1   0   
$EndComp
$Comp
L spacemanic_power:+3.3V_IN #PWR14
U 1 1 5E574F89
P 9400 2775
F 0 "#PWR14" H 9400 2700 50  0001 C CNN
F 1 "+3.3V_IN" V 9386 2903 50  0000 L CNN
F 2 "" H 9400 2775 50  0001 C CNN
F 3 "" H 9400 2775 50  0001 C CNN
	1    9400 2775
	0    1    1    0   
$EndComp
$Comp
L spacemanic_power:+3.3V_IN #PWR11
U 1 1 5E574656
P 8700 2775
F 0 "#PWR11" H 8700 2700 50  0001 C CNN
F 1 "+3.3V_IN" V 8686 2903 50  0000 L CNN
F 2 "" H 8700 2775 50  0001 C CNN
F 3 "" H 8700 2775 50  0001 C CNN
	1    8700 2775
	0    -1   -1   0   
$EndComp
$Comp
L spacemanic_power:+5V_IN #PWR10
U 1 1 5E55D099
P 8700 2575
F 0 "#PWR10" H 8700 2500 50  0001 C CNN
F 1 "+5V_IN" V 8686 2703 50  0000 L CNN
F 2 "" H 8700 2575 50  0001 C CNN
F 3 "" H 8700 2575 50  0001 C CNN
	1    8700 2575
	0    -1   -1   0   
$EndComp
$Comp
L spacemanic_power:+5V_IN #PWR13
U 1 1 5E55DC28
P 9400 2575
F 0 "#PWR13" H 9400 2500 50  0001 C CNN
F 1 "+5V_IN" V 9386 2703 50  0000 L CNN
F 2 "" H 9400 2575 50  0001 C CNN
F 3 "" H 9400 2575 50  0001 C CNN
	1    9400 2575
	0    1    1    0   
$EndComp
$Comp
L power:GND #PWR0108
U 1 1 5E5D3C2E
P 8700 3475
F 0 "#PWR0108" H 8700 3225 50  0001 C CNN
F 1 "GND" V 8705 3347 50  0000 R CNN
F 2 "" H 8700 3475 50  0001 C CNN
F 3 "" H 8700 3475 50  0001 C CNN
	1    8700 3475
	0    1    1    0   
$EndComp
$Comp
L power:GND #PWR0112
U 1 1 5E5D6A55
P 9400 3775
F 0 "#PWR0112" H 9400 3525 50  0001 C CNN
F 1 "GND" V 9405 3647 50  0000 R CNN
F 2 "" H 9400 3775 50  0001 C CNN
F 3 "" H 9400 3775 50  0001 C CNN
	1    9400 3775
	0    -1   -1   0   
$EndComp
$Comp
L power:GND #PWR0120
U 1 1 5E634BCA
P 9400 4675
F 0 "#PWR0120" H 9400 4425 50  0001 C CNN
F 1 "GND" V 9405 4547 50  0000 R CNN
F 2 "" H 9400 4675 50  0001 C CNN
F 3 "" H 9400 4675 50  0001 C CNN
	1    9400 4675
	0    -1   -1   0   
$EndComp
$Comp
L power:GND #PWR0119
U 1 1 5E634BB3
P 8700 4675
F 0 "#PWR0119" H 8700 4425 50  0001 C CNN
F 1 "GND" V 8705 4547 50  0000 R CNN
F 2 "" H 8700 4675 50  0001 C CNN
F 3 "" H 8700 4675 50  0001 C CNN
	1    8700 4675
	0    1    1    0   
$EndComp
$Comp
L power:GND #PWR0109
U 1 1 5E5D6A3E
P 8700 3775
F 0 "#PWR0109" H 8700 3525 50  0001 C CNN
F 1 "GND" V 8705 3647 50  0000 R CNN
F 2 "" H 8700 3775 50  0001 C CNN
F 3 "" H 8700 3775 50  0001 C CNN
	1    8700 3775
	0    1    1    0   
$EndComp
$Comp
L Connector_Generic:Conn_02x30_Odd_Even J6
U 1 1 5E463BC1
P 9100 3775
F 0 "J6" H 9150 5450 60  0000 C CNN
F 1 "HEADER_2x30" H 9150 5350 60  0001 C CNN
F 2 "Spacemanic_connector:Samtec_TLH-030_Molex_SlimStack-receptable-2x30_hybride" H 9100 5365 60  0001 C CNN
F 3 "" H 9100 5225 60  0000 C CNN
	1    9100 3775
	-1   0    0    -1  
$EndComp
$Comp
L power:GND #PWR0118
U 1 1 5E585E13
P 8700 2875
F 0 "#PWR0118" H 8700 2625 50  0001 C CNN
F 1 "GND" V 8705 2747 50  0000 R CNN
F 2 "" H 8700 2875 50  0001 C CNN
F 3 "" H 8700 2875 50  0001 C CNN
	1    8700 2875
	0    1    1    0   
$EndComp
$Comp
L spacemanic_power:+3.3V_ISOL #PWR9
U 1 1 5E63DEF5
P 8675 4975
F 0 "#PWR9" H 8650 4900 50  0001 C CNN
F 1 "+3.3V_ISOL" V 8661 5103 50  0000 L CNN
F 2 "" H 8900 5350 50  0001 C CNN
F 3 "" H 8900 5350 50  0001 C CNN
	1    8675 4975
	0    -1   -1   0   
$EndComp
$Comp
L spacemanic_power:+3.3V_ISOL #PWR15
U 1 1 5E63E9D5
P 9400 4975
F 0 "#PWR15" H 9375 4900 50  0001 C CNN
F 1 "+3.3V_ISOL" V 9385 5103 50  0000 L CNN
F 2 "" H 9625 5350 50  0001 C CNN
F 3 "" H 9625 5350 50  0001 C CNN
	1    9400 4975
	0    1    1    0   
$EndComp
Text GLabel 9300 3575 2    50   Input ~ 0
CAN_H
Text GLabel 9300 3675 2    50   Input ~ 0
CAN_L
$Comp
L Connector_Generic:Conn_02x26_Odd_Even J1
U 1 1 5D194D38
P 1600 2500
F 0 "J1" H 1650 4000 60  0000 C CNN
F 1 "HEADER_2x26" H 1650 3850 60  0001 C CNN
F 2 "Spacemanic_header:Header_2x26_2.54mm" H 1600 3891 60  0001 C CNN
F 3 "" H 1600 3750 60  0000 C CNN
	1    1600 2500
	1    0    0    -1  
$EndComp
$Comp
L power:GND #PWR0123
U 1 1 5E6510B7
P 4350 2275
F 0 "#PWR0123" H 4350 2025 50  0001 C CNN
F 1 "GND" V 4355 2147 50  0000 R CNN
F 2 "" H 4350 2275 50  0001 C CNN
F 3 "" H 4350 2275 50  0001 C CNN
	1    4350 2275
	1    0    0    -1  
$EndComp
$Comp
L Device:Jumper_NC_Small JP1
U 1 1 5E668409
P 4350 1450
F 0 "JP1" V 4350 1650 50  0000 R CNN
F 1 "Jumper_NC_Small" H 4350 1570 50  0001 C CNN
F 2 "Connector_PinHeader_2.54mm:PinHeader_1x02_P2.54mm_Vertical" H 4350 1450 50  0001 C CNN
F 3 "~" H 4350 1450 50  0001 C CNN
	1    4350 1450
	0    -1   -1   0   
$EndComp
Wire Wire Line
	4675 1750 4625 1750
Text GLabel 4625 1750 0    50   Input ~ 0
2.26
Connection ~ 4350 1650
Connection ~ 4675 1650
Wire Wire Line
	4675 1550 4675 1650
Wire Wire Line
	4350 1550 4350 1650
Wire Wire Line
	4625 1650 4675 1650
Wire Wire Line
	4675 1650 4675 1750
Text GLabel 4625 1650 0    50   Input ~ 0
2.25
Wire Wire Line
	4350 1650 4350 1750
Wire Wire Line
	4300 1650 4350 1650
Wire Wire Line
	4350 1750 4300 1750
$Comp
L spacemanic_power:+5V_IN #PWR17
U 1 1 5E53E935
P 4675 1350
F 0 "#PWR17" H 4675 1275 50  0001 C CNN
F 1 "+5V_IN" V 4661 1478 50  0000 L CNN
F 2 "" H 4675 1350 50  0001 C CNN
F 3 "" H 4675 1350 50  0001 C CNN
	1    4675 1350
	1    0    0    -1  
$EndComp
$Comp
L spacemanic_power:+3.3V_IN #PWR18
U 1 1 5E5520D0
P 5000 1350
F 0 "#PWR18" H 5000 1275 50  0001 C CNN
F 1 "+3.3V_IN" V 4986 1478 50  0000 L CNN
F 2 "" H 5000 1350 50  0001 C CNN
F 3 "" H 5000 1350 50  0001 C CNN
	1    5000 1350
	1    0    0    -1  
$EndComp
$Comp
L power:GNDA #PWR0124
U 1 1 5E6AE908
P 4675 2275
F 0 "#PWR0124" H 4675 2025 50  0001 C CNN
F 1 "GNDA" V 4675 2050 50  0000 C CNN
F 2 "" H 4675 2275 50  0001 C CNN
F 3 "" H 4675 2275 50  0001 C CNN
	1    4675 2275
	1    0    0    -1  
$EndComp
$Comp
L power:+BATT #PWR0122
U 1 1 5E526D9E
P 4350 1350
F 0 "#PWR0122" H 4350 1200 50  0001 C CNN
F 1 "+BATT" V 4365 1478 50  0000 L CNN
F 2 "" H 4350 1350 50  0001 C CNN
F 3 "" H 4350 1350 50  0001 C CNN
	1    4350 1350
	1    0    0    -1  
$EndComp
$Comp
L Device:Jumper_NC_Small JP2
U 1 1 5E68D70D
P 4675 1450
F 0 "JP2" V 4675 1650 50  0000 R CNN
F 1 "Jumper_NC_Small" H 4675 1570 50  0001 C CNN
F 2 "Connector_PinHeader_2.54mm:PinHeader_1x02_P2.54mm_Vertical" H 4675 1450 50  0001 C CNN
F 3 "~" H 4675 1450 50  0001 C CNN
	1    4675 1450
	0    -1   -1   0   
$EndComp
$Comp
L Device:Jumper_NC_Small JP3
U 1 1 5E6922C9
P 5000 1450
F 0 "JP3" V 5000 1650 50  0000 R CNN
F 1 "Jumper_NC_Small" H 5000 1570 50  0001 C CNN
F 2 "Connector_PinHeader_2.54mm:PinHeader_1x02_P2.54mm_Vertical" H 5000 1450 50  0001 C CNN
F 3 "~" H 5000 1450 50  0001 C CNN
	1    5000 1450
	0    -1   -1   0   
$EndComp
Text GLabel 4950 1650 0    50   Input ~ 0
2.27
Text GLabel 4950 1750 0    50   Input ~ 0
2.28
Wire Wire Line
	4625 1975 4675 1975
Text GLabel 4625 1975 0    50   Input ~ 0
2.31
Connection ~ 4350 2075
Wire Wire Line
	4675 1975 4675 2275
Wire Wire Line
	4300 2075 4350 2075
Connection ~ 4350 2175
Wire Wire Line
	4300 2175 4350 2175
Wire Wire Line
	4350 2075 4350 2175
Wire Wire Line
	4350 2175 4350 2275
Connection ~ 5000 1650
Wire Wire Line
	5000 1550 5000 1650
Wire Wire Line
	5000 1650 5000 1750
Wire Wire Line
	5000 1750 4950 1750
Wire Wire Line
	4950 1650 5000 1650
Wire Wire Line
	4350 1975 4350 2075
Wire Wire Line
	4300 1975 4350 1975
Text GLabel 4300 2175 0    50   Input ~ 0
2.32
Text GLabel 4300 1975 0    50   Input ~ 0
2.29
Text GLabel 4300 2075 0    50   Input ~ 0
2.30
Text GLabel 4300 1750 0    50   Input ~ 0
2.46
Text GLabel 4300 1650 0    50   Input ~ 0
2.45
NoConn ~ 10300 1075
NoConn ~ 10550 1075
NoConn ~ 10800 1075
Text Notes 8650 2250 0    59   ~ 12
Module connector
Text Notes 1200 1175 0    59   ~ 12
Cubesat bus header
Text Notes 1200 4225 0    59   ~ 12
Cubesat bus header
$EndSCHEMATC
