(export (version D)
  (design
    (source D:\projekty\spacemanic\uss-module\HW\V2b\USS-Module_V2b.sch)
    (date "23. 12. 2022 21:53:13")
    (tool "Eeschema (5.1.12)-1")
    (sheet (number 1) (name /) (tstamps /)
      (title_block
        (title USS-Module_V2b)
        (company)
        (rev V2a)
        (date 2022-12-23)
        (source USS-Module_V2b.sch)
        (comment (number 1) (value ""))
        (comment (number 2) (value ""))
        (comment (number 3) (value ""))
        (comment (number 4) (value sch)))))
  (components
    (comp (ref JP3)
      (value Jumper_NC_Small)
      (footprint Connector_PinHeader_2.54mm:PinHeader_1x02_P2.54mm_Vertical)
      (datasheet ~)
      (fields
        (field (name MFPN) "header 2x01 p2.54mm"))
      (libsource (lib Device) (part Jumper_NC_Small) (description "Jumper, normally closed, small symbol"))
      (sheetpath (names /) (tstamps /))
      (tstamp 5E6922C9))
    (comp (ref JP2)
      (value Jumper_NC_Small)
      (footprint Connector_PinHeader_2.54mm:PinHeader_1x02_P2.54mm_Vertical)
      (datasheet ~)
      (fields
        (field (name MFPN) "header 2x01 p2.54mm"))
      (libsource (lib Device) (part Jumper_NC_Small) (description "Jumper, normally closed, small symbol"))
      (sheetpath (names /) (tstamps /))
      (tstamp 5E68D70D))
    (comp (ref JP1)
      (value Jumper_NC_Small)
      (footprint Connector_PinHeader_2.54mm:PinHeader_1x02_P2.54mm_Vertical)
      (datasheet ~)
      (fields
        (field (name MFPN) "header 2x01 p2.54mm"))
      (libsource (lib Device) (part Jumper_NC_Small) (description "Jumper, normally closed, small symbol"))
      (sheetpath (names /) (tstamps /))
      (tstamp 5E668409))
    (comp (ref M2)
      (value HOLE)
      (footprint Mounting_Holes:MountingHole_3.2mm_M3_DIN965_Pad)
      (libsource (lib Mechanical) (part MountingHole) (description "Mounting Hole without connection"))
      (sheetpath (names /) (tstamps /))
      (tstamp 5D096AD3))
    (comp (ref M4)
      (value HOLE)
      (footprint Mounting_Holes:MountingHole_3.2mm_M3_DIN965_Pad)
      (libsource (lib Mechanical) (part MountingHole) (description "Mounting Hole without connection"))
      (sheetpath (names /) (tstamps /))
      (tstamp 5D097003))
    (comp (ref M3)
      (value HOLE)
      (footprint Mounting_Holes:MountingHole_3.2mm_M3_DIN965_Pad)
      (libsource (lib Mechanical) (part MountingHole) (description "Mounting Hole without connection"))
      (sheetpath (names /) (tstamps /))
      (tstamp 5D096D66))
    (comp (ref M1)
      (value HOLE)
      (footprint Mounting_Holes:MountingHole_3.2mm_M3_DIN965_Pad)
      (libsource (lib Mechanical) (part MountingHole_Pad) (description "Mounting Hole with connection"))
      (sheetpath (names /) (tstamps /))
      (tstamp 5D096865))
    (comp (ref M6)
      (value HOLE)
      (footprint Spacemanic_mechanical:Spacer_hole_4.4mm)
      (fields
        (field (name MFPN) SM_distance_M3x0.5_2.1))
      (libsource (lib Mechanical) (part MountingHole_Pad) (description "Mounting Hole with connection"))
      (sheetpath (names /) (tstamps /))
      (tstamp 5E43C207))
    (comp (ref M8)
      (value HOLE)
      (footprint Spacemanic_mechanical:Spacer_hole_4.4mm)
      (fields
        (field (name MFPN) SM_distance_M3x0.5_2.1))
      (libsource (lib Mechanical) (part MountingHole_Pad) (description "Mounting Hole with connection"))
      (sheetpath (names /) (tstamps /))
      (tstamp 5E43C1D9))
    (comp (ref M7)
      (value HOLE)
      (footprint Spacemanic_mechanical:Spacer_hole_4.4mm)
      (fields
        (field (name MFPN) SM_distance_M3x0.5_2.1))
      (libsource (lib Mechanical) (part MountingHole_Pad) (description "Mounting Hole with connection"))
      (sheetpath (names /) (tstamps /))
      (tstamp 5E43C21E))
    (comp (ref M5)
      (value HOLE)
      (footprint Spacemanic_mechanical:Spacer_hole_4.4mm)
      (fields
        (field (name MFPN) SM_distance_M3x0.5_2.1))
      (libsource (lib Mechanical) (part MountingHole_Pad) (description "Mounting Hole with connection"))
      (sheetpath (names /) (tstamps /))
      (tstamp 5E43C1F0))
    (comp (ref J6)
      (value HEADER_2x30)
      (footprint Spacemanic_header:Header_2x16_2.54mm)
      (fields
        (field (name MFPN) TSW-116-07-x-D))
      (libsource (lib Connector_Generic) (part Conn_02x16_Odd_Even) (description "Generic connector, double row, 02x16, odd/even pin numbering scheme (row 1 odd numbers, row 2 even numbers), script generated (kicad-library-utils/schlib/autogen/connector/)"))
      (sheetpath (names /) (tstamps /))
      (tstamp 61B0812B))
    (comp (ref D1)
      (value PRTR5V0U2X)
      (footprint Package_TO_SOT_SMD:SOT-143)
      (datasheet https://assets.nexperia.com/documents/data-sheet/PRTR5V0U2X.pdf)
      (fields
        (field (name MFPN) PRTR5V0U2X))
      (libsource (lib Power_Protection) (part PRTR5V0U2X) (description "Ultra low capacitance double rail-to-rail ESD protection diode, SOT-363"))
      (sheetpath (names /) (tstamps /))
      (tstamp 61AEE2FE))
    (comp (ref JP4)
      (value SolderJumper_2_Open)
      (footprint Spacemanic_SMD:SB_0603)
      (datasheet ~)
      (libsource (lib Jumper) (part SolderJumper_2_Open) (description "Solder Jumper, 2-pole, open"))
      (sheetpath (names /) (tstamps /))
      (tstamp 61C7E4E6))
    (comp (ref D3)
      (value D_Small_ALT)
      (footprint Spacemanic_SMD:D_SOD323_HS)
      (datasheet ~)
      (fields
        (field (name MFPN) BAT60AE6327HTSA1))
      (libsource (lib Device) (part D_Schottky) (description "Schottky diode"))
      (sheetpath (names /) (tstamps /))
      (tstamp 61DCEDED))
    (comp (ref D2)
      (value D_Small_ALT)
      (footprint Spacemanic_SMD:D_SOD323_HS)
      (datasheet ~)
      (fields
        (field (name MFPN) BAT60AE6327HTSA1))
      (libsource (lib Device) (part D_Schottky) (description "Schottky diode"))
      (sheetpath (names /) (tstamps /))
      (tstamp 61DCE406))
    (comp (ref C1)
      (value 10uF)
      (footprint Capacitor_Tantalum_SMD:CP_EIA-3528-21_Kemet-B_Pad1.50x2.35mm_HandSolder)
      (datasheet ~)
      (libsource (lib Device) (part CP1_Small) (description "Polarized capacitor, small US symbol"))
      (sheetpath (names /) (tstamps /))
      (tstamp 61D2043A))
    (comp (ref C4)
      (value 10uF)
      (footprint Capacitor_Tantalum_SMD:CP_EIA-3528-21_Kemet-B_Pad1.50x2.35mm_HandSolder)
      (datasheet ~)
      (libsource (lib Device) (part CP1_Small) (description "Polarized capacitor, small US symbol"))
      (sheetpath (names /) (tstamps /))
      (tstamp 61D1FB0D))
    (comp (ref C3)
      (value 100nF)
      (footprint Spacemanic_SMD:C_0603_HS)
      (datasheet ~)
      (libsource (lib Device) (part C_Small) (description "Unpolarized capacitor, small symbol"))
      (sheetpath (names /) (tstamps /))
      (tstamp 61CD686C))
    (comp (ref C2)
      (value X)
      (footprint Spacemanic_SMD:C_0603_HS)
      (datasheet ~)
      (libsource (lib Device) (part C_Small) (description "Unpolarized capacitor, small symbol"))
      (sheetpath (names /) (tstamps /))
      (tstamp 61CBFFD9))
    (comp (ref R2)
      (value 200)
      (footprint Spacemanic_SMD:R_0603_HS_b)
      (datasheet ~)
      (libsource (lib Device) (part R_Small) (description "Resistor, small symbol"))
      (sheetpath (names /) (tstamps /))
      (tstamp 61C7845F))
    (comp (ref R1)
      (value 120)
      (footprint Spacemanic_SMD:R_0603_HS_b)
      (datasheet ~)
      (libsource (lib Device) (part R_Small) (description "Resistor, small symbol"))
      (sheetpath (names /) (tstamps /))
      (tstamp 61C7667C))
    (comp (ref U1)
      (value LM1117-ADJ)
      (footprint Package_TO_SOT_SMD:SOT-223-3_TabPin2)
      (datasheet http://www.ti.com/lit/ds/symlink/lm1117.pdf)
      (fields
        (field (name MFPN) LD1117ASTR))
      (libsource (lib Regulator_Linear) (part LM1117-ADJ) (description "800mA Low-Dropout Linear Regulator, adjustable output, TO-220/TO-252/TO-263/SOT-223"))
      (sheetpath (names /) (tstamps /))
      (tstamp 61C5657F))
    (comp (ref J10)
      (value USB_B_Micro)
      (footprint Connector_USB:USB_Micro-B_Molex-105017-0001)
      (datasheet ~)
      (fields
        (field (name MFPN) "Molex 105017-0001"))
      (libsource (lib Connector) (part USB_B_Micro) (description "USB Micro Type B connector"))
      (sheetpath (names /) (tstamps /))
      (tstamp 61B48903))
    (comp (ref J5)
      (value HEADER_2x30)
      (footprint Spacemanic_header:Header_2x30_2.54mm)
      (fields
        (field (name MFPN) TSW-130-07-x-D))
      (libsource (lib Connector_Generic) (part Conn_02x30_Odd_Even) (description "Generic connector, double row, 02x30, odd/even pin numbering scheme (row 1 odd numbers, row 2 even numbers), script generated (kicad-library-utils/schlib/autogen/connector/)"))
      (sheetpath (names /) (tstamps /))
      (tstamp 5E4EC44F))
    (comp (ref J9)
      (value HEADER_2x26)
      (footprint Connector_PinSocket_2.54mm:PinSocket_2x07_P2.54mm_Horizontal)
      (fields
        (field (name MFPN) SSW-107-02-T-D-RA))
      (libsource (lib Connector_Generic) (part Conn_02x07_Odd_Even) (description "Generic connector, double row, 02x07, odd/even pin numbering scheme (row 1 odd numbers, row 2 even numbers), script generated (kicad-library-utils/schlib/autogen/connector/)"))
      (sheetpath (names /) (tstamps /))
      (tstamp 619D762A))
    (comp (ref J4)
      (value HEADER_2x26)
      (footprint Spacemanic_header:Header_2x26_2.54mm)
      (fields
        (field (name MFPN) TSW-126-07-x-D))
      (libsource (lib Connector_Generic) (part Conn_02x26_Odd_Even) (description "Generic connector, double row, 02x26, odd/even pin numbering scheme (row 1 odd numbers, row 2 even numbers), script generated (kicad-library-utils/schlib/autogen/connector/)"))
      (sheetpath (names /) (tstamps /))
      (tstamp 5E34ACC1))
    (comp (ref J2)
      (value HEADER_2x26)
      (footprint Spacemanic_header:Header_2x26_2.54mm)
      (fields
        (field (name MFPN) ESQ-126-14-x-D))
      (libsource (lib Connector_Generic) (part Conn_02x26_Odd_Even) (description "Generic connector, double row, 02x26, odd/even pin numbering scheme (row 1 odd numbers, row 2 even numbers), script generated (kicad-library-utils/schlib/autogen/connector/)"))
      (sheetpath (names /) (tstamps /))
      (tstamp 5D197155))
    (comp (ref J3)
      (value HEADER_2x26)
      (footprint Spacemanic_header:Header_2x26_2.54mm)
      (fields
        (field (name MFPN) TSW-126-07-x-D))
      (libsource (lib Connector_Generic) (part Conn_02x26_Odd_Even) (description "Generic connector, double row, 02x26, odd/even pin numbering scheme (row 1 odd numbers, row 2 even numbers), script generated (kicad-library-utils/schlib/autogen/connector/)"))
      (sheetpath (names /) (tstamps /))
      (tstamp 5E34AA3A))
    (comp (ref J1)
      (value HEADER_2x26)
      (footprint Spacemanic_header:Header_2x26_2.54mm)
      (fields
        (field (name MFPN) ESQ-126-14-x-D))
      (libsource (lib Connector_Generic) (part Conn_02x26_Odd_Even) (description "Generic connector, double row, 02x26, odd/even pin numbering scheme (row 1 odd numbers, row 2 even numbers), script generated (kicad-library-utils/schlib/autogen/connector/)"))
      (sheetpath (names /) (tstamps /))
      (tstamp 5D194D38))
    (comp (ref L1)
      (value "FB 1000 Ohm 2A")
      (footprint Inductors_SMD:L_1210_HandSoldering)
      (datasheet ~)
      (fields
        (field (name MFPN) FBMH3225HM102NT))
      (libsource (lib Device) (part L_Small) (description "Inductor, small symbol"))
      (sheetpath (names /) (tstamps /))
      (tstamp 5E702FEF))
    (comp (ref J8)
      (value HEADER_2x30)
      (footprint Spacemanic_connector:Molex_SlimStack_receptable_2x30_0.5_2mmStack)
      (fields
        (field (name MFPN) "Molex 54363-0689"))
      (libsource (lib Connector_Generic) (part Conn_02x30_Odd_Even) (description "Generic connector, double row, 02x30, odd/even pin numbering scheme (row 1 odd numbers, row 2 even numbers), script generated (kicad-library-utils/schlib/autogen/connector/)"))
      (sheetpath (names /) (tstamps /))
      (tstamp 619A105D))
    (comp (ref J7)
      (value HEADER_2x30)
      (footprint Spacemanic_connector:Molex_SlimStack_receptable_2x30_0.5_2mmStack)
      (fields
        (field (name MFPN) "Molex 54363-0689"))
      (libsource (lib Connector_Generic) (part Conn_02x30_Odd_Even) (description "Generic connector, double row, 02x30, odd/even pin numbering scheme (row 1 odd numbers, row 2 even numbers), script generated (kicad-library-utils/schlib/autogen/connector/)"))
      (sheetpath (names /) (tstamps /))
      (tstamp 5E463BC1)))
  (libparts
    (libpart (lib Connector) (part USB_B_Micro)
      (aliases
        (alias USB_B_Mini))
      (description "USB Micro Type B connector")
      (docs ~)
      (footprints
        (fp USB*))
      (fields
        (field (name Reference) J)
        (field (name Value) USB_B_Micro))
      (pins
        (pin (num 1) (name VBUS) (type power_out))
        (pin (num 2) (name D-) (type BiDi))
        (pin (num 3) (name D+) (type BiDi))
        (pin (num 4) (name ID) (type passive))
        (pin (num 5) (name GND) (type power_out))
        (pin (num 6) (name Shield) (type passive))))
    (libpart (lib Connector_Generic) (part Conn_02x07_Odd_Even)
      (description "Generic connector, double row, 02x07, odd/even pin numbering scheme (row 1 odd numbers, row 2 even numbers), script generated (kicad-library-utils/schlib/autogen/connector/)")
      (docs ~)
      (footprints
        (fp Connector*:*_2x??_*))
      (fields
        (field (name Reference) J)
        (field (name Value) Conn_02x07_Odd_Even))
      (pins
        (pin (num 1) (name Pin_1) (type passive))
        (pin (num 2) (name Pin_2) (type passive))
        (pin (num 3) (name Pin_3) (type passive))
        (pin (num 4) (name Pin_4) (type passive))
        (pin (num 5) (name Pin_5) (type passive))
        (pin (num 6) (name Pin_6) (type passive))
        (pin (num 7) (name Pin_7) (type passive))
        (pin (num 8) (name Pin_8) (type passive))
        (pin (num 9) (name Pin_9) (type passive))
        (pin (num 10) (name Pin_10) (type passive))
        (pin (num 11) (name Pin_11) (type passive))
        (pin (num 12) (name Pin_12) (type passive))
        (pin (num 13) (name Pin_13) (type passive))
        (pin (num 14) (name Pin_14) (type passive))))
    (libpart (lib Connector_Generic) (part Conn_02x16_Odd_Even)
      (description "Generic connector, double row, 02x16, odd/even pin numbering scheme (row 1 odd numbers, row 2 even numbers), script generated (kicad-library-utils/schlib/autogen/connector/)")
      (docs ~)
      (footprints
        (fp Connector*:*_2x??_*))
      (fields
        (field (name Reference) J)
        (field (name Value) Conn_02x16_Odd_Even))
      (pins
        (pin (num 1) (name Pin_1) (type passive))
        (pin (num 2) (name Pin_2) (type passive))
        (pin (num 3) (name Pin_3) (type passive))
        (pin (num 4) (name Pin_4) (type passive))
        (pin (num 5) (name Pin_5) (type passive))
        (pin (num 6) (name Pin_6) (type passive))
        (pin (num 7) (name Pin_7) (type passive))
        (pin (num 8) (name Pin_8) (type passive))
        (pin (num 9) (name Pin_9) (type passive))
        (pin (num 10) (name Pin_10) (type passive))
        (pin (num 11) (name Pin_11) (type passive))
        (pin (num 12) (name Pin_12) (type passive))
        (pin (num 13) (name Pin_13) (type passive))
        (pin (num 14) (name Pin_14) (type passive))
        (pin (num 15) (name Pin_15) (type passive))
        (pin (num 16) (name Pin_16) (type passive))
        (pin (num 17) (name Pin_17) (type passive))
        (pin (num 18) (name Pin_18) (type passive))
        (pin (num 19) (name Pin_19) (type passive))
        (pin (num 20) (name Pin_20) (type passive))
        (pin (num 21) (name Pin_21) (type passive))
        (pin (num 22) (name Pin_22) (type passive))
        (pin (num 23) (name Pin_23) (type passive))
        (pin (num 24) (name Pin_24) (type passive))
        (pin (num 25) (name Pin_25) (type passive))
        (pin (num 26) (name Pin_26) (type passive))
        (pin (num 27) (name Pin_27) (type passive))
        (pin (num 28) (name Pin_28) (type passive))
        (pin (num 29) (name Pin_29) (type passive))
        (pin (num 30) (name Pin_30) (type passive))
        (pin (num 31) (name Pin_31) (type passive))
        (pin (num 32) (name Pin_32) (type passive))))
    (libpart (lib Connector_Generic) (part Conn_02x26_Odd_Even)
      (description "Generic connector, double row, 02x26, odd/even pin numbering scheme (row 1 odd numbers, row 2 even numbers), script generated (kicad-library-utils/schlib/autogen/connector/)")
      (docs ~)
      (footprints
        (fp Connector*:*_2x??_*))
      (fields
        (field (name Reference) J)
        (field (name Value) Conn_02x26_Odd_Even))
      (pins
        (pin (num 1) (name Pin_1) (type passive))
        (pin (num 2) (name Pin_2) (type passive))
        (pin (num 3) (name Pin_3) (type passive))
        (pin (num 4) (name Pin_4) (type passive))
        (pin (num 5) (name Pin_5) (type passive))
        (pin (num 6) (name Pin_6) (type passive))
        (pin (num 7) (name Pin_7) (type passive))
        (pin (num 8) (name Pin_8) (type passive))
        (pin (num 9) (name Pin_9) (type passive))
        (pin (num 10) (name Pin_10) (type passive))
        (pin (num 11) (name Pin_11) (type passive))
        (pin (num 12) (name Pin_12) (type passive))
        (pin (num 13) (name Pin_13) (type passive))
        (pin (num 14) (name Pin_14) (type passive))
        (pin (num 15) (name Pin_15) (type passive))
        (pin (num 16) (name Pin_16) (type passive))
        (pin (num 17) (name Pin_17) (type passive))
        (pin (num 18) (name Pin_18) (type passive))
        (pin (num 19) (name Pin_19) (type passive))
        (pin (num 20) (name Pin_20) (type passive))
        (pin (num 21) (name Pin_21) (type passive))
        (pin (num 22) (name Pin_22) (type passive))
        (pin (num 23) (name Pin_23) (type passive))
        (pin (num 24) (name Pin_24) (type passive))
        (pin (num 25) (name Pin_25) (type passive))
        (pin (num 26) (name Pin_26) (type passive))
        (pin (num 27) (name Pin_27) (type passive))
        (pin (num 28) (name Pin_28) (type passive))
        (pin (num 29) (name Pin_29) (type passive))
        (pin (num 30) (name Pin_30) (type passive))
        (pin (num 31) (name Pin_31) (type passive))
        (pin (num 32) (name Pin_32) (type passive))
        (pin (num 33) (name Pin_33) (type passive))
        (pin (num 34) (name Pin_34) (type passive))
        (pin (num 35) (name Pin_35) (type passive))
        (pin (num 36) (name Pin_36) (type passive))
        (pin (num 37) (name Pin_37) (type passive))
        (pin (num 38) (name Pin_38) (type passive))
        (pin (num 39) (name Pin_39) (type passive))
        (pin (num 40) (name Pin_40) (type passive))
        (pin (num 41) (name Pin_41) (type passive))
        (pin (num 42) (name Pin_42) (type passive))
        (pin (num 43) (name Pin_43) (type passive))
        (pin (num 44) (name Pin_44) (type passive))
        (pin (num 45) (name Pin_45) (type passive))
        (pin (num 46) (name Pin_46) (type passive))
        (pin (num 47) (name Pin_47) (type passive))
        (pin (num 48) (name Pin_48) (type passive))
        (pin (num 49) (name Pin_49) (type passive))
        (pin (num 50) (name Pin_50) (type passive))
        (pin (num 51) (name Pin_51) (type passive))
        (pin (num 52) (name Pin_52) (type passive))))
    (libpart (lib Connector_Generic) (part Conn_02x30_Odd_Even)
      (description "Generic connector, double row, 02x30, odd/even pin numbering scheme (row 1 odd numbers, row 2 even numbers), script generated (kicad-library-utils/schlib/autogen/connector/)")
      (docs ~)
      (footprints
        (fp Connector*:*_2x??_*))
      (fields
        (field (name Reference) J)
        (field (name Value) Conn_02x30_Odd_Even))
      (pins
        (pin (num 1) (name Pin_1) (type passive))
        (pin (num 2) (name Pin_2) (type passive))
        (pin (num 3) (name Pin_3) (type passive))
        (pin (num 4) (name Pin_4) (type passive))
        (pin (num 5) (name Pin_5) (type passive))
        (pin (num 6) (name Pin_6) (type passive))
        (pin (num 7) (name Pin_7) (type passive))
        (pin (num 8) (name Pin_8) (type passive))
        (pin (num 9) (name Pin_9) (type passive))
        (pin (num 10) (name Pin_10) (type passive))
        (pin (num 11) (name Pin_11) (type passive))
        (pin (num 12) (name Pin_12) (type passive))
        (pin (num 13) (name Pin_13) (type passive))
        (pin (num 14) (name Pin_14) (type passive))
        (pin (num 15) (name Pin_15) (type passive))
        (pin (num 16) (name Pin_16) (type passive))
        (pin (num 17) (name Pin_17) (type passive))
        (pin (num 18) (name Pin_18) (type passive))
        (pin (num 19) (name Pin_19) (type passive))
        (pin (num 20) (name Pin_20) (type passive))
        (pin (num 21) (name Pin_21) (type passive))
        (pin (num 22) (name Pin_22) (type passive))
        (pin (num 23) (name Pin_23) (type passive))
        (pin (num 24) (name Pin_24) (type passive))
        (pin (num 25) (name Pin_25) (type passive))
        (pin (num 26) (name Pin_26) (type passive))
        (pin (num 27) (name Pin_27) (type passive))
        (pin (num 28) (name Pin_28) (type passive))
        (pin (num 29) (name Pin_29) (type passive))
        (pin (num 30) (name Pin_30) (type passive))
        (pin (num 31) (name Pin_31) (type passive))
        (pin (num 32) (name Pin_32) (type passive))
        (pin (num 33) (name Pin_33) (type passive))
        (pin (num 34) (name Pin_34) (type passive))
        (pin (num 35) (name Pin_35) (type passive))
        (pin (num 36) (name Pin_36) (type passive))
        (pin (num 37) (name Pin_37) (type passive))
        (pin (num 38) (name Pin_38) (type passive))
        (pin (num 39) (name Pin_39) (type passive))
        (pin (num 40) (name Pin_40) (type passive))
        (pin (num 41) (name Pin_41) (type passive))
        (pin (num 42) (name Pin_42) (type passive))
        (pin (num 43) (name Pin_43) (type passive))
        (pin (num 44) (name Pin_44) (type passive))
        (pin (num 45) (name Pin_45) (type passive))
        (pin (num 46) (name Pin_46) (type passive))
        (pin (num 47) (name Pin_47) (type passive))
        (pin (num 48) (name Pin_48) (type passive))
        (pin (num 49) (name Pin_49) (type passive))
        (pin (num 50) (name Pin_50) (type passive))
        (pin (num 51) (name Pin_51) (type passive))
        (pin (num 52) (name Pin_52) (type passive))
        (pin (num 53) (name Pin_53) (type passive))
        (pin (num 54) (name Pin_54) (type passive))
        (pin (num 55) (name Pin_55) (type passive))
        (pin (num 56) (name Pin_56) (type passive))
        (pin (num 57) (name Pin_57) (type passive))
        (pin (num 58) (name Pin_58) (type passive))
        (pin (num 59) (name Pin_59) (type passive))
        (pin (num 60) (name Pin_60) (type passive))))
    (libpart (lib Device) (part CP1_Small)
      (description "Polarized capacitor, small US symbol")
      (docs ~)
      (footprints
        (fp CP_*))
      (fields
        (field (name Reference) C)
        (field (name Value) CP1_Small))
      (pins
        (pin (num 1) (name ~) (type passive))
        (pin (num 2) (name ~) (type passive))))
    (libpart (lib Device) (part C_Small)
      (description "Unpolarized capacitor, small symbol")
      (docs ~)
      (footprints
        (fp C_*))
      (fields
        (field (name Reference) C)
        (field (name Value) C_Small))
      (pins
        (pin (num 1) (name ~) (type passive))
        (pin (num 2) (name ~) (type passive))))
    (libpart (lib Device) (part D_Schottky)
      (description "Schottky diode")
      (docs ~)
      (footprints
        (fp TO-???*)
        (fp *_Diode_*)
        (fp *SingleDiode*)
        (fp D_*))
      (fields
        (field (name Reference) D)
        (field (name Value) D_Schottky))
      (pins
        (pin (num 1) (name K) (type passive))
        (pin (num 2) (name A) (type passive))))
    (libpart (lib Device) (part Jumper_NC_Small)
      (description "Jumper, normally closed, small symbol")
      (docs ~)
      (footprints
        (fp SolderJumper*Bridged*)
        (fp Jumper*)
        (fp TestPoint*2Pads*)
        (fp TestPoint*Bridge*))
      (fields
        (field (name Reference) JP)
        (field (name Value) Jumper_NC_Small))
      (pins
        (pin (num 1) (name 1) (type passive))
        (pin (num 2) (name 2) (type passive))))
    (libpart (lib Device) (part L_Small)
      (description "Inductor, small symbol")
      (docs ~)
      (footprints
        (fp Choke_*)
        (fp *Coil*)
        (fp Inductor_*)
        (fp L_*))
      (fields
        (field (name Reference) L)
        (field (name Value) L_Small))
      (pins
        (pin (num 1) (name ~) (type passive))
        (pin (num 2) (name ~) (type passive))))
    (libpart (lib Device) (part R_Small)
      (description "Resistor, small symbol")
      (docs ~)
      (footprints
        (fp R_*))
      (fields
        (field (name Reference) R)
        (field (name Value) R_Small))
      (pins
        (pin (num 1) (name ~) (type passive))
        (pin (num 2) (name ~) (type passive))))
    (libpart (lib Jumper) (part SolderJumper_2_Open)
      (description "Solder Jumper, 2-pole, open")
      (docs ~)
      (footprints
        (fp SolderJumper*Open*))
      (fields
        (field (name Reference) JP)
        (field (name Value) SolderJumper_2_Open))
      (pins
        (pin (num 1) (name A) (type passive))
        (pin (num 2) (name B) (type passive))))
    (libpart (lib Mechanical) (part MountingHole)
      (description "Mounting Hole without connection")
      (docs ~)
      (footprints
        (fp MountingHole*))
      (fields
        (field (name Reference) H)
        (field (name Value) MountingHole)))
    (libpart (lib Mechanical) (part MountingHole_Pad)
      (description "Mounting Hole with connection")
      (docs ~)
      (footprints
        (fp MountingHole*Pad*))
      (fields
        (field (name Reference) H)
        (field (name Value) MountingHole_Pad))
      (pins
        (pin (num 1) (name 1) (type input))))
    (libpart (lib Power_Protection) (part PRTR5V0U2X)
      (description "Ultra low capacitance double rail-to-rail ESD protection diode, SOT-363")
      (docs https://assets.nexperia.com/documents/data-sheet/PRTR5V0U2X.pdf)
      (footprints
        (fp SOT?143*))
      (fields
        (field (name Reference) D)
        (field (name Value) PRTR5V0U2X)
        (field (name Footprint) Package_TO_SOT_SMD:SOT-143))
      (pins
        (pin (num 1) (name GND) (type passive))
        (pin (num 2) (name I/O1) (type passive))
        (pin (num 3) (name I/O2) (type passive))
        (pin (num 4) (name VCC) (type passive))))
    (libpart (lib Regulator_Linear) (part LM1117-ADJ)
      (aliases
        (alias TLV1117-ADJ))
      (description "800mA Low-Dropout Linear Regulator, adjustable output, TO-220/TO-252/TO-263/SOT-223")
      (docs http://www.ti.com/lit/ds/symlink/lm1117.pdf)
      (footprints
        (fp SOT?223*)
        (fp TO?263*)
        (fp TO?252*)
        (fp TO?220*))
      (fields
        (field (name Reference) U)
        (field (name Value) LM1117-ADJ))
      (pins
        (pin (num 1) (name ADJ) (type input))
        (pin (num 2) (name VO) (type power_out))
        (pin (num 3) (name VI) (type power_in)))))
  (libraries
    (library (logical Connector)
      (uri "C:\\Program Files\\KiCad\\share\\kicad\\library/Connector.lib"))
    (library (logical Connector_Generic)
      (uri "C:\\Program Files\\KiCad\\share\\kicad\\library/Connector_Generic.lib"))
    (library (logical Device)
      (uri "C:\\Program Files\\KiCad\\share\\kicad\\library/Device.lib"))
    (library (logical Jumper)
      (uri "C:\\Program Files\\KiCad\\share\\kicad\\library/Jumper.lib"))
    (library (logical Mechanical)
      (uri "C:\\Program Files\\KiCad\\share\\kicad\\library/Mechanical.lib"))
    (library (logical Power_Protection)
      (uri "C:\\Program Files\\KiCad\\share\\kicad\\library/Power_Protection.lib"))
    (library (logical Regulator_Linear)
      (uri "C:\\Program Files\\KiCad\\share\\kicad\\library/Regulator_Linear.lib")))
  (nets
    (net (code 1) (name "Net-(J10-Pad4)")
      (node (ref JP4) (pin 1))
      (node (ref J10) (pin 4)))
    (net (code 2) (name SPI_0_MOSI)
      (node (ref J7) (pin 22))
      (node (ref J5) (pin 22)))
    (net (code 3) (name SPI_0_CS)
      (node (ref J5) (pin 20))
      (node (ref J7) (pin 20)))
    (net (code 4) (name RS485_A)
      (node (ref J7) (pin 18))
      (node (ref J5) (pin 18)))
    (net (code 5) (name "Net-(C2-Pad2)")
      (node (ref R2) (pin 1))
      (node (ref C2) (pin 2))
      (node (ref U1) (pin 1))
      (node (ref R1) (pin 2)))
    (net (code 6) (name +3V3)
      (node (ref J7) (pin 8))
      (node (ref J7) (pin 7))
      (node (ref J9) (pin 13))
      (node (ref J9) (pin 14))
      (node (ref J7) (pin 9))
      (node (ref J5) (pin 9))
      (node (ref J5) (pin 8))
      (node (ref J5) (pin 7))
      (node (ref JP3) (pin 2))
      (node (ref D3) (pin 1))
      (node (ref R1) (pin 1))
      (node (ref J7) (pin 10))
      (node (ref J5) (pin 10)))
    (net (code 7) (name REFCLK)
      (node (ref J8) (pin 13))
      (node (ref J9) (pin 7)))
    (net (code 8) (name "Net-(J9-Pad2)")
      (node (ref J9) (pin 2)))
    (net (code 9) (name 2.3)
      (node (ref J4) (pin 3))
      (node (ref J2) (pin 3)))
    (net (code 10) (name "Net-(J5-Pad42)")
      (node (ref J5) (pin 42)))
    (net (code 11) (name "Net-(J5-Pad49)")
      (node (ref J5) (pin 49)))
    (net (code 12) (name MDC)
      (node (ref J8) (pin 21))
      (node (ref J9) (pin 10)))
    (net (code 13) (name "Net-(J5-Pad52)")
      (node (ref J5) (pin 52)))
    (net (code 14) (name "Net-(J5-Pad51)")
      (node (ref J5) (pin 51)))
    (net (code 15) (name "Net-(J5-Pad50)")
      (node (ref J5) (pin 50)))
    (net (code 16) (name +5V)
      (node (ref J5) (pin 6))
      (node (ref D2) (pin 1))
      (node (ref J5) (pin 5))
      (node (ref J7) (pin 4))
      (node (ref J5) (pin 4))
      (node (ref J7) (pin 3))
      (node (ref J7) (pin 6))
      (node (ref J7) (pin 5))
      (node (ref JP2) (pin 2))
      (node (ref J5) (pin 3)))
    (net (code 17) (name "Net-(C3-Pad2)")
      (node (ref D3) (pin 2))
      (node (ref C4) (pin 1))
      (node (ref C3) (pin 2))
      (node (ref U1) (pin 2)))
    (net (code 18) (name "Net-(C1-Pad1)")
      (node (ref D1) (pin 4))
      (node (ref U1) (pin 3))
      (node (ref C1) (pin 1))
      (node (ref J10) (pin 1))
      (node (ref D2) (pin 2)))
    (net (code 19) (name MDIO)
      (node (ref J8) (pin 22))
      (node (ref J9) (pin 9)))
    (net (code 20) (name "Net-(J8-Pad3)")
      (node (ref J8) (pin 3)))
    (net (code 21) (name "Net-(J8-Pad28)")
      (node (ref J8) (pin 28)))
    (net (code 22) (name USB_HSD_P)
      (node (ref D1) (pin 2))
      (node (ref J8) (pin 27))
      (node (ref J10) (pin 3)))
    (net (code 23) (name "Net-(J8-Pad26)")
      (node (ref J8) (pin 26)))
    (net (code 24) (name USB_HSD_N)
      (node (ref D1) (pin 3))
      (node (ref J10) (pin 2))
      (node (ref J8) (pin 25)))
    (net (code 25) (name GPIO8)
      (node (ref J8) (pin 31))
      (node (ref J6) (pin 3)))
    (net (code 26) (name RXER)
      (node (ref J8) (pin 20)))
    (net (code 27) (name "Net-(J8-Pad2)")
      (node (ref J8) (pin 2)))
    (net (code 28) (name TXD1)
      (node (ref J8) (pin 18))
      (node (ref J9) (pin 1)))
    (net (code 29) (name TXD0)
      (node (ref J8) (pin 17))
      (node (ref J9) (pin 4)))
    (net (code 30) (name RXD1)
      (node (ref J8) (pin 16))
      (node (ref J9) (pin 6)))
    (net (code 31) (name RXD0)
      (node (ref J9) (pin 5))
      (node (ref J8) (pin 15)))
    (net (code 32) (name TXEN)
      (node (ref J8) (pin 14))
      (node (ref J9) (pin 3)))
    (net (code 33) (name "Net-(J8-Pad4)")
      (node (ref J8) (pin 4)))
    (net (code 34) (name "Net-(J8-Pad46)")
      (node (ref J8) (pin 46)))
    (net (code 35) (name "Net-(J8-Pad45)")
      (node (ref J8) (pin 45)))
    (net (code 36) (name "Net-(J8-Pad44)")
      (node (ref J8) (pin 44)))
    (net (code 37) (name "Net-(J8-Pad43)")
      (node (ref J8) (pin 43)))
    (net (code 38) (name "Net-(J8-Pad42)")
      (node (ref J8) (pin 42)))
    (net (code 39) (name GPIO14)
      (node (ref J8) (pin 37))
      (node (ref J6) (pin 9)))
    (net (code 40) (name GPIO13)
      (node (ref J6) (pin 8))
      (node (ref J8) (pin 36)))
    (net (code 41) (name GPIO12)
      (node (ref J8) (pin 35))
      (node (ref J6) (pin 7)))
    (net (code 42) (name GPIO11)
      (node (ref J8) (pin 34))
      (node (ref J6) (pin 6)))
    (net (code 43) (name GPIO10)
      (node (ref J8) (pin 33))
      (node (ref J6) (pin 5)))
    (net (code 44) (name GPIO9)
      (node (ref J8) (pin 32))
      (node (ref J6) (pin 4)))
    (net (code 45) (name 1.3)
      (node (ref J1) (pin 3))
      (node (ref J3) (pin 3)))
    (net (code 46) (name 1.8)
      (node (ref J3) (pin 8))
      (node (ref J1) (pin 8)))
    (net (code 47) (name "Net-(J8-Pad10)")
      (node (ref J8) (pin 10)))
    (net (code 48) (name "Net-(J8-Pad1)")
      (node (ref J8) (pin 1)))
    (net (code 49) (name "Net-(L1-Pad2)")
      (node (ref M1) (pin 1))
      (node (ref L1) (pin 2)))
    (net (code 50) (name +BATT)
      (node (ref J5) (pin 2))
      (node (ref J5) (pin 1))
      (node (ref J7) (pin 1))
      (node (ref JP1) (pin 2))
      (node (ref J7) (pin 2)))
    (net (code 51) (name FLASH_CLK)
      (node (ref J6) (pin 21))
      (node (ref J8) (pin 49)))
    (net (code 52) (name 1.6)
      (node (ref J3) (pin 6))
      (node (ref J1) (pin 6)))
    (net (code 53) (name 1.51)
      (node (ref J1) (pin 51))
      (node (ref J3) (pin 51)))
    (net (code 54) (name GPIO7_ADC3)
      (node (ref J5) (pin 38))
      (node (ref J7) (pin 38)))
    (net (code 55) (name PPS)
      (node (ref J5) (pin 46))
      (node (ref J7) (pin 46)))
    (net (code 56) (name EXT_RST)
      (node (ref J7) (pin 45))
      (node (ref J5) (pin 45)))
    (net (code 57) (name MCLK)
      (node (ref J7) (pin 44))
      (node (ref J5) (pin 44)))
    (net (code 58) (name DMA_TRIG)
      (node (ref J5) (pin 43))
      (node (ref J7) (pin 43)))
    (net (code 59) (name "Net-(J7-Pad42)")
      (node (ref J7) (pin 42)))
    (net (code 60) (name PWM3)
      (node (ref J5) (pin 41))
      (node (ref J7) (pin 41)))
    (net (code 61) (name PWM2)
      (node (ref J7) (pin 40))
      (node (ref J5) (pin 40)))
    (net (code 62) (name PWM1)
      (node (ref J7) (pin 39))
      (node (ref J5) (pin 39)))
    (net (code 63) (name GPIO6_ADC2)
      (node (ref J5) (pin 37))
      (node (ref J7) (pin 37)))
    (net (code 64) (name GPIO5_ADC1)
      (node (ref J7) (pin 36))
      (node (ref J5) (pin 36)))
    (net (code 65) (name GPIOO4_ADC0)
      (node (ref J5) (pin 35))
      (node (ref J7) (pin 35)))
    (net (code 66) (name GPIO3)
      (node (ref J5) (pin 34))
      (node (ref J7) (pin 34)))
    (net (code 67) (name GPIO2)
      (node (ref J5) (pin 33))
      (node (ref J7) (pin 33)))
    (net (code 68) (name GPIO1)
      (node (ref J5) (pin 32))
      (node (ref J7) (pin 32)))
    (net (code 69) (name GPIO0)
      (node (ref J5) (pin 31))
      (node (ref J7) (pin 31)))
    (net (code 70) (name I2C_ISOL_SDA)
      (node (ref J5) (pin 55))
      (node (ref J7) (pin 55))
      (node (ref J5) (pin 56))
      (node (ref J7) (pin 56)))
    (net (code 71) (name I2C_ISOL_SCL)
      (node (ref J5) (pin 57))
      (node (ref J5) (pin 58))
      (node (ref J7) (pin 57))
      (node (ref J7) (pin 58)))
    (net (code 72) (name +3V3_ISOL)
      (node (ref J5) (pin 54))
      (node (ref J5) (pin 53))
      (node (ref J7) (pin 53))
      (node (ref J7) (pin 54)))
    (net (code 73) (name "Net-(J7-Pad52)")
      (node (ref J7) (pin 52)))
    (net (code 74) (name "Net-(J7-Pad51)")
      (node (ref J7) (pin 51)))
    (net (code 75) (name "Net-(J7-Pad50)")
      (node (ref J7) (pin 50)))
    (net (code 76) (name "Net-(J7-Pad49)")
      (node (ref J7) (pin 49)))
    (net (code 77) (name "Net-(J8-Pad9)")
      (node (ref J8) (pin 9)))
    (net (code 78) (name "Net-(J8-Pad8)")
      (node (ref J8) (pin 8)))
    (net (code 79) (name "Net-(J8-Pad7)")
      (node (ref J8) (pin 7)))
    (net (code 80) (name "Net-(J8-Pad6)")
      (node (ref J8) (pin 6)))
    (net (code 81) (name "Net-(J8-Pad58)")
      (node (ref J8) (pin 58)))
    (net (code 82) (name "Net-(J8-Pad56)")
      (node (ref J8) (pin 56)))
    (net (code 83) (name FLASH_RST#_IO3)
      (node (ref J6) (pin 26))
      (node (ref J8) (pin 54)))
    (net (code 84) (name FLASH_WP#_IO2)
      (node (ref J6) (pin 25))
      (node (ref J8) (pin 53)))
    (net (code 85) (name FLASH_MOSI_IO0)
      (node (ref J6) (pin 23))
      (node (ref J8) (pin 51)))
    (net (code 86) (name "Net-(J8-Pad50)")
      (node (ref J8) (pin 50)))
    (net (code 87) (name "Net-(J8-Pad5)")
      (node (ref J8) (pin 5)))
    (net (code 88) (name CAN_L)
      (node (ref J7) (pin 27))
      (node (ref J7) (pin 28))
      (node (ref J5) (pin 27))
      (node (ref J5) (pin 28)))
    (net (code 89) (name CAN_H)
      (node (ref J7) (pin 25))
      (node (ref J7) (pin 26))
      (node (ref J5) (pin 25))
      (node (ref J5) (pin 26)))
    (net (code 90) (name SPI_0_MISO)
      (node (ref J7) (pin 21))
      (node (ref J5) (pin 21)))
    (net (code 91) (name SPI_0_CLK)
      (node (ref J7) (pin 19))
      (node (ref J5) (pin 19)))
    (net (code 92) (name UART_0_RXD)
      (node (ref J5) (pin 17))
      (node (ref J7) (pin 17)))
    (net (code 93) (name RS485_B)
      (node (ref J7) (pin 16))
      (node (ref J5) (pin 16)))
    (net (code 94) (name UART_0_TXD)
      (node (ref J5) (pin 15))
      (node (ref J7) (pin 15)))
    (net (code 95) (name I2C_0_SCL)
      (node (ref J7) (pin 14))
      (node (ref J5) (pin 14)))
    (net (code 96) (name I2C_0_SDA)
      (node (ref J7) (pin 13))
      (node (ref J5) (pin 13)))
    (net (code 97) (name 2.27)
      (node (ref J4) (pin 28))
      (node (ref J4) (pin 27))
      (node (ref JP3) (pin 1))
      (node (ref J2) (pin 28))
      (node (ref J2) (pin 27)))
    (net (code 98) (name 2.35)
      (node (ref J2) (pin 35))
      (node (ref J4) (pin 35)))
    (net (code 99) (name 2.34)
      (node (ref J2) (pin 34))
      (node (ref J4) (pin 34)))
    (net (code 100) (name 2.33)
      (node (ref J4) (pin 33))
      (node (ref J2) (pin 33)))
    (net (code 101) (name 2.29)
      (node (ref J6) (pin 1))
      (node (ref J6) (pin 32))
      (node (ref J6) (pin 31))
      (node (ref J6) (pin 20))
      (node (ref J6) (pin 2))
      (node (ref J6) (pin 19))
      (node (ref J8) (pin 23))
      (node (ref J8) (pin 24))
      (node (ref J8) (pin 29))
      (node (ref J8) (pin 30))
      (node (ref J4) (pin 30))
      (node (ref JP4) (pin 2))
      (node (ref J8) (pin 48))
      (node (ref D1) (pin 1))
      (node (ref J8) (pin 60))
      (node (ref J4) (pin 32))
      (node (ref J2) (pin 29))
      (node (ref J2) (pin 30))
      (node (ref J2) (pin 32))
      (node (ref J7) (pin 12))
      (node (ref J7) (pin 23))
      (node (ref J7) (pin 24))
      (node (ref J7) (pin 11))
      (node (ref J8) (pin 59))
      (node (ref J7) (pin 48))
      (node (ref J7) (pin 29))
      (node (ref J7) (pin 30))
      (node (ref J7) (pin 47))
      (node (ref L1) (pin 1))
      (node (ref J8) (pin 11))
      (node (ref J8) (pin 12))
      (node (ref J8) (pin 47))
      (node (ref J5) (pin 24))
      (node (ref C2) (pin 1))
      (node (ref R2) (pin 2))
      (node (ref J5) (pin 23))
      (node (ref J5) (pin 29))
      (node (ref J5) (pin 30))
      (node (ref J10) (pin 5))
      (node (ref J10) (pin 6))
      (node (ref J5) (pin 11))
      (node (ref J5) (pin 12))
      (node (ref C1) (pin 2))
      (node (ref C4) (pin 2))
      (node (ref C3) (pin 1))
      (node (ref J5) (pin 47))
      (node (ref J5) (pin 48))
      (node (ref J9) (pin 11))
      (node (ref J4) (pin 29))
      (node (ref J9) (pin 12))
      (node (ref M5) (pin 1))
      (node (ref M7) (pin 1))
      (node (ref M8) (pin 1))
      (node (ref M6) (pin 1)))
    (net (code 102) (name 2.36)
      (node (ref J2) (pin 36))
      (node (ref J4) (pin 36)))
    (net (code 103) (name 2.25)
      (node (ref J4) (pin 26))
      (node (ref J4) (pin 25))
      (node (ref JP2) (pin 1))
      (node (ref J2) (pin 25))
      (node (ref J2) (pin 26)))
    (net (code 104) (name 2.24)
      (node (ref J2) (pin 24))
      (node (ref J4) (pin 24)))
    (net (code 105) (name 2.23)
      (node (ref J4) (pin 23))
      (node (ref J2) (pin 23)))
    (net (code 106) (name 2.22)
      (node (ref J4) (pin 22))
      (node (ref J2) (pin 22)))
    (net (code 107) (name 2.21)
      (node (ref J4) (pin 21))
      (node (ref J2) (pin 21)))
    (net (code 108) (name 2.20)
      (node (ref J4) (pin 20))
      (node (ref J2) (pin 20)))
    (net (code 109) (name 2.2)
      (node (ref J4) (pin 2))
      (node (ref J2) (pin 2)))
    (net (code 110) (name 2.19)
      (node (ref J4) (pin 19))
      (node (ref J2) (pin 19)))
    (net (code 111) (name 2.51)
      (node (ref J4) (pin 51))
      (node (ref J2) (pin 51)))
    (net (code 112) (name 2.18)
      (node (ref J4) (pin 18))
      (node (ref J2) (pin 18)))
    (net (code 113) (name 2.40)
      (node (ref J4) (pin 40))
      (node (ref J2) (pin 40)))
    (net (code 114) (name 2.38)
      (node (ref J4) (pin 38))
      (node (ref J2) (pin 38)))
    (net (code 115) (name 2.39)
      (node (ref J4) (pin 39))
      (node (ref J2) (pin 39)))
    (net (code 116) (name 2.47)
      (node (ref J2) (pin 47))
      (node (ref J4) (pin 47)))
    (net (code 117) (name 2.45)
      (node (ref J4) (pin 45))
      (node (ref JP1) (pin 1))
      (node (ref J4) (pin 46))
      (node (ref J2) (pin 46))
      (node (ref J2) (pin 45)))
    (net (code 118) (name 2.44)
      (node (ref J2) (pin 44))
      (node (ref J4) (pin 44)))
    (net (code 119) (name 2.43)
      (node (ref J4) (pin 43))
      (node (ref J2) (pin 43)))
    (net (code 120) (name 2.42)
      (node (ref J4) (pin 42))
      (node (ref J2) (pin 42)))
    (net (code 121) (name 2.41)
      (node (ref J4) (pin 41))
      (node (ref J2) (pin 41)))
    (net (code 122) (name 2.4)
      (node (ref J2) (pin 4))
      (node (ref J4) (pin 4)))
    (net (code 123) (name 2.48)
      (node (ref J2) (pin 48))
      (node (ref J4) (pin 48)))
    (net (code 124) (name 2.37)
      (node (ref J4) (pin 37))
      (node (ref J2) (pin 37)))
    (net (code 125) (name 2.31)
      (node (ref J4) (pin 31))
      (node (ref J2) (pin 31)))
    (net (code 126) (name 2.17)
      (node (ref J2) (pin 17))
      (node (ref J4) (pin 17)))
    (net (code 127) (name 2.16)
      (node (ref J2) (pin 16))
      (node (ref J4) (pin 16)))
    (net (code 128) (name 2.15)
      (node (ref J2) (pin 15))
      (node (ref J4) (pin 15)))
    (net (code 129) (name 2.14)
      (node (ref J2) (pin 14))
      (node (ref J4) (pin 14)))
    (net (code 130) (name 2.13)
      (node (ref J4) (pin 13))
      (node (ref J2) (pin 13)))
    (net (code 131) (name 2.12)
      (node (ref J4) (pin 12))
      (node (ref J2) (pin 12)))
    (net (code 132) (name 2.11)
      (node (ref J2) (pin 11))
      (node (ref J4) (pin 11)))
    (net (code 133) (name 2.10)
      (node (ref J4) (pin 10))
      (node (ref J2) (pin 10)))
    (net (code 134) (name 2.1)
      (node (ref J2) (pin 1))
      (node (ref J4) (pin 1)))
    (net (code 135) (name 2.6)
      (node (ref J4) (pin 6))
      (node (ref J2) (pin 6)))
    (net (code 136) (name 2.52)
      (node (ref J4) (pin 52))
      (node (ref J2) (pin 52)))
    (net (code 137) (name 2.50)
      (node (ref J2) (pin 50))
      (node (ref J4) (pin 50)))
    (net (code 138) (name 2.5)
      (node (ref J2) (pin 5))
      (node (ref J4) (pin 5)))
    (net (code 139) (name 2.49)
      (node (ref J2) (pin 49))
      (node (ref J4) (pin 49)))
    (net (code 140) (name 1.5)
      (node (ref J3) (pin 5))
      (node (ref J1) (pin 5)))
    (net (code 141) (name 1.10)
      (node (ref J1) (pin 10))
      (node (ref J3) (pin 10)))
    (net (code 142) (name 1.9)
      (node (ref J3) (pin 9))
      (node (ref J1) (pin 9)))
    (net (code 143) (name 1.7)
      (node (ref J1) (pin 7))
      (node (ref J3) (pin 7)))
    (net (code 144) (name 1.52)
      (node (ref J3) (pin 52))
      (node (ref J1) (pin 52)))
    (net (code 145) (name 1.50)
      (node (ref J1) (pin 50))
      (node (ref J3) (pin 50)))
    (net (code 146) (name 1.49)
      (node (ref J3) (pin 49))
      (node (ref J1) (pin 49)))
    (net (code 147) (name 1.48)
      (node (ref J3) (pin 48))
      (node (ref J1) (pin 48)))
    (net (code 148) (name 1.47)
      (node (ref J3) (pin 47))
      (node (ref J1) (pin 47)))
    (net (code 149) (name 1.46)
      (node (ref J1) (pin 46))
      (node (ref J3) (pin 46)))
    (net (code 150) (name 1.45)
      (node (ref J3) (pin 45))
      (node (ref J1) (pin 45)))
    (net (code 151) (name 1.44)
      (node (ref J1) (pin 44))
      (node (ref J3) (pin 44)))
    (net (code 152) (name 1.43)
      (node (ref J1) (pin 43))
      (node (ref J3) (pin 43)))
    (net (code 153) (name 1.42)
      (node (ref J3) (pin 42))
      (node (ref J1) (pin 42)))
    (net (code 154) (name 1.41)
      (node (ref J1) (pin 41))
      (node (ref J3) (pin 41)))
    (net (code 155) (name 1.2)
      (node (ref J3) (pin 2))
      (node (ref J1) (pin 2)))
    (net (code 156) (name 1.40)
      (node (ref J3) (pin 40))
      (node (ref J1) (pin 40)))
    (net (code 157) (name 1.14)
      (node (ref J3) (pin 14))
      (node (ref J1) (pin 14)))
    (net (code 158) (name 1.22)
      (node (ref J1) (pin 22))
      (node (ref J3) (pin 22)))
    (net (code 159) (name 1.21)
      (node (ref J1) (pin 21))
      (node (ref J3) (pin 21)))
    (net (code 160) (name 1.20)
      (node (ref J3) (pin 20))
      (node (ref J1) (pin 20)))
    (net (code 161) (name 1.19)
      (node (ref J1) (pin 19))
      (node (ref J3) (pin 19)))
    (net (code 162) (name 1.18)
      (node (ref J3) (pin 18))
      (node (ref J1) (pin 18)))
    (net (code 163) (name 1.17)
      (node (ref J1) (pin 17))
      (node (ref J3) (pin 17)))
    (net (code 164) (name 1.16)
      (node (ref J3) (pin 16))
      (node (ref J1) (pin 16)))
    (net (code 165) (name 1.15)
      (node (ref J1) (pin 15))
      (node (ref J3) (pin 15)))
    (net (code 166) (name 1.23)
      (node (ref J1) (pin 23))
      (node (ref J3) (pin 23)))
    (net (code 167) (name 1.13)
      (node (ref J3) (pin 13))
      (node (ref J1) (pin 13)))
    (net (code 168) (name 1.12)
      (node (ref J1) (pin 12))
      (node (ref J3) (pin 12)))
    (net (code 169) (name 1.11)
      (node (ref J3) (pin 11))
      (node (ref J1) (pin 11)))
    (net (code 170) (name 1.1)
      (node (ref J3) (pin 1))
      (node (ref J1) (pin 1)))
    (net (code 171) (name 2.9)
      (node (ref J2) (pin 9))
      (node (ref J4) (pin 9)))
    (net (code 172) (name 2.8)
      (node (ref J2) (pin 8))
      (node (ref J4) (pin 8)))
    (net (code 173) (name 2.7)
      (node (ref J4) (pin 7))
      (node (ref J2) (pin 7)))
    (net (code 174) (name 1.31)
      (node (ref J1) (pin 31))
      (node (ref J3) (pin 31)))
    (net (code 175) (name 1.4)
      (node (ref J1) (pin 4))
      (node (ref J3) (pin 4)))
    (net (code 176) (name 1.39)
      (node (ref J3) (pin 39))
      (node (ref J1) (pin 39)))
    (net (code 177) (name 1.38)
      (node (ref J1) (pin 38))
      (node (ref J3) (pin 38)))
    (net (code 178) (name 1.37)
      (node (ref J3) (pin 37))
      (node (ref J1) (pin 37)))
    (net (code 179) (name 1.36)
      (node (ref J3) (pin 36))
      (node (ref J1) (pin 36)))
    (net (code 180) (name 1.35)
      (node (ref J3) (pin 35))
      (node (ref J1) (pin 35)))
    (net (code 181) (name 1.34)
      (node (ref J1) (pin 34))
      (node (ref J3) (pin 34)))
    (net (code 182) (name 1.33)
      (node (ref J1) (pin 33))
      (node (ref J3) (pin 33)))
    (net (code 183) (name 1.32)
      (node (ref J3) (pin 32))
      (node (ref J1) (pin 32)))
    (net (code 184) (name 1.30)
      (node (ref J3) (pin 30))
      (node (ref J1) (pin 30)))
    (net (code 185) (name 1.29)
      (node (ref J1) (pin 29))
      (node (ref J3) (pin 29)))
    (net (code 186) (name 1.28)
      (node (ref J1) (pin 28))
      (node (ref J3) (pin 28)))
    (net (code 187) (name 1.27)
      (node (ref J1) (pin 27))
      (node (ref J3) (pin 27)))
    (net (code 188) (name 1.26)
      (node (ref J1) (pin 26))
      (node (ref J3) (pin 26)))
    (net (code 189) (name 1.25)
      (node (ref J3) (pin 25))
      (node (ref J1) (pin 25)))
    (net (code 190) (name 1.24)
      (node (ref J1) (pin 24))
      (node (ref J3) (pin 24)))
    (net (code 191) (name GND_ISOL)
      (node (ref J7) (pin 60))
      (node (ref J7) (pin 59))
      (node (ref J5) (pin 60))
      (node (ref J5) (pin 59)))
    (net (code 192) (name "Net-(J6-Pad30)")
      (node (ref J6) (pin 30)))
    (net (code 193) (name I2C_SENS_SCL)
      (node (ref J6) (pin 29))
      (node (ref J8) (pin 57)))
    (net (code 194) (name "Net-(J6-Pad28)")
      (node (ref J6) (pin 28)))
    (net (code 195) (name "Net-(J6-Pad22)")
      (node (ref J6) (pin 22)))
    (net (code 196) (name "Net-(J6-Pad18)")
      (node (ref J6) (pin 18)))
    (net (code 197) (name "Net-(J6-Pad17)")
      (node (ref J6) (pin 17)))
    (net (code 198) (name "Net-(J6-Pad16)")
      (node (ref J6) (pin 16)))
    (net (code 199) (name "Net-(J6-Pad15)")
      (node (ref J6) (pin 15)))
    (net (code 200) (name GPIO15)
      (node (ref J8) (pin 38))
      (node (ref J6) (pin 10)))
    (net (code 201) (name FLASH_MISO_IO1)
      (node (ref J6) (pin 24))
      (node (ref J8) (pin 52)))
    (net (code 202) (name I2C_SENS_SDA)
      (node (ref J6) (pin 27))
      (node (ref J8) (pin 55)))
    (net (code 203) (name PWM_L1)
      (node (ref J6) (pin 12))
      (node (ref J8) (pin 40)))
    (net (code 204) (name PWM_L0)
      (node (ref J6) (pin 11))
      (node (ref J8) (pin 39)))
    (net (code 205) (name PWM_L2)
      (node (ref J8) (pin 41))
      (node (ref J6) (pin 13)))
    (net (code 206) (name CRSDV)
      (node (ref J9) (pin 8))
      (node (ref J8) (pin 19)))
    (net (code 207) (name "Net-(J6-Pad14)")
      (node (ref J6) (pin 14)))))