{
  "board": {
    "3dviewports": [],
    "design_settings": {
      "defaults": {
        "board_outline_line_width": 0.049999999999999996,
        "copper_line_width": 0.19999999999999998,
        "copper_text_italic": false,
        "copper_text_size_h": 1.5,
        "copper_text_size_v": 1.5,
        "copper_text_thickness": 0.3,
        "copper_text_upright": false,
        "courtyard_line_width": 0.049999999999999996,
        "dimension_precision": 4,
        "dimension_units": 3,
        "dimensions": {
          "arrow_length": 1270000,
          "extension_offset": 500000,
          "keep_text_aligned": true,
          "suppress_zeroes": false,
          "text_position": 0,
          "units_format": 1
        },
        "fab_line_width": 0.09999999999999999,
        "fab_text_italic": false,
        "fab_text_size_h": 1.0,
        "fab_text_size_v": 1.0,
        "fab_text_thickness": 0.15,
        "fab_text_upright": false,
        "other_line_width": 0.09999999999999999,
        "other_text_italic": false,
        "other_text_size_h": 1.0,
        "other_text_size_v": 1.0,
        "other_text_thickness": 0.15,
        "other_text_upright": false,
        "pads": {
          "drill": 4.4,
          "height": 7.4,
          "width": 7.4
        },
        "silk_line_width": 0.12,
        "silk_text_italic": false,
        "silk_text_size_h": 1.0,
        "silk_text_size_v": 1.0,
        "silk_text_thickness": 0.15,
        "silk_text_upright": false,
        "zones": {
          "min_clearance": 0.03
        }
      },
      "diff_pair_dimensions": [],
      "drc_exclusions": [],
      "meta": {
        "filename": "board_design_settings.json",
        "version": 2
      },
      "rule_severities": {
        "annular_width": "error",
        "clearance": "error",
        "connection_width": "warning",
        "copper_edge_clearance": "error",
        "copper_sliver": "warning",
        "courtyards_overlap": "error",
        "diff_pair_gap_out_of_range": "error",
        "diff_pair_uncoupled_length_too_long": "error",
        "drill_out_of_range": "error",
        "duplicate_footprints": "warning",
        "extra_footprint": "warning",
        "footprint": "error",
        "footprint_type_mismatch": "ignore",
        "hole_clearance": "error",
        "hole_near_hole": "error",
        "invalid_outline": "error",
        "isolated_copper": "warning",
        "item_on_disabled_layer": "error",
        "items_not_allowed": "error",
        "length_out_of_range": "error",
        "lib_footprint_issues": "warning",
        "lib_footprint_mismatch": "warning",
        "malformed_courtyard": "error",
        "microvia_drill_out_of_range": "error",
        "missing_courtyard": "ignore",
        "missing_footprint": "warning",
        "net_conflict": "warning",
        "npth_inside_courtyard": "ignore",
        "padstack": "warning",
        "pth_inside_courtyard": "ignore",
        "shorting_items": "error",
        "silk_edge_clearance": "warning",
        "silk_over_copper": "warning",
        "silk_overlap": "warning",
        "skew_out_of_range": "error",
        "solder_mask_bridge": "error",
        "starved_thermal": "error",
        "text_height": "warning",
        "text_thickness": "warning",
        "through_hole_pad_without_hole": "error",
        "too_many_vias": "error",
        "track_dangling": "warning",
        "track_width": "error",
        "tracks_crossing": "error",
        "unconnected_items": "error",
        "unresolved_variable": "error",
        "via_dangling": "warning",
        "zones_intersect": "error"
      },
      "rule_severitieslegacy_courtyards_overlap": true,
      "rule_severitieslegacy_no_courtyard_defined": false,
      "rules": {
        "max_error": 0.005,
        "min_clearance": 0.0,
        "min_connection": 0.0,
        "min_copper_edge_clearance": 0.049999999999999996,
        "min_hole_clearance": 0.25,
        "min_hole_to_hole": 0.25,
        "min_microvia_diameter": 0.19999999999999998,
        "min_microvia_drill": 0.09999999999999999,
        "min_resolved_spokes": 2,
        "min_silk_clearance": 0.0,
        "min_text_height": 0.7999999999999999,
        "min_text_thickness": 0.08,
        "min_through_hole_diameter": 0.3,
        "min_track_width": 0.15,
        "min_via_annular_width": 0.09999999999999999,
        "min_via_diameter": 0.39999999999999997,
        "solder_mask_to_copper_clearance": 0.0,
        "use_height_for_length_calcs": true
      },
      "teardrop_options": [
        {
          "td_allow_use_two_tracks": true,
          "td_curve_segcount": 5,
          "td_on_pad_in_zone": false,
          "td_onpadsmd": true,
          "td_onroundshapesonly": false,
          "td_ontrackend": false,
          "td_onviapad": true
        }
      ],
      "teardrop_parameters": [
        {
          "td_curve_segcount": 0,
          "td_height_ratio": 1.0,
          "td_length_ratio": 0.5,
          "td_maxheight": 2.0,
          "td_maxlen": 1.0,
          "td_target_name": "td_round_shape",
          "td_width_to_size_filter_ratio": 0.9
        },
        {
          "td_curve_segcount": 0,
          "td_height_ratio": 1.0,
          "td_length_ratio": 0.5,
          "td_maxheight": 2.0,
          "td_maxlen": 1.0,
          "td_target_name": "td_rect_shape",
          "td_width_to_size_filter_ratio": 0.9
        },
        {
          "td_curve_segcount": 0,
          "td_height_ratio": 1.0,
          "td_length_ratio": 0.5,
          "td_maxheight": 2.0,
          "td_maxlen": 1.0,
          "td_target_name": "td_track_end",
          "td_width_to_size_filter_ratio": 0.9
        }
      ],
      "track_widths": [
        0.0,
        0.1524,
        0.3,
        0.6
      ],
      "via_dimensions": [
        {
          "diameter": 0.0,
          "drill": 0.0
        },
        {
          "diameter": 0.6,
          "drill": 0.3
        }
      ],
      "zones_allow_external_fillets": false
    },
    "layer_presets": [],
    "viewports": []
  },
  "boards": [],
  "cvpcb": {
    "equivalence_files": []
  },
  "erc": {
    "erc_exclusions": [],
    "meta": {
      "version": 0
    },
    "pin_map": [
      [
        0,
        0,
        0,
        0,
        0,
        0,
        1,
        0,
        0,
        0,
        0,
        2
      ],
      [
        0,
        2,
        0,
        1,
        0,
        0,
        1,
        0,
        2,
        2,
        2,
        2
      ],
      [
        0,
        0,
        0,
        0,
        0,
        0,
        1,
        0,
        1,
        0,
        1,
        2
      ],
      [
        0,
        1,
        0,
        0,
        0,
        0,
        1,
        1,
        2,
        1,
        1,
        2
      ],
      [
        0,
        0,
        0,
        0,
        0,
        0,
        1,
        0,
        0,
        0,
        0,
        2
      ],
      [
        0,
        0,
        0,
        0,
        0,
        0,
        0,
        0,
        0,
        0,
        0,
        2
      ],
      [
        1,
        1,
        1,
        1,
        1,
        0,
        1,
        1,
        1,
        1,
        1,
        2
      ],
      [
        0,
        0,
        0,
        1,
        0,
        0,
        1,
        0,
        0,
        0,
        0,
        2
      ],
      [
        0,
        2,
        1,
        2,
        0,
        0,
        1,
        0,
        2,
        2,
        2,
        2
      ],
      [
        0,
        2,
        0,
        1,
        0,
        0,
        1,
        0,
        2,
        0,
        0,
        2
      ],
      [
        0,
        2,
        1,
        1,
        0,
        0,
        1,
        0,
        2,
        0,
        0,
        2
      ],
      [
        2,
        2,
        2,
        2,
        2,
        2,
        2,
        2,
        2,
        2,
        2,
        2
      ]
    ],
    "rule_severities": {
      "bus_definition_conflict": "error",
      "bus_entry_needed": "error",
      "bus_to_bus_conflict": "error",
      "bus_to_net_conflict": "error",
      "conflicting_netclasses": "error",
      "different_unit_footprint": "error",
      "different_unit_net": "error",
      "duplicate_reference": "error",
      "duplicate_sheet_names": "error",
      "endpoint_off_grid": "warning",
      "extra_units": "error",
      "global_label_dangling": "warning",
      "hier_label_mismatch": "error",
      "label_dangling": "error",
      "lib_symbol_issues": "warning",
      "missing_bidi_pin": "warning",
      "missing_input_pin": "warning",
      "missing_power_pin": "error",
      "missing_unit": "warning",
      "multiple_net_names": "warning",
      "net_not_bus_member": "warning",
      "no_connect_connected": "warning",
      "no_connect_dangling": "warning",
      "pin_not_connected": "error",
      "pin_not_driven": "error",
      "pin_to_pin": "warning",
      "power_pin_not_driven": "error",
      "similar_labels": "warning",
      "simulation_model_issue": "error",
      "unannotated": "error",
      "unit_value_mismatch": "error",
      "unresolved_variable": "error",
      "wire_dangling": "error"
    }
  },
  "libraries": {
    "pinned_footprint_libs": [],
    "pinned_symbol_libs": []
  },
  "meta": {
    "filename": "USS-Module_V2b.kicad_pro",
    "version": 1
  },
  "net_settings": {
    "classes": [
      {
        "bus_width": 12,
        "clearance": 0.2,
        "diff_pair_gap": 0.25,
        "diff_pair_via_gap": 0.25,
        "diff_pair_width": 0.2,
        "line_style": 0,
        "microvia_diameter": 0.3,
        "microvia_drill": 0.1,
        "name": "Default",
        "pcb_color": "rgba(0, 0, 0, 0.000)",
        "schematic_color": "rgba(0, 0, 0, 0.000)",
        "track_width": 0.25,
        "via_diameter": 0.6,
        "via_drill": 0.3,
        "wire_width": 6
      }
    ],
    "meta": {
      "version": 3
    },
    "net_colors": null,
    "netclass_assignments": null,
    "netclass_patterns": [
      {
        "netclass": "Default",
        "pattern": "+3V3"
      },
      {
        "netclass": "Default",
        "pattern": "+3V3_ISOL"
      },
      {
        "netclass": "Default",
        "pattern": "+5V"
      },
      {
        "netclass": "Default",
        "pattern": "+BATT"
      },
      {
        "netclass": "Default",
        "pattern": "1.1"
      },
      {
        "netclass": "Default",
        "pattern": "1.10"
      },
      {
        "netclass": "Default",
        "pattern": "1.11"
      },
      {
        "netclass": "Default",
        "pattern": "1.12"
      },
      {
        "netclass": "Default",
        "pattern": "1.13"
      },
      {
        "netclass": "Default",
        "pattern": "1.14"
      },
      {
        "netclass": "Default",
        "pattern": "1.15"
      },
      {
        "netclass": "Default",
        "pattern": "1.16"
      },
      {
        "netclass": "Default",
        "pattern": "1.17"
      },
      {
        "netclass": "Default",
        "pattern": "1.18"
      },
      {
        "netclass": "Default",
        "pattern": "1.19"
      },
      {
        "netclass": "Default",
        "pattern": "1.2"
      },
      {
        "netclass": "Default",
        "pattern": "1.20"
      },
      {
        "netclass": "Default",
        "pattern": "1.21"
      },
      {
        "netclass": "Default",
        "pattern": "1.22"
      },
      {
        "netclass": "Default",
        "pattern": "1.23"
      },
      {
        "netclass": "Default",
        "pattern": "1.24"
      },
      {
        "netclass": "Default",
        "pattern": "1.25"
      },
      {
        "netclass": "Default",
        "pattern": "1.26"
      },
      {
        "netclass": "Default",
        "pattern": "1.27"
      },
      {
        "netclass": "Default",
        "pattern": "1.28"
      },
      {
        "netclass": "Default",
        "pattern": "1.29"
      },
      {
        "netclass": "Default",
        "pattern": "1.3"
      },
      {
        "netclass": "Default",
        "pattern": "1.30"
      },
      {
        "netclass": "Default",
        "pattern": "1.31"
      },
      {
        "netclass": "Default",
        "pattern": "1.32"
      },
      {
        "netclass": "Default",
        "pattern": "1.33"
      },
      {
        "netclass": "Default",
        "pattern": "1.34"
      },
      {
        "netclass": "Default",
        "pattern": "1.35"
      },
      {
        "netclass": "Default",
        "pattern": "1.36"
      },
      {
        "netclass": "Default",
        "pattern": "1.37"
      },
      {
        "netclass": "Default",
        "pattern": "1.38"
      },
      {
        "netclass": "Default",
        "pattern": "1.39"
      },
      {
        "netclass": "Default",
        "pattern": "1.4"
      },
      {
        "netclass": "Default",
        "pattern": "1.40"
      },
      {
        "netclass": "Default",
        "pattern": "1.41"
      },
      {
        "netclass": "Default",
        "pattern": "1.42"
      },
      {
        "netclass": "Default",
        "pattern": "1.43"
      },
      {
        "netclass": "Default",
        "pattern": "1.44"
      },
      {
        "netclass": "Default",
        "pattern": "1.45"
      },
      {
        "netclass": "Default",
        "pattern": "1.46"
      },
      {
        "netclass": "Default",
        "pattern": "1.47"
      },
      {
        "netclass": "Default",
        "pattern": "1.48"
      },
      {
        "netclass": "Default",
        "pattern": "1.49"
      },
      {
        "netclass": "Default",
        "pattern": "1.5"
      },
      {
        "netclass": "Default",
        "pattern": "1.50"
      },
      {
        "netclass": "Default",
        "pattern": "1.51"
      },
      {
        "netclass": "Default",
        "pattern": "1.52"
      },
      {
        "netclass": "Default",
        "pattern": "1.6"
      },
      {
        "netclass": "Default",
        "pattern": "1.7"
      },
      {
        "netclass": "Default",
        "pattern": "1.8"
      },
      {
        "netclass": "Default",
        "pattern": "1.9"
      },
      {
        "netclass": "Default",
        "pattern": "2.1"
      },
      {
        "netclass": "Default",
        "pattern": "2.10"
      },
      {
        "netclass": "Default",
        "pattern": "2.11"
      },
      {
        "netclass": "Default",
        "pattern": "2.12"
      },
      {
        "netclass": "Default",
        "pattern": "2.13"
      },
      {
        "netclass": "Default",
        "pattern": "2.14"
      },
      {
        "netclass": "Default",
        "pattern": "2.15"
      },
      {
        "netclass": "Default",
        "pattern": "2.16"
      },
      {
        "netclass": "Default",
        "pattern": "2.17"
      },
      {
        "netclass": "Default",
        "pattern": "2.18"
      },
      {
        "netclass": "Default",
        "pattern": "2.19"
      },
      {
        "netclass": "Default",
        "pattern": "2.2"
      },
      {
        "netclass": "Default",
        "pattern": "2.20"
      },
      {
        "netclass": "Default",
        "pattern": "2.21"
      },
      {
        "netclass": "Default",
        "pattern": "2.22"
      },
      {
        "netclass": "Default",
        "pattern": "2.23"
      },
      {
        "netclass": "Default",
        "pattern": "2.24"
      },
      {
        "netclass": "Default",
        "pattern": "2.25"
      },
      {
        "netclass": "Default",
        "pattern": "2.27"
      },
      {
        "netclass": "Default",
        "pattern": "2.29"
      },
      {
        "netclass": "Default",
        "pattern": "2.3"
      },
      {
        "netclass": "Default",
        "pattern": "2.31"
      },
      {
        "netclass": "Default",
        "pattern": "2.33"
      },
      {
        "netclass": "Default",
        "pattern": "2.34"
      },
      {
        "netclass": "Default",
        "pattern": "2.35"
      },
      {
        "netclass": "Default",
        "pattern": "2.36"
      },
      {
        "netclass": "Default",
        "pattern": "2.37"
      },
      {
        "netclass": "Default",
        "pattern": "2.38"
      },
      {
        "netclass": "Default",
        "pattern": "2.39"
      },
      {
        "netclass": "Default",
        "pattern": "2.4"
      },
      {
        "netclass": "Default",
        "pattern": "2.40"
      },
      {
        "netclass": "Default",
        "pattern": "2.41"
      },
      {
        "netclass": "Default",
        "pattern": "2.42"
      },
      {
        "netclass": "Default",
        "pattern": "2.43"
      },
      {
        "netclass": "Default",
        "pattern": "2.44"
      },
      {
        "netclass": "Default",
        "pattern": "2.45"
      },
      {
        "netclass": "Default",
        "pattern": "2.47"
      },
      {
        "netclass": "Default",
        "pattern": "2.48"
      },
      {
        "netclass": "Default",
        "pattern": "2.49"
      },
      {
        "netclass": "Default",
        "pattern": "2.5"
      },
      {
        "netclass": "Default",
        "pattern": "2.50"
      },
      {
        "netclass": "Default",
        "pattern": "2.51"
      },
      {
        "netclass": "Default",
        "pattern": "2.52"
      },
      {
        "netclass": "Default",
        "pattern": "2.6"
      },
      {
        "netclass": "Default",
        "pattern": "2.7"
      },
      {
        "netclass": "Default",
        "pattern": "2.8"
      },
      {
        "netclass": "Default",
        "pattern": "2.9"
      },
      {
        "netclass": "Default",
        "pattern": "CAN_H"
      },
      {
        "netclass": "Default",
        "pattern": "CAN_L"
      },
      {
        "netclass": "Default",
        "pattern": "CRSDV"
      },
      {
        "netclass": "Default",
        "pattern": "DMA_TRIG"
      },
      {
        "netclass": "Default",
        "pattern": "EXT_RST"
      },
      {
        "netclass": "Default",
        "pattern": "FLASH_CLK"
      },
      {
        "netclass": "Default",
        "pattern": "FLASH_MISO_IO1"
      },
      {
        "netclass": "Default",
        "pattern": "FLASH_MOSI_IO0"
      },
      {
        "netclass": "Default",
        "pattern": "FLASH_RST#_IO3"
      },
      {
        "netclass": "Default",
        "pattern": "FLASH_WP#_IO2"
      },
      {
        "netclass": "Default",
        "pattern": "GND_ISOL"
      },
      {
        "netclass": "Default",
        "pattern": "GPIO0"
      },
      {
        "netclass": "Default",
        "pattern": "GPIO1"
      },
      {
        "netclass": "Default",
        "pattern": "GPIO10"
      },
      {
        "netclass": "Default",
        "pattern": "GPIO11"
      },
      {
        "netclass": "Default",
        "pattern": "GPIO12"
      },
      {
        "netclass": "Default",
        "pattern": "GPIO13"
      },
      {
        "netclass": "Default",
        "pattern": "GPIO14"
      },
      {
        "netclass": "Default",
        "pattern": "GPIO15"
      },
      {
        "netclass": "Default",
        "pattern": "GPIO2"
      },
      {
        "netclass": "Default",
        "pattern": "GPIO3"
      },
      {
        "netclass": "Default",
        "pattern": "GPIO5_ADC1"
      },
      {
        "netclass": "Default",
        "pattern": "GPIO6_ADC2"
      },
      {
        "netclass": "Default",
        "pattern": "GPIO7_ADC3"
      },
      {
        "netclass": "Default",
        "pattern": "GPIO8"
      },
      {
        "netclass": "Default",
        "pattern": "GPIO9"
      },
      {
        "netclass": "Default",
        "pattern": "GPIOO4_ADC0"
      },
      {
        "netclass": "Default",
        "pattern": "I2C_0_SCL"
      },
      {
        "netclass": "Default",
        "pattern": "I2C_0_SDA"
      },
      {
        "netclass": "Default",
        "pattern": "I2C_ISOL_SCL"
      },
      {
        "netclass": "Default",
        "pattern": "I2C_ISOL_SDA"
      },
      {
        "netclass": "Default",
        "pattern": "I2C_SENS_SCL"
      },
      {
        "netclass": "Default",
        "pattern": "I2C_SENS_SDA"
      },
      {
        "netclass": "Default",
        "pattern": "MCLK"
      },
      {
        "netclass": "Default",
        "pattern": "MDC"
      },
      {
        "netclass": "Default",
        "pattern": "MDIO"
      },
      {
        "netclass": "Default",
        "pattern": "Net-(C1-Pad1)"
      },
      {
        "netclass": "Default",
        "pattern": "Net-(C2-Pad2)"
      },
      {
        "netclass": "Default",
        "pattern": "Net-(C3-Pad2)"
      },
      {
        "netclass": "Default",
        "pattern": "Net-(J10-Pad4)"
      },
      {
        "netclass": "Default",
        "pattern": "Net-(J5-Pad42)"
      },
      {
        "netclass": "Default",
        "pattern": "Net-(J5-Pad49)"
      },
      {
        "netclass": "Default",
        "pattern": "Net-(J5-Pad50)"
      },
      {
        "netclass": "Default",
        "pattern": "Net-(J5-Pad51)"
      },
      {
        "netclass": "Default",
        "pattern": "Net-(J5-Pad52)"
      },
      {
        "netclass": "Default",
        "pattern": "Net-(J6-Pad14)"
      },
      {
        "netclass": "Default",
        "pattern": "Net-(J6-Pad15)"
      },
      {
        "netclass": "Default",
        "pattern": "Net-(J6-Pad16)"
      },
      {
        "netclass": "Default",
        "pattern": "Net-(J6-Pad17)"
      },
      {
        "netclass": "Default",
        "pattern": "Net-(J6-Pad18)"
      },
      {
        "netclass": "Default",
        "pattern": "Net-(J6-Pad22)"
      },
      {
        "netclass": "Default",
        "pattern": "Net-(J6-Pad28)"
      },
      {
        "netclass": "Default",
        "pattern": "Net-(J6-Pad30)"
      },
      {
        "netclass": "Default",
        "pattern": "Net-(J7-Pad42)"
      },
      {
        "netclass": "Default",
        "pattern": "Net-(J7-Pad49)"
      },
      {
        "netclass": "Default",
        "pattern": "Net-(J7-Pad50)"
      },
      {
        "netclass": "Default",
        "pattern": "Net-(J7-Pad51)"
      },
      {
        "netclass": "Default",
        "pattern": "Net-(J7-Pad52)"
      },
      {
        "netclass": "Default",
        "pattern": "Net-(J8-Pad1)"
      },
      {
        "netclass": "Default",
        "pattern": "Net-(J8-Pad10)"
      },
      {
        "netclass": "Default",
        "pattern": "Net-(J8-Pad2)"
      },
      {
        "netclass": "Default",
        "pattern": "Net-(J8-Pad26)"
      },
      {
        "netclass": "Default",
        "pattern": "Net-(J8-Pad28)"
      },
      {
        "netclass": "Default",
        "pattern": "Net-(J8-Pad3)"
      },
      {
        "netclass": "Default",
        "pattern": "Net-(J8-Pad4)"
      },
      {
        "netclass": "Default",
        "pattern": "Net-(J8-Pad42)"
      },
      {
        "netclass": "Default",
        "pattern": "Net-(J8-Pad43)"
      },
      {
        "netclass": "Default",
        "pattern": "Net-(J8-Pad44)"
      },
      {
        "netclass": "Default",
        "pattern": "Net-(J8-Pad45)"
      },
      {
        "netclass": "Default",
        "pattern": "Net-(J8-Pad46)"
      },
      {
        "netclass": "Default",
        "pattern": "Net-(J8-Pad5)"
      },
      {
        "netclass": "Default",
        "pattern": "Net-(J8-Pad50)"
      },
      {
        "netclass": "Default",
        "pattern": "Net-(J8-Pad56)"
      },
      {
        "netclass": "Default",
        "pattern": "Net-(J8-Pad58)"
      },
      {
        "netclass": "Default",
        "pattern": "Net-(J8-Pad6)"
      },
      {
        "netclass": "Default",
        "pattern": "Net-(J8-Pad7)"
      },
      {
        "netclass": "Default",
        "pattern": "Net-(J8-Pad8)"
      },
      {
        "netclass": "Default",
        "pattern": "Net-(J8-Pad9)"
      },
      {
        "netclass": "Default",
        "pattern": "Net-(J9-Pad2)"
      },
      {
        "netclass": "Default",
        "pattern": "Net-(L1-Pad2)"
      },
      {
        "netclass": "Default",
        "pattern": "PPS"
      },
      {
        "netclass": "Default",
        "pattern": "PWM1"
      },
      {
        "netclass": "Default",
        "pattern": "PWM2"
      },
      {
        "netclass": "Default",
        "pattern": "PWM3"
      },
      {
        "netclass": "Default",
        "pattern": "PWM_L0"
      },
      {
        "netclass": "Default",
        "pattern": "PWM_L1"
      },
      {
        "netclass": "Default",
        "pattern": "PWM_L2"
      },
      {
        "netclass": "Default",
        "pattern": "REFCLK"
      },
      {
        "netclass": "Default",
        "pattern": "RS485_A"
      },
      {
        "netclass": "Default",
        "pattern": "RS485_B"
      },
      {
        "netclass": "Default",
        "pattern": "RXD0"
      },
      {
        "netclass": "Default",
        "pattern": "RXD1"
      },
      {
        "netclass": "Default",
        "pattern": "RXER"
      },
      {
        "netclass": "Default",
        "pattern": "SPI_0_CLK"
      },
      {
        "netclass": "Default",
        "pattern": "SPI_0_CS"
      },
      {
        "netclass": "Default",
        "pattern": "SPI_0_MISO"
      },
      {
        "netclass": "Default",
        "pattern": "SPI_0_MOSI"
      },
      {
        "netclass": "Default",
        "pattern": "TXD0"
      },
      {
        "netclass": "Default",
        "pattern": "TXD1"
      },
      {
        "netclass": "Default",
        "pattern": "TXEN"
      },
      {
        "netclass": "Default",
        "pattern": "UART_0_RXD"
      },
      {
        "netclass": "Default",
        "pattern": "UART_0_TXD"
      },
      {
        "netclass": "Default",
        "pattern": "USB_HSD_N"
      },
      {
        "netclass": "Default",
        "pattern": "USB_HSD_P"
      }
    ]
  },
  "pcbnew": {
    "last_paths": {
      "gencad": "",
      "idf": "",
      "netlist": "",
      "specctra_dsn": "",
      "step": "",
      "vrml": ""
    },
    "page_layout_descr_file": "${SPACEMANIC_LIBS_DIR}/draft-templates/KiCad/Spacemanic_A4_ISO_small.kicad_wks"
  },
  "schematic": {
    "annotate_start_num": 0,
    "drawing": {
      "dashed_lines_dash_length_ratio": 12.0,
      "dashed_lines_gap_length_ratio": 3.0,
      "default_line_thickness": 6.0,
      "default_text_size": 50.0,
      "field_names": [],
      "intersheets_ref_own_page": false,
      "intersheets_ref_prefix": "",
      "intersheets_ref_short": false,
      "intersheets_ref_show": false,
      "intersheets_ref_suffix": "",
      "junction_size_choice": 3,
      "label_size_ratio": 0.25,
      "pin_symbol_size": 0.0,
      "text_offset_ratio": 0.08
    },
    "legacy_lib_dir": "",
    "legacy_lib_list": [],
    "meta": {
      "version": 1
    },
    "net_format_name": "Pcbnew",
    "page_layout_descr_file": "${SPACEMANIC_LIBS_DIR}/draft-templates/KiCad/Spacemanic_A4_ISO_small.kicad_wks",
    "plot_directory": "",
    "spice_adjust_passive_values": false,
    "spice_current_sheet_as_root": false,
    "spice_external_command": "spice \"%I\"",
    "spice_model_current_sheet_as_root": true,
    "spice_save_all_currents": false,
    "spice_save_all_voltages": false,
    "subpart_first_id": 65,
    "subpart_id_separator": 0
  },
  "sheets": [
    [
      "8f64b542-f01b-4158-a67f-8702511a346d",
      ""
    ]
  ],
  "text_variables": {}
}
