G04 #@! TF.GenerationSoftware,KiCad,Pcbnew,(5.1.12)-1*
G04 #@! TF.CreationDate,2022-12-23T18:04:56+01:00*
G04 #@! TF.ProjectId,USS-Module_V1c,5553532d-4d6f-4647-956c-655f5631632e,rev?*
G04 #@! TF.SameCoordinates,PX8f0d180PY5f5e100*
G04 #@! TF.FileFunction,Copper,L3,Inr*
G04 #@! TF.FilePolarity,Positive*
%FSLAX46Y46*%
G04 Gerber Fmt 4.6, Leading zero omitted, Abs format (unit mm)*
G04 Created by KiCad (PCBNEW (5.1.12)-1) date 2022-12-23 18:04:56*
%MOMM*%
%LPD*%
G01*
G04 APERTURE LIST*
G04 #@! TA.AperFunction,ComponentPad*
%ADD10C,5.600000*%
G04 #@! TD*
G04 #@! TA.AperFunction,WasherPad*
%ADD11C,0.850000*%
G04 #@! TD*
G04 #@! TA.AperFunction,ComponentPad*
%ADD12O,1.400000X2.000000*%
G04 #@! TD*
G04 #@! TA.AperFunction,ComponentPad*
%ADD13R,1.400000X2.000000*%
G04 #@! TD*
G04 #@! TA.AperFunction,ComponentPad*
%ADD14C,7.400000*%
G04 #@! TD*
G04 #@! TA.AperFunction,ComponentPad*
%ADD15O,1.700000X1.700000*%
G04 #@! TD*
G04 #@! TA.AperFunction,ComponentPad*
%ADD16R,1.700000X1.700000*%
G04 #@! TD*
G04 #@! TA.AperFunction,ViaPad*
%ADD17C,0.800000*%
G04 #@! TD*
G04 #@! TA.AperFunction,ViaPad*
%ADD18C,0.600000*%
G04 #@! TD*
G04 #@! TA.AperFunction,ViaPad*
%ADD19C,0.750000*%
G04 #@! TD*
G04 #@! TA.AperFunction,Conductor*
%ADD20C,0.700000*%
G04 #@! TD*
G04 #@! TA.AperFunction,Conductor*
%ADD21C,0.025400*%
G04 #@! TD*
G04 #@! TA.AperFunction,Conductor*
%ADD22C,0.100000*%
G04 #@! TD*
G04 APERTURE END LIST*
D10*
X-36195000Y42865000D03*
D11*
X-22000000Y-8200000D03*
X-22000000Y-24600000D03*
D10*
X37465000Y42865000D03*
X-40005000Y-42865000D03*
X40005000Y-42865000D03*
D12*
X-5715000Y37785000D03*
X-5715000Y35245000D03*
X-8255000Y35245000D03*
X-8255000Y37785000D03*
X14605000Y35245000D03*
X4445000Y37785000D03*
X4445000Y35245000D03*
X6985000Y37785000D03*
X6985000Y35245000D03*
X9525000Y37785000D03*
X9525000Y35245000D03*
X22225000Y37785000D03*
X22225000Y35245000D03*
X19685000Y37785000D03*
X19685000Y35245000D03*
X12065000Y37785000D03*
X12065000Y35245000D03*
X27305000Y37785000D03*
X27305000Y35245000D03*
X24765000Y37785000D03*
X24765000Y35245000D03*
X32385000Y37785000D03*
X32385000Y35245000D03*
X29845000Y37785000D03*
X29845000Y35245000D03*
X-635000Y37785000D03*
X-635000Y35245000D03*
X-3175000Y37785000D03*
X-3175000Y35245000D03*
X1905000Y37785000D03*
X1905000Y35245000D03*
X17145000Y37785000D03*
X17145000Y35245000D03*
X14605000Y37785000D03*
X-10795000Y37785000D03*
X-10795000Y35245000D03*
X-13335000Y37785000D03*
X-13335000Y35245000D03*
X-15875000Y37785000D03*
X-15875000Y35245000D03*
X-18415000Y37785000D03*
X-18415000Y35245000D03*
X-20955000Y37785000D03*
X-20955000Y35245000D03*
X-23495000Y37785000D03*
X-23495000Y35245000D03*
X-26035000Y37785000D03*
X-26035000Y35245000D03*
X-28575000Y37785000D03*
X-28575000Y35245000D03*
X-31115000Y37785000D03*
D13*
X-31115000Y35245000D03*
D12*
X-5715000Y42865000D03*
X-5715000Y40325000D03*
X-8255000Y40325000D03*
X-8255000Y42865000D03*
X14605000Y40325000D03*
X4445000Y42865000D03*
X4445000Y40325000D03*
X6985000Y42865000D03*
X6985000Y40325000D03*
X9525000Y42865000D03*
X9525000Y40325000D03*
X22225000Y42865000D03*
X22225000Y40325000D03*
X19685000Y42865000D03*
X19685000Y40325000D03*
X12065000Y42865000D03*
X12065000Y40325000D03*
X27305000Y42865000D03*
X27305000Y40325000D03*
X24765000Y42865000D03*
X24765000Y40325000D03*
X32385000Y42865000D03*
X32385000Y40325000D03*
X29845000Y42865000D03*
X29845000Y40325000D03*
X-635000Y42865000D03*
X-635000Y40325000D03*
X-3175000Y42865000D03*
X-3175000Y40325000D03*
X1905000Y42865000D03*
X1905000Y40325000D03*
X17145000Y42865000D03*
X17145000Y40325000D03*
X14605000Y42865000D03*
X-10795000Y42865000D03*
X-10795000Y40325000D03*
X-13335000Y42865000D03*
X-13335000Y40325000D03*
X-15875000Y42865000D03*
X-15875000Y40325000D03*
X-18415000Y42865000D03*
X-18415000Y40325000D03*
X-20955000Y42865000D03*
X-20955000Y40325000D03*
X-23495000Y42865000D03*
X-23495000Y40325000D03*
X-26035000Y42865000D03*
X-26035000Y40325000D03*
X-28575000Y42865000D03*
X-28575000Y40325000D03*
X-31115000Y42865000D03*
D13*
X-31115000Y40325000D03*
D12*
X-5715000Y25860000D03*
X-5715000Y23320000D03*
X-8255000Y23320000D03*
X-8255000Y25860000D03*
X14605000Y23320000D03*
X4445000Y25860000D03*
X4445000Y23320000D03*
X6985000Y25860000D03*
X6985000Y23320000D03*
X9525000Y25860000D03*
X9525000Y23320000D03*
X22225000Y25860000D03*
X22225000Y23320000D03*
X19685000Y25860000D03*
X19685000Y23320000D03*
X12065000Y25860000D03*
X12065000Y23320000D03*
X27305000Y25860000D03*
X27305000Y23320000D03*
X24765000Y25860000D03*
X24765000Y23320000D03*
X32385000Y25860000D03*
X32385000Y23320000D03*
X29845000Y25860000D03*
X29845000Y23320000D03*
X-635000Y25860000D03*
X-635000Y23320000D03*
X-3175000Y25860000D03*
X-3175000Y23320000D03*
X1905000Y25860000D03*
X1905000Y23320000D03*
X17145000Y25860000D03*
X17145000Y23320000D03*
X14605000Y25860000D03*
X-10795000Y25860000D03*
X-10795000Y23320000D03*
X-13335000Y25860000D03*
X-13335000Y23320000D03*
X-15875000Y25860000D03*
X-15875000Y23320000D03*
X-18415000Y25860000D03*
X-18415000Y23320000D03*
X-20955000Y25860000D03*
X-20955000Y23320000D03*
X-23495000Y25860000D03*
X-23495000Y23320000D03*
X-26035000Y25860000D03*
X-26035000Y23320000D03*
X-28575000Y25860000D03*
X-28575000Y23320000D03*
X-31115000Y25860000D03*
D13*
X-31115000Y23320000D03*
D12*
X-5715000Y30940000D03*
X-5715000Y28400000D03*
X-8255000Y28400000D03*
X-8255000Y30940000D03*
X14605000Y28400000D03*
X4445000Y30940000D03*
X4445000Y28400000D03*
X6985000Y30940000D03*
X6985000Y28400000D03*
X9525000Y30940000D03*
X9525000Y28400000D03*
X22225000Y30940000D03*
X22225000Y28400000D03*
X19685000Y30940000D03*
X19685000Y28400000D03*
X12065000Y30940000D03*
X12065000Y28400000D03*
X27305000Y30940000D03*
X27305000Y28400000D03*
X24765000Y30940000D03*
X24765000Y28400000D03*
X32385000Y30940000D03*
X32385000Y28400000D03*
X29845000Y30940000D03*
X29845000Y28400000D03*
X-635000Y30940000D03*
X-635000Y28400000D03*
X-3175000Y30940000D03*
X-3175000Y28400000D03*
X1905000Y30940000D03*
X1905000Y28400000D03*
X17145000Y30940000D03*
X17145000Y28400000D03*
X14605000Y30940000D03*
X-10795000Y30940000D03*
X-10795000Y28400000D03*
X-13335000Y30940000D03*
X-13335000Y28400000D03*
X-15875000Y30940000D03*
X-15875000Y28400000D03*
X-18415000Y30940000D03*
X-18415000Y28400000D03*
X-20955000Y30940000D03*
X-20955000Y28400000D03*
X-23495000Y30940000D03*
X-23495000Y28400000D03*
X-26035000Y30940000D03*
X-26035000Y28400000D03*
X-28575000Y30940000D03*
X-28575000Y28400000D03*
X-31115000Y30940000D03*
D13*
X-31115000Y28400000D03*
D14*
X-29500000Y-33400000D03*
X-29500000Y600000D03*
X29500000Y600000D03*
X29500000Y-33400000D03*
D15*
X37465000Y17293000D03*
X37465000Y14753000D03*
X34925000Y17293000D03*
X34925000Y14753000D03*
X32385000Y17293000D03*
X32385000Y14753000D03*
X29845000Y17293000D03*
X29845000Y14753000D03*
X27305000Y17293000D03*
X27305000Y14753000D03*
X24765000Y17293000D03*
X24765000Y14753000D03*
X22225000Y17293000D03*
X22225000Y14753000D03*
X19685000Y17293000D03*
X19685000Y14753000D03*
X17145000Y17293000D03*
X17145000Y14753000D03*
X14605000Y17293000D03*
X14605000Y14753000D03*
X12065000Y17293000D03*
X12065000Y14753000D03*
X9525000Y17293000D03*
X9525000Y14753000D03*
X6985000Y17293000D03*
X6985000Y14753000D03*
X4445000Y17293000D03*
X4445000Y14753000D03*
X1905000Y17293000D03*
X1905000Y14753000D03*
X-635000Y17293000D03*
X-635000Y14753000D03*
X-3175000Y17293000D03*
X-3175000Y14753000D03*
X-5715000Y17293000D03*
X-5715000Y14753000D03*
X-8255000Y17293000D03*
X-8255000Y14753000D03*
X-10795000Y17293000D03*
X-10795000Y14753000D03*
X-13335000Y17293000D03*
X-13335000Y14753000D03*
X-15875000Y17293000D03*
X-15875000Y14753000D03*
X-18415000Y17293000D03*
X-18415000Y14753000D03*
X-20955000Y17293000D03*
X-20955000Y14753000D03*
X-23495000Y17293000D03*
X-23495000Y14753000D03*
X-26035000Y17293000D03*
X-26035000Y14753000D03*
X-28575000Y17293000D03*
X-28575000Y14753000D03*
X-31115000Y17293000D03*
X-31115000Y14753000D03*
X-33655000Y17293000D03*
X-33655000Y14753000D03*
X-36195000Y17293000D03*
D16*
X-36195000Y14753000D03*
X38135000Y25500000D03*
D15*
X38135000Y22960000D03*
D16*
X-40865000Y25500000D03*
D15*
X-40865000Y22960000D03*
D16*
X-36865000Y25500000D03*
D15*
X-36865000Y22960000D03*
D17*
X-2500001Y-36100001D03*
X-10000000Y3300000D03*
X-12500000Y3300000D03*
X-15250000Y3300000D03*
X20025021Y3300000D03*
X-22500002Y-36100000D03*
X-25000002Y-36100000D03*
X-20000002Y-36100001D03*
X-12500001Y-36100000D03*
X-15000000Y-36100001D03*
X-10000001Y-36100000D03*
X-7500002Y-36100001D03*
X-17500000Y-36100001D03*
X-5000002Y-36100001D03*
X17499999Y-36100001D03*
X2499999Y-36100001D03*
X7499999Y-36100001D03*
X9999999Y-36100001D03*
X14999999Y-36100001D03*
X12499999Y-36100001D03*
X20000001Y-36100001D03*
X25000000Y-36100000D03*
X22500001Y-36100001D03*
X-1Y-36100001D03*
X4999999Y-36100001D03*
X-17500000Y3300000D03*
X-2499999Y3300000D03*
X-7499999Y3300000D03*
X-20000000Y3300000D03*
X-25000000Y3300000D03*
X-22500000Y3300000D03*
X-4999999Y3300000D03*
X17500000Y3300000D03*
X2499999Y3300000D03*
X7499999Y3300000D03*
X10000000Y3300000D03*
X15000000Y3300000D03*
X12500000Y3300000D03*
X25000001Y3300000D03*
X4999999Y3300000D03*
X0Y3300001D03*
X32200000Y-21400002D03*
X32200000Y-6400000D03*
X32200000Y-16400000D03*
X32200000Y-8900000D03*
X32200000Y-13900000D03*
X32200000Y-18900000D03*
X32200000Y-3900000D03*
X32200000Y-11400000D03*
X32200000Y-28899999D03*
X32200000Y-26400002D03*
X32200000Y-23900002D03*
X-32200000Y-26400000D03*
X-32200000Y-23900002D03*
X-32200000Y-28899999D03*
X-32200000Y-3900000D03*
X-32200000Y-8900000D03*
X-32200000Y-11400000D03*
X-32200000Y-6400000D03*
X-32200000Y-21400002D03*
X-32200000Y-18900000D03*
X-32200000Y-13900000D03*
X-32200000Y-16400000D03*
D18*
X-37065000Y31300000D03*
X-36465000Y31300000D03*
X-35865000Y31300000D03*
X-35265000Y31300000D03*
D19*
X-22000000Y-18400000D03*
X-22000000Y-16400000D03*
X-22000000Y-12375000D03*
D18*
X-18117251Y-21313914D03*
X-18000003Y-18000003D03*
X-17924996Y-12000000D03*
D19*
X-22000000Y-20925000D03*
D18*
X-25880086Y-11444053D03*
X-17595595Y-16599187D03*
X10416949Y-11016949D03*
X30050000Y19000000D03*
X31850000Y19000000D03*
X35450000Y19000000D03*
X37050000Y19000000D03*
X33650000Y19000000D03*
X33950000Y13100000D03*
X35450000Y13200000D03*
X37050000Y13200000D03*
X32850000Y12200000D03*
X31850000Y11200000D03*
X29891949Y11158051D03*
X28691949Y9958051D03*
X25691949Y6958051D03*
X27691949Y8958051D03*
X26691949Y7958051D03*
X24676949Y5958051D03*
X28650000Y12800000D03*
X26850000Y11000000D03*
X27850000Y12000000D03*
X24850000Y9000000D03*
X25850000Y10000000D03*
X22850000Y7000000D03*
X23850000Y8000000D03*
X23800000Y0D03*
X21835000Y6000000D03*
X21200000Y0D03*
X23800000Y-2000000D03*
X23800000Y-4000000D03*
X21200000Y-2000000D03*
X21200000Y-4000000D03*
X12000000Y-11000000D03*
X14000000Y-11000000D03*
X16000000Y-11000000D03*
X18000000Y-11000000D03*
X20000000Y-11000000D03*
X23800000Y-6000000D03*
X21200000Y-6000000D03*
X21149990Y-8000000D03*
X23800000Y-8000000D03*
X23200000Y-9400000D03*
X22400000Y-10200000D03*
X21600000Y-11000000D03*
X20000000Y-9000000D03*
X18000000Y-9000000D03*
X16000000Y-9000000D03*
X14000000Y-9000000D03*
X8600000Y-9000000D03*
X12600000Y-9000000D03*
X4800000Y-9000000D03*
X-14800000Y-9000000D03*
X-16600000Y-9000000D03*
X-18000000Y-9000000D03*
X23800000Y1400000D03*
X2995551Y-8995551D03*
X23000000Y-7000000D03*
X23000000Y-8000000D03*
D19*
X-18000000Y-10850010D03*
X-16600000Y-10850010D03*
X-17300000Y-10850010D03*
D18*
X-2125000Y-3975000D03*
X15649990Y-3974999D03*
X-26515796Y-12069063D03*
X-7050000Y-12400002D03*
X13500000Y-4625000D03*
X-2625000Y-4650000D03*
X-26682478Y-12851518D03*
X-8664588Y-12985412D03*
X-9695286Y-13379701D03*
X8424990Y-5374263D03*
X-3109074Y-5286940D03*
X-26400000Y-13600000D03*
X-10600000Y-13799997D03*
X-11350000Y-14350010D03*
X-4175000Y-6650000D03*
X3500000Y-6550010D03*
X-26153933Y-15115151D03*
X-12025000Y-14975020D03*
X-450000Y-7400000D03*
X-4800000Y-7350000D03*
X-26508669Y-15833210D03*
X-12811343Y-15600030D03*
X-25861488Y-16365162D03*
X-13550000Y-16275010D03*
D17*
X-12750000Y-3500000D03*
X-12500000Y-2000000D03*
D18*
X-26589254Y-18094892D03*
X-16941368Y-18099605D03*
X-27950000Y-18674957D03*
X-16346015Y-18724615D03*
X-27916949Y-19924968D03*
X-16735060Y-19505369D03*
X-26349989Y-20464871D03*
X-16235813Y-20130486D03*
X-29957344Y-21089881D03*
X-17300006Y-20775010D03*
D19*
X-21250000Y-21900000D03*
X-22750000Y-21900000D03*
X-22000000Y-21900023D03*
X-22000000Y-22900000D03*
X-21250000Y-22900000D03*
X-22750000Y-22900000D03*
X-25850000Y-23825010D03*
X-26550000Y-23825010D03*
X-27250000Y-23825010D03*
D18*
X-3650000Y-5925000D03*
X5975000Y-5900010D03*
X-26688222Y-14519707D03*
D20*
X26802229Y21769990D02*
X34419990Y21769990D01*
X34419990Y21769990D02*
X38150000Y25500000D01*
X24765000Y30910000D02*
X24765000Y28370000D01*
X26025000Y22532219D02*
X26787229Y21769990D01*
X26025000Y27110000D02*
X26025000Y22502219D01*
X24765000Y28370000D02*
X26025000Y27110000D01*
X23500000Y32175000D02*
X24765000Y30910000D01*
X23500000Y39040000D02*
X23500000Y32175000D01*
X24765000Y40305000D02*
X23500000Y39040000D01*
X24765000Y42845000D02*
X24765000Y40305000D01*
X-635000Y30910000D02*
X-635000Y28370000D01*
X-40850000Y25500000D02*
X-40850000Y30100000D01*
X-40850000Y30100000D02*
X-37550000Y33400000D01*
X-635000Y40305000D02*
X-1900000Y39040000D01*
X-1900000Y32175000D02*
X-635000Y30910000D01*
X-635000Y42845000D02*
X-635000Y40305000D01*
X-1950000Y33370000D02*
X-1900000Y33420000D01*
X-1900000Y33420000D02*
X-1900000Y32175000D01*
X-37550000Y33400000D02*
X-1950000Y33400000D01*
X-1900000Y39040000D02*
X-1900000Y33420000D01*
X1905000Y30910000D02*
X1905000Y28370000D01*
X-34050000Y22700000D02*
X-36850000Y25500000D01*
X654990Y22542209D02*
X-687219Y21200000D01*
X-32550000Y21200000D02*
X-34050000Y22700000D01*
X-687219Y21200000D02*
X-32550000Y21200000D01*
X654990Y27119990D02*
X654990Y22512209D01*
X1905000Y28370000D02*
X654990Y27119990D01*
X625000Y32190000D02*
X1905000Y30910000D01*
X1905000Y40305000D02*
X625000Y39025000D01*
X625000Y39025000D02*
X625000Y32190000D01*
X1905000Y42845000D02*
X1905000Y40305000D01*
X-18000000Y-10850010D02*
X-16600000Y-10850010D01*
X20600000Y-10000000D02*
X-15749990Y-10000000D01*
X22149999Y-8450001D02*
X20600000Y-10000000D01*
X22149999Y-6050001D02*
X22149999Y-8450001D01*
X22600000Y-5600000D02*
X22149999Y-6050001D01*
X22600000Y5365000D02*
X22600000Y-5600000D01*
X-15749990Y-10000000D02*
X-16600000Y-10850010D01*
X29845000Y12610000D02*
X22600000Y5365000D01*
X29845000Y17293000D02*
X29845000Y12610000D01*
X-29700000Y-21900000D02*
X-30400000Y-22600000D01*
X-21250000Y-21900000D02*
X-29700000Y-21900000D01*
X-30400000Y-22600000D02*
X-33400000Y-22600000D01*
X-33400000Y-22600000D02*
X-34650000Y-21350000D01*
X-33956000Y20066000D02*
X-36850000Y22960000D01*
X-31100000Y20066000D02*
X-33956000Y20066000D01*
X-27300000Y16266000D02*
X-31100000Y20066000D01*
X-27300000Y10658000D02*
X-27300000Y16266000D01*
X-34635000Y3323000D02*
X-27300000Y10658000D01*
X-34635000Y-21350000D02*
X-34635000Y3323000D01*
X-28850000Y-22900000D02*
X-31075000Y-25125000D01*
X-34275000Y-25125000D02*
X-36275000Y-23125000D01*
X-21250000Y-22900000D02*
X-28850000Y-22900000D01*
X-31075000Y-25125000D02*
X-34275000Y-25125000D01*
X-37290000Y19400000D02*
X-40850000Y22960000D01*
X-32400000Y16286000D02*
X-35514000Y19400000D01*
X-32400000Y9368000D02*
X-32400000Y16286000D01*
X-35514000Y19400000D02*
X-37290000Y19400000D01*
X-36260000Y5508000D02*
X-32400000Y9368000D01*
X-36260000Y3125000D02*
X-36260000Y5508000D01*
X-36260000Y-23125000D02*
X-36260000Y3125000D01*
X-35000000Y-27600000D02*
X-31650000Y-27600000D01*
X-38060000Y-24525000D02*
X-34985000Y-27600000D01*
X-31650000Y-27600000D02*
X-27875010Y-23825010D01*
X-27875010Y-23825010D02*
X-25850000Y-23825010D01*
X-36180000Y9670000D02*
X-36180000Y16510000D01*
X-38060000Y7790000D02*
X-36180000Y9670000D01*
X-38060000Y3925000D02*
X-38060000Y7790000D01*
X-38060000Y3925000D02*
X-38060000Y-24525000D01*
D21*
X-35318700Y17901680D02*
X-35318700Y13213260D01*
X-35946260Y12585700D01*
X-36443740Y12585700D01*
X-37071300Y13213260D01*
X-37071300Y17901799D01*
X-36709679Y18269300D01*
X-35692202Y18269300D01*
X-35318700Y17901680D01*
G04 #@! TA.AperFunction,Conductor*
D22*
G36*
X-35318700Y17901680D02*
G01*
X-35318700Y13213260D01*
X-35946260Y12585700D01*
X-36443740Y12585700D01*
X-37071300Y13213260D01*
X-37071300Y17901799D01*
X-36709679Y18269300D01*
X-35692202Y18269300D01*
X-35318700Y17901680D01*
G37*
G04 #@! TD.AperFunction*
D21*
X30737300Y18044745D02*
X30737300Y13405265D01*
X29944740Y12612705D01*
X29755265Y12612705D01*
X28962705Y13405260D01*
X28962706Y18044745D01*
X29330260Y18412305D01*
X30369740Y18412305D01*
X30737300Y18044745D01*
G04 #@! TA.AperFunction,Conductor*
D22*
G36*
X30737300Y18044745D02*
G01*
X30737300Y13405265D01*
X29944740Y12612705D01*
X29755265Y12612705D01*
X28962705Y13405260D01*
X28962706Y18044745D01*
X29330260Y18412305D01*
X30369740Y18412305D01*
X30737300Y18044745D01*
G37*
G04 #@! TD.AperFunction*
D21*
X-30111700Y17846180D02*
X-30111700Y14256760D01*
X-32136260Y12232200D01*
X-32633740Y12232200D01*
X-34658300Y14256760D01*
X-34658300Y17901740D01*
X-34221240Y18338800D01*
X-30612202Y18338800D01*
X-30111700Y17846180D01*
G04 #@! TA.AperFunction,Conductor*
D22*
G36*
X-30111700Y17846180D02*
G01*
X-30111700Y14256760D01*
X-32136260Y12232200D01*
X-32633740Y12232200D01*
X-34658300Y14256760D01*
X-34658300Y17901740D01*
X-34221240Y18338800D01*
X-30612202Y18338800D01*
X-30111700Y17846180D01*
G37*
G04 #@! TD.AperFunction*
D21*
X-25031700Y17846180D02*
X-25031700Y14256760D01*
X-27056260Y12232200D01*
X-27553740Y12232200D01*
X-29578300Y14256760D01*
X-29578300Y17965240D01*
X-29204740Y18338800D01*
X-25532202Y18338800D01*
X-25031700Y17846180D01*
G04 #@! TA.AperFunction,Conductor*
D22*
G36*
X-25031700Y17846180D02*
G01*
X-25031700Y14256760D01*
X-27056260Y12232200D01*
X-27553740Y12232200D01*
X-29578300Y14256760D01*
X-29578300Y17965240D01*
X-29204740Y18338800D01*
X-25532202Y18338800D01*
X-25031700Y17846180D01*
G37*
G04 #@! TD.AperFunction*
M02*
