G04 #@! TF.GenerationSoftware,KiCad,Pcbnew,(5.1.12)-1*
G04 #@! TF.CreationDate,2022-12-23T18:04:56+01:00*
G04 #@! TF.ProjectId,USS-Module_V1c,5553532d-4d6f-4647-956c-655f5631632e,rev?*
G04 #@! TF.SameCoordinates,PX8f0d180PY5f5e100*
G04 #@! TF.FileFunction,Paste,Top*
G04 #@! TF.FilePolarity,Positive*
%FSLAX46Y46*%
G04 Gerber Fmt 4.6, Leading zero omitted, Abs format (unit mm)*
G04 Created by KiCad (PCBNEW (5.1.12)-1) date 2022-12-23 18:04:56*
%MOMM*%
%LPD*%
G01*
G04 APERTURE LIST*
%ADD10C,1.000000*%
%ADD11R,1.320000X1.300000*%
%ADD12R,1.400000X0.300000*%
%ADD13R,2.500000X2.000000*%
G04 APERTURE END LIST*
D10*
X-26686281Y-34150324D02*
G75*
G02*
X-28700000Y-36200000I-2813719J750324D01*
G01*
X-30250324Y-36213719D02*
G75*
G02*
X-32300000Y-34200000I750324J2813719D01*
G01*
X-32313719Y-32649676D02*
G75*
G02*
X-30300000Y-30600000I2813719J-750324D01*
G01*
X-28749676Y-30586281D02*
G75*
G02*
X-26700000Y-32600000I-750324J-2813719D01*
G01*
X-26686281Y-150324D02*
G75*
G02*
X-28700000Y-2200000I-2813719J750324D01*
G01*
X-30250324Y-2213719D02*
G75*
G02*
X-32300000Y-200000I750324J2813719D01*
G01*
X-32313719Y1350324D02*
G75*
G02*
X-30300000Y3400000I2813719J-750324D01*
G01*
X-28749676Y3413719D02*
G75*
G02*
X-26700000Y1400000I-750324J-2813719D01*
G01*
X32313719Y-150324D02*
G75*
G02*
X30300000Y-2200000I-2813719J750324D01*
G01*
X28749676Y-2213719D02*
G75*
G02*
X26700000Y-200000I750324J2813719D01*
G01*
X26686281Y1350324D02*
G75*
G02*
X28700000Y3400000I2813719J-750324D01*
G01*
X30250324Y3413719D02*
G75*
G02*
X32300000Y1400000I-750324J-2813719D01*
G01*
X32320629Y-34150324D02*
G75*
G02*
X30306910Y-36200000I-2813719J750324D01*
G01*
X28756586Y-36213719D02*
G75*
G02*
X26706910Y-34200000I750324J2813719D01*
G01*
X26693191Y-32649676D02*
G75*
G02*
X28706910Y-30600000I2813719J-750324D01*
G01*
X30257234Y-30586281D02*
G75*
G02*
X32306910Y-32600000I-750324J-2813719D01*
G01*
D11*
X-19440000Y-24850000D03*
D12*
X-19320000Y-20150000D03*
X-19320000Y-20650000D03*
X-19320000Y-16150000D03*
X-19320000Y-21650000D03*
X-19320000Y-21150000D03*
X-19320000Y-22650000D03*
X-19320000Y-22150000D03*
X-19320000Y-17650000D03*
D11*
X-24560000Y-7950000D03*
D12*
X-19320000Y-23650000D03*
X-19320000Y-18650000D03*
D11*
X-24560000Y-24850000D03*
D12*
X-19320000Y-23150000D03*
X-19320000Y-14650000D03*
X-19320000Y-16650000D03*
D11*
X-19440000Y-7950000D03*
D12*
X-19320000Y-18150000D03*
X-19320000Y-15150000D03*
X-19320000Y-17150000D03*
X-19320000Y-15650000D03*
X-19320000Y-19150000D03*
X-19320000Y-19650000D03*
X-19320000Y-14150000D03*
X-19320000Y-13650000D03*
X-19320000Y-13150000D03*
X-19320000Y-10650000D03*
X-19320000Y-12650000D03*
X-19320000Y-12150000D03*
X-19320000Y-11650000D03*
X-19320000Y-11150000D03*
X-19320000Y-10150000D03*
X-19320000Y-9650000D03*
X-19320000Y-9150000D03*
X-24680000Y-18650000D03*
X-24680000Y-16650000D03*
X-24680000Y-17650000D03*
X-24680000Y-19150000D03*
X-24680000Y-17150000D03*
X-24680000Y-18150000D03*
X-24680000Y-19650000D03*
X-24680000Y-23150000D03*
X-24680000Y-20150000D03*
X-24680000Y-20650000D03*
X-24680000Y-21150000D03*
X-24680000Y-21650000D03*
X-24680000Y-22150000D03*
X-24680000Y-22650000D03*
X-24680000Y-23650000D03*
X-24680000Y-16150000D03*
X-24680000Y-15150000D03*
X-24680000Y-14150000D03*
X-24680000Y-13150000D03*
X-24680000Y-15650000D03*
X-24680000Y-14650000D03*
X-24680000Y-13650000D03*
X-24680000Y-10150000D03*
X-24680000Y-9650000D03*
X-24680000Y-9150000D03*
X-24680000Y-12150000D03*
X-24680000Y-11150000D03*
X-24680000Y-10650000D03*
X-24680000Y-11650000D03*
X-24680000Y-12650000D03*
D13*
X-36165000Y36700000D03*
X-36165000Y32700000D03*
M02*
