M48
; DRILL file {KiCad (5.1.12)-1} date 12/23/22 18:04:58
; FORMAT={-:-/ absolute / metric / decimal}
; #@! TF.CreationDate,2022-12-23T18:04:58+01:00
; #@! TF.GenerationSoftware,Kicad,Pcbnew,(5.1.12)-1
; #@! TF.FileFunction,Plated,1,4,PTH
FMAT,2
METRIC
T1C0.300
T2C0.400
T3C1.000
T4C3.200
T5C4.400
%
G90
G05
T1
X-37.065Y31.3
X-36.465Y31.3
X-35.865Y31.3
X-35.265Y31.3
X-29.957Y-21.09
X-27.95Y-18.675
X-27.917Y-19.925
X-26.688Y-14.52
X-26.682Y-12.852
X-26.589Y-18.095
X-26.516Y-12.069
X-26.509Y-15.833
X-26.4Y-13.6
X-26.35Y-20.465
X-26.154Y-15.115
X-25.88Y-11.444
X-25.861Y-16.365
X-18.117Y-21.314
X-18.0Y-18.0
X-18.0Y-9.0
X-17.925Y-12.0
X-17.596Y-16.599
X-17.3Y-20.775
X-16.941Y-18.1
X-16.735Y-19.505
X-16.6Y-9.0
X-16.346Y-18.725
X-16.236Y-20.13
X-14.8Y-9.0
X-13.55Y-16.275
X-12.811Y-15.6
X-12.025Y-14.975
X-11.35Y-14.35
X-10.6Y-13.8
X-9.695Y-13.38
X-8.665Y-12.985
X-7.05Y-12.4
X-4.8Y-7.35
X-4.175Y-6.65
X-3.65Y-5.925
X-3.109Y-5.287
X-2.625Y-4.65
X-2.125Y-3.975
X-0.45Y-7.4
X2.996Y-8.996
X3.5Y-6.55
X4.8Y-9.0
X5.975Y-5.9
X8.425Y-5.374
X8.6Y-9.0
X10.417Y-11.017
X12.0Y-11.0
X12.6Y-9.0
X13.5Y-4.625
X14.0Y-9.0
X14.0Y-11.0
X15.65Y-3.975
X16.0Y-9.0
X16.0Y-11.0
X18.0Y-9.0
X18.0Y-11.0
X20.0Y-9.0
X20.0Y-11.0
X21.15Y-8.0
X21.2Y0.0
X21.2Y-2.0
X21.2Y-4.0
X21.2Y-6.0
X21.6Y-11.0
X21.835Y6.0
X22.4Y-10.2
X22.85Y7.0
X23.0Y-7.0
X23.0Y-8.0
X23.2Y-9.4
X23.8Y1.4
X23.8Y0.0
X23.8Y-2.0
X23.8Y-4.0
X23.8Y-6.0
X23.8Y-8.0
X23.85Y8.0
X24.677Y5.958
X24.85Y9.0
X25.692Y6.958
X25.85Y10.0
X26.692Y7.958
X26.85Y11.0
X27.692Y8.958
X27.85Y12.0
X28.65Y12.8
X28.692Y9.958
X29.892Y11.158
X30.05Y19.0
X31.85Y19.0
X31.85Y11.2
X32.85Y12.2
X33.65Y19.0
X33.95Y13.1
X35.45Y19.0
X35.45Y13.2
X37.05Y19.0
X37.05Y13.2
T2
X-32.2Y-3.9
X-32.2Y-6.4
X-32.2Y-8.9
X-32.2Y-11.4
X-32.2Y-13.9
X-32.2Y-16.4
X-32.2Y-18.9
X-32.2Y-21.4
X-32.2Y-23.9
X-32.2Y-26.4
X-32.2Y-28.9
X-27.25Y-23.825
X-26.55Y-23.825
X-25.85Y-23.825
X-25.0Y-36.1
X-25.0Y3.3
X-22.75Y-21.9
X-22.75Y-22.9
X-22.5Y-36.1
X-22.5Y3.3
X-22.0Y-12.375
X-22.0Y-16.4
X-22.0Y-18.4
X-22.0Y-20.925
X-22.0Y-21.9
X-22.0Y-22.9
X-21.25Y-21.9
X-21.25Y-22.9
X-20.0Y-36.1
X-20.0Y3.3
X-18.0Y-10.85
X-17.5Y3.3
X-17.5Y-36.1
X-17.3Y-10.85
X-16.6Y-10.85
X-15.25Y3.3
X-15.0Y-36.1
X-12.75Y-3.5
X-12.5Y-36.1
X-12.5Y3.3
X-12.5Y-2.0
X-10.0Y-36.1
X-10.0Y3.3
X-7.5Y-36.1
X-7.5Y3.3
X-5.0Y-36.1
X-5.0Y3.3
X-2.5Y-36.1
X-2.5Y3.3
X-0.0Y-36.1
X0.0Y3.3
X2.5Y3.3
X2.5Y-36.1
X5.0Y3.3
X5.0Y-36.1
X7.5Y3.3
X7.5Y-36.1
X10.0Y-36.1
X10.0Y3.3
X12.5Y-36.1
X12.5Y3.3
X15.0Y-36.1
X15.0Y3.3
X17.5Y-36.1
X17.5Y3.3
X20.0Y-36.1
X20.025Y3.3
X22.5Y-36.1
X25.0Y-36.1
X25.0Y3.3
X32.2Y-3.9
X32.2Y-6.4
X32.2Y-8.9
X32.2Y-11.4
X32.2Y-13.9
X32.2Y-16.4
X32.2Y-18.9
X32.2Y-21.4
X32.2Y-23.9
X32.2Y-26.4
X32.2Y-28.9
T3
X-40.865Y25.5
X-40.865Y22.96
X-36.865Y25.5
X-36.865Y22.96
X-36.195Y17.293
X-36.195Y14.753
X-33.655Y17.293
X-33.655Y14.753
X-31.115Y42.865
X-31.115Y40.325
X-31.115Y37.785
X-31.115Y35.245
X-31.115Y30.94
X-31.115Y28.4
X-31.115Y25.86
X-31.115Y23.32
X-31.115Y17.293
X-31.115Y14.753
X-28.575Y42.865
X-28.575Y40.325
X-28.575Y37.785
X-28.575Y35.245
X-28.575Y30.94
X-28.575Y28.4
X-28.575Y25.86
X-28.575Y23.32
X-28.575Y17.293
X-28.575Y14.753
X-26.035Y42.865
X-26.035Y40.325
X-26.035Y37.785
X-26.035Y35.245
X-26.035Y30.94
X-26.035Y28.4
X-26.035Y25.86
X-26.035Y23.32
X-26.035Y17.293
X-26.035Y14.753
X-23.495Y42.865
X-23.495Y40.325
X-23.495Y37.785
X-23.495Y35.245
X-23.495Y30.94
X-23.495Y28.4
X-23.495Y25.86
X-23.495Y23.32
X-23.495Y17.293
X-23.495Y14.753
X-20.955Y42.865
X-20.955Y40.325
X-20.955Y37.785
X-20.955Y35.245
X-20.955Y30.94
X-20.955Y28.4
X-20.955Y25.86
X-20.955Y23.32
X-20.955Y17.293
X-20.955Y14.753
X-18.415Y42.865
X-18.415Y40.325
X-18.415Y37.785
X-18.415Y35.245
X-18.415Y30.94
X-18.415Y28.4
X-18.415Y25.86
X-18.415Y23.32
X-18.415Y17.293
X-18.415Y14.753
X-15.875Y42.865
X-15.875Y40.325
X-15.875Y37.785
X-15.875Y35.245
X-15.875Y30.94
X-15.875Y28.4
X-15.875Y25.86
X-15.875Y23.32
X-15.875Y17.293
X-15.875Y14.753
X-13.335Y42.865
X-13.335Y40.325
X-13.335Y37.785
X-13.335Y35.245
X-13.335Y30.94
X-13.335Y28.4
X-13.335Y25.86
X-13.335Y23.32
X-13.335Y17.293
X-13.335Y14.753
X-10.795Y42.865
X-10.795Y40.325
X-10.795Y37.785
X-10.795Y35.245
X-10.795Y30.94
X-10.795Y28.4
X-10.795Y25.86
X-10.795Y23.32
X-10.795Y17.293
X-10.795Y14.753
X-8.255Y42.865
X-8.255Y40.325
X-8.255Y37.785
X-8.255Y35.245
X-8.255Y30.94
X-8.255Y28.4
X-8.255Y25.86
X-8.255Y23.32
X-8.255Y17.293
X-8.255Y14.753
X-5.715Y42.865
X-5.715Y40.325
X-5.715Y37.785
X-5.715Y35.245
X-5.715Y30.94
X-5.715Y28.4
X-5.715Y25.86
X-5.715Y23.32
X-5.715Y17.293
X-5.715Y14.753
X-3.175Y42.865
X-3.175Y40.325
X-3.175Y37.785
X-3.175Y35.245
X-3.175Y30.94
X-3.175Y28.4
X-3.175Y25.86
X-3.175Y23.32
X-3.175Y17.293
X-3.175Y14.753
X-0.635Y42.865
X-0.635Y40.325
X-0.635Y37.785
X-0.635Y35.245
X-0.635Y30.94
X-0.635Y28.4
X-0.635Y25.86
X-0.635Y23.32
X-0.635Y17.293
X-0.635Y14.753
X1.905Y42.865
X1.905Y40.325
X1.905Y37.785
X1.905Y35.245
X1.905Y30.94
X1.905Y28.4
X1.905Y25.86
X1.905Y23.32
X1.905Y17.293
X1.905Y14.753
X4.445Y42.865
X4.445Y40.325
X4.445Y37.785
X4.445Y35.245
X4.445Y30.94
X4.445Y28.4
X4.445Y25.86
X4.445Y23.32
X4.445Y17.293
X4.445Y14.753
X6.985Y42.865
X6.985Y40.325
X6.985Y37.785
X6.985Y35.245
X6.985Y30.94
X6.985Y28.4
X6.985Y25.86
X6.985Y23.32
X6.985Y17.293
X6.985Y14.753
X9.525Y42.865
X9.525Y40.325
X9.525Y37.785
X9.525Y35.245
X9.525Y30.94
X9.525Y28.4
X9.525Y25.86
X9.525Y23.32
X9.525Y17.293
X9.525Y14.753
X12.065Y42.865
X12.065Y40.325
X12.065Y37.785
X12.065Y35.245
X12.065Y30.94
X12.065Y28.4
X12.065Y25.86
X12.065Y23.32
X12.065Y17.293
X12.065Y14.753
X14.605Y42.865
X14.605Y40.325
X14.605Y37.785
X14.605Y35.245
X14.605Y30.94
X14.605Y28.4
X14.605Y25.86
X14.605Y23.32
X14.605Y17.293
X14.605Y14.753
X17.145Y42.865
X17.145Y40.325
X17.145Y37.785
X17.145Y35.245
X17.145Y30.94
X17.145Y28.4
X17.145Y25.86
X17.145Y23.32
X17.145Y17.293
X17.145Y14.753
X19.685Y42.865
X19.685Y40.325
X19.685Y37.785
X19.685Y35.245
X19.685Y30.94
X19.685Y28.4
X19.685Y25.86
X19.685Y23.32
X19.685Y17.293
X19.685Y14.753
X22.225Y42.865
X22.225Y40.325
X22.225Y37.785
X22.225Y35.245
X22.225Y30.94
X22.225Y28.4
X22.225Y25.86
X22.225Y23.32
X22.225Y17.293
X22.225Y14.753
X24.765Y42.865
X24.765Y40.325
X24.765Y37.785
X24.765Y35.245
X24.765Y30.94
X24.765Y28.4
X24.765Y25.86
X24.765Y23.32
X24.765Y17.293
X24.765Y14.753
X27.305Y42.865
X27.305Y40.325
X27.305Y37.785
X27.305Y35.245
X27.305Y30.94
X27.305Y28.4
X27.305Y25.86
X27.305Y23.32
X27.305Y17.293
X27.305Y14.753
X29.845Y42.865
X29.845Y40.325
X29.845Y37.785
X29.845Y35.245
X29.845Y30.94
X29.845Y28.4
X29.845Y25.86
X29.845Y23.32
X29.845Y17.293
X29.845Y14.753
X32.385Y42.865
X32.385Y40.325
X32.385Y37.785
X32.385Y35.245
X32.385Y30.94
X32.385Y28.4
X32.385Y25.86
X32.385Y23.32
X32.385Y17.293
X32.385Y14.753
X34.925Y17.293
X34.925Y14.753
X37.465Y17.293
X37.465Y14.753
X38.135Y25.5
X38.135Y22.96
T4
X-40.005Y-42.865
X-36.195Y42.865
X37.465Y42.865
X40.005Y-42.865
T5
X-29.5Y0.6
X-29.5Y-33.4
X29.5Y0.6
X29.5Y-33.4
T0
M30
