G04 #@! TF.GenerationSoftware,KiCad,Pcbnew,(5.1.12)-1*
G04 #@! TF.CreationDate,2022-12-23T18:04:56+01:00*
G04 #@! TF.ProjectId,USS-Module_V1c,5553532d-4d6f-4647-956c-655f5631632e,rev?*
G04 #@! TF.SameCoordinates,PX8f0d180PY5f5e100*
G04 #@! TF.FileFunction,Soldermask,Top*
G04 #@! TF.FilePolarity,Negative*
%FSLAX46Y46*%
G04 Gerber Fmt 4.6, Leading zero omitted, Abs format (unit mm)*
G04 Created by KiCad (PCBNEW (5.1.12)-1) date 2022-12-23 18:04:56*
%MOMM*%
%LPD*%
G01*
G04 APERTURE LIST*
%ADD10C,0.250000*%
%ADD11C,0.200000*%
%ADD12C,5.600000*%
%ADD13R,1.320000X1.300000*%
%ADD14R,1.400000X0.300000*%
%ADD15C,0.850000*%
%ADD16O,1.400000X2.000000*%
%ADD17R,1.400000X2.000000*%
%ADD18C,7.400000*%
%ADD19O,1.700000X1.700000*%
%ADD20R,1.700000X1.700000*%
%ADD21R,2.500000X2.000000*%
%ADD22C,0.254000*%
%ADD23C,0.100000*%
G04 APERTURE END LIST*
D10*
X-38238096Y-31785714D02*
X-38000000Y-32452380D01*
X-37761905Y-31785714D02*
X-38000000Y-32452380D01*
X-38095239Y-32690476D01*
X-38142858Y-32738095D01*
X-38238096Y-32785714D01*
X-38261905Y-29785714D02*
X-37738096Y-29785714D01*
X-38261905Y-30452380D01*
X-37738096Y-30452380D01*
X-40511905Y-30452380D02*
X-39988096Y-29785714D01*
X-40511905Y-29785714D02*
X-39988096Y-30452380D01*
X-37000000Y-29600000D02*
X-37000000Y-32500000D01*
X-40500000Y-29000000D02*
X-40000000Y-28750000D01*
X-37600000Y-29000000D02*
X-40500000Y-29000000D01*
X-37000000Y-29000000D02*
X-37000000Y-29000000D01*
X-40500000Y-29000000D02*
X-40000000Y-29250000D01*
D11*
X-36500000Y-29000000D02*
G75*
G03*
X-36500000Y-29000000I-500000J0D01*
G01*
D10*
X-37000000Y-32500000D02*
X-37250000Y-32000000D01*
X-36750000Y-32000000D02*
X-37000000Y-32500000D01*
D12*
X-36195000Y42865000D03*
D13*
X-19440000Y-24850000D03*
D14*
X-19320000Y-20150000D03*
X-19320000Y-20650000D03*
X-19320000Y-16150000D03*
X-19320000Y-21650000D03*
X-19320000Y-21150000D03*
X-19320000Y-22650000D03*
X-19320000Y-22150000D03*
X-19320000Y-17650000D03*
D13*
X-24560000Y-7950000D03*
D14*
X-19320000Y-23650000D03*
X-19320000Y-18650000D03*
D13*
X-24560000Y-24850000D03*
D14*
X-19320000Y-23150000D03*
X-19320000Y-14650000D03*
X-19320000Y-16650000D03*
D13*
X-19440000Y-7950000D03*
D14*
X-19320000Y-18150000D03*
X-19320000Y-15150000D03*
X-19320000Y-17150000D03*
X-19320000Y-15650000D03*
X-19320000Y-19150000D03*
X-19320000Y-19650000D03*
X-19320000Y-14150000D03*
X-19320000Y-13650000D03*
X-19320000Y-13150000D03*
X-19320000Y-10650000D03*
X-19320000Y-12650000D03*
X-19320000Y-12150000D03*
X-19320000Y-11650000D03*
X-19320000Y-11150000D03*
X-19320000Y-10150000D03*
X-19320000Y-9650000D03*
X-19320000Y-9150000D03*
X-24680000Y-18650000D03*
X-24680000Y-16650000D03*
X-24680000Y-17650000D03*
X-24680000Y-19150000D03*
X-24680000Y-17150000D03*
X-24680000Y-18150000D03*
X-24680000Y-19650000D03*
X-24680000Y-23150000D03*
X-24680000Y-20150000D03*
X-24680000Y-20650000D03*
X-24680000Y-21150000D03*
X-24680000Y-21650000D03*
X-24680000Y-22150000D03*
X-24680000Y-22650000D03*
X-24680000Y-23650000D03*
X-24680000Y-16150000D03*
X-24680000Y-15150000D03*
X-24680000Y-14150000D03*
X-24680000Y-13150000D03*
X-24680000Y-15650000D03*
X-24680000Y-14650000D03*
X-24680000Y-13650000D03*
D15*
X-22000000Y-8200000D03*
D14*
X-24680000Y-10150000D03*
X-24680000Y-9650000D03*
D15*
X-22000000Y-24600000D03*
D14*
X-24680000Y-9150000D03*
X-24680000Y-12150000D03*
X-24680000Y-11150000D03*
X-24680000Y-10650000D03*
X-24680000Y-11650000D03*
X-24680000Y-12650000D03*
D12*
X37465000Y42865000D03*
X-40005000Y-42865000D03*
X40005000Y-42865000D03*
D16*
X-5715000Y37785000D03*
X-5715000Y35245000D03*
X-8255000Y35245000D03*
X-8255000Y37785000D03*
X14605000Y35245000D03*
X4445000Y37785000D03*
X4445000Y35245000D03*
X6985000Y37785000D03*
X6985000Y35245000D03*
X9525000Y37785000D03*
X9525000Y35245000D03*
X22225000Y37785000D03*
X22225000Y35245000D03*
X19685000Y37785000D03*
X19685000Y35245000D03*
X12065000Y37785000D03*
X12065000Y35245000D03*
X27305000Y37785000D03*
X27305000Y35245000D03*
X24765000Y37785000D03*
X24765000Y35245000D03*
X32385000Y37785000D03*
X32385000Y35245000D03*
X29845000Y37785000D03*
X29845000Y35245000D03*
X-635000Y37785000D03*
X-635000Y35245000D03*
X-3175000Y37785000D03*
X-3175000Y35245000D03*
X1905000Y37785000D03*
X1905000Y35245000D03*
X17145000Y37785000D03*
X17145000Y35245000D03*
X14605000Y37785000D03*
X-10795000Y37785000D03*
X-10795000Y35245000D03*
X-13335000Y37785000D03*
X-13335000Y35245000D03*
X-15875000Y37785000D03*
X-15875000Y35245000D03*
X-18415000Y37785000D03*
X-18415000Y35245000D03*
X-20955000Y37785000D03*
X-20955000Y35245000D03*
X-23495000Y37785000D03*
X-23495000Y35245000D03*
X-26035000Y37785000D03*
X-26035000Y35245000D03*
X-28575000Y37785000D03*
X-28575000Y35245000D03*
X-31115000Y37785000D03*
D17*
X-31115000Y35245000D03*
D16*
X-5715000Y42865000D03*
X-5715000Y40325000D03*
X-8255000Y40325000D03*
X-8255000Y42865000D03*
X14605000Y40325000D03*
X4445000Y42865000D03*
X4445000Y40325000D03*
X6985000Y42865000D03*
X6985000Y40325000D03*
X9525000Y42865000D03*
X9525000Y40325000D03*
X22225000Y42865000D03*
X22225000Y40325000D03*
X19685000Y42865000D03*
X19685000Y40325000D03*
X12065000Y42865000D03*
X12065000Y40325000D03*
X27305000Y42865000D03*
X27305000Y40325000D03*
X24765000Y42865000D03*
X24765000Y40325000D03*
X32385000Y42865000D03*
X32385000Y40325000D03*
X29845000Y42865000D03*
X29845000Y40325000D03*
X-635000Y42865000D03*
X-635000Y40325000D03*
X-3175000Y42865000D03*
X-3175000Y40325000D03*
X1905000Y42865000D03*
X1905000Y40325000D03*
X17145000Y42865000D03*
X17145000Y40325000D03*
X14605000Y42865000D03*
X-10795000Y42865000D03*
X-10795000Y40325000D03*
X-13335000Y42865000D03*
X-13335000Y40325000D03*
X-15875000Y42865000D03*
X-15875000Y40325000D03*
X-18415000Y42865000D03*
X-18415000Y40325000D03*
X-20955000Y42865000D03*
X-20955000Y40325000D03*
X-23495000Y42865000D03*
X-23495000Y40325000D03*
X-26035000Y42865000D03*
X-26035000Y40325000D03*
X-28575000Y42865000D03*
X-28575000Y40325000D03*
X-31115000Y42865000D03*
D17*
X-31115000Y40325000D03*
D16*
X-5715000Y25860000D03*
X-5715000Y23320000D03*
X-8255000Y23320000D03*
X-8255000Y25860000D03*
X14605000Y23320000D03*
X4445000Y25860000D03*
X4445000Y23320000D03*
X6985000Y25860000D03*
X6985000Y23320000D03*
X9525000Y25860000D03*
X9525000Y23320000D03*
X22225000Y25860000D03*
X22225000Y23320000D03*
X19685000Y25860000D03*
X19685000Y23320000D03*
X12065000Y25860000D03*
X12065000Y23320000D03*
X27305000Y25860000D03*
X27305000Y23320000D03*
X24765000Y25860000D03*
X24765000Y23320000D03*
X32385000Y25860000D03*
X32385000Y23320000D03*
X29845000Y25860000D03*
X29845000Y23320000D03*
X-635000Y25860000D03*
X-635000Y23320000D03*
X-3175000Y25860000D03*
X-3175000Y23320000D03*
X1905000Y25860000D03*
X1905000Y23320000D03*
X17145000Y25860000D03*
X17145000Y23320000D03*
X14605000Y25860000D03*
X-10795000Y25860000D03*
X-10795000Y23320000D03*
X-13335000Y25860000D03*
X-13335000Y23320000D03*
X-15875000Y25860000D03*
X-15875000Y23320000D03*
X-18415000Y25860000D03*
X-18415000Y23320000D03*
X-20955000Y25860000D03*
X-20955000Y23320000D03*
X-23495000Y25860000D03*
X-23495000Y23320000D03*
X-26035000Y25860000D03*
X-26035000Y23320000D03*
X-28575000Y25860000D03*
X-28575000Y23320000D03*
X-31115000Y25860000D03*
D17*
X-31115000Y23320000D03*
D16*
X-5715000Y30940000D03*
X-5715000Y28400000D03*
X-8255000Y28400000D03*
X-8255000Y30940000D03*
X14605000Y28400000D03*
X4445000Y30940000D03*
X4445000Y28400000D03*
X6985000Y30940000D03*
X6985000Y28400000D03*
X9525000Y30940000D03*
X9525000Y28400000D03*
X22225000Y30940000D03*
X22225000Y28400000D03*
X19685000Y30940000D03*
X19685000Y28400000D03*
X12065000Y30940000D03*
X12065000Y28400000D03*
X27305000Y30940000D03*
X27305000Y28400000D03*
X24765000Y30940000D03*
X24765000Y28400000D03*
X32385000Y30940000D03*
X32385000Y28400000D03*
X29845000Y30940000D03*
X29845000Y28400000D03*
X-635000Y30940000D03*
X-635000Y28400000D03*
X-3175000Y30940000D03*
X-3175000Y28400000D03*
X1905000Y30940000D03*
X1905000Y28400000D03*
X17145000Y30940000D03*
X17145000Y28400000D03*
X14605000Y30940000D03*
X-10795000Y30940000D03*
X-10795000Y28400000D03*
X-13335000Y30940000D03*
X-13335000Y28400000D03*
X-15875000Y30940000D03*
X-15875000Y28400000D03*
X-18415000Y30940000D03*
X-18415000Y28400000D03*
X-20955000Y30940000D03*
X-20955000Y28400000D03*
X-23495000Y30940000D03*
X-23495000Y28400000D03*
X-26035000Y30940000D03*
X-26035000Y28400000D03*
X-28575000Y30940000D03*
X-28575000Y28400000D03*
X-31115000Y30940000D03*
D17*
X-31115000Y28400000D03*
D18*
X-29500000Y-33400000D03*
X-29500000Y600000D03*
X29500000Y600000D03*
X29500000Y-33400000D03*
D19*
X37465000Y17293000D03*
X37465000Y14753000D03*
X34925000Y17293000D03*
X34925000Y14753000D03*
X32385000Y17293000D03*
X32385000Y14753000D03*
X29845000Y17293000D03*
X29845000Y14753000D03*
X27305000Y17293000D03*
X27305000Y14753000D03*
X24765000Y17293000D03*
X24765000Y14753000D03*
X22225000Y17293000D03*
X22225000Y14753000D03*
X19685000Y17293000D03*
X19685000Y14753000D03*
X17145000Y17293000D03*
X17145000Y14753000D03*
X14605000Y17293000D03*
X14605000Y14753000D03*
X12065000Y17293000D03*
X12065000Y14753000D03*
X9525000Y17293000D03*
X9525000Y14753000D03*
X6985000Y17293000D03*
X6985000Y14753000D03*
X4445000Y17293000D03*
X4445000Y14753000D03*
X1905000Y17293000D03*
X1905000Y14753000D03*
X-635000Y17293000D03*
X-635000Y14753000D03*
X-3175000Y17293000D03*
X-3175000Y14753000D03*
X-5715000Y17293000D03*
X-5715000Y14753000D03*
X-8255000Y17293000D03*
X-8255000Y14753000D03*
X-10795000Y17293000D03*
X-10795000Y14753000D03*
X-13335000Y17293000D03*
X-13335000Y14753000D03*
X-15875000Y17293000D03*
X-15875000Y14753000D03*
X-18415000Y17293000D03*
X-18415000Y14753000D03*
X-20955000Y17293000D03*
X-20955000Y14753000D03*
X-23495000Y17293000D03*
X-23495000Y14753000D03*
X-26035000Y17293000D03*
X-26035000Y14753000D03*
X-28575000Y17293000D03*
X-28575000Y14753000D03*
X-31115000Y17293000D03*
X-31115000Y14753000D03*
X-33655000Y17293000D03*
X-33655000Y14753000D03*
X-36195000Y17293000D03*
D20*
X-36195000Y14753000D03*
X38135000Y25500000D03*
D19*
X38135000Y22960000D03*
D20*
X-40865000Y25500000D03*
D19*
X-40865000Y22960000D03*
D20*
X-36865000Y25500000D03*
D19*
X-36865000Y22960000D03*
D21*
X-36165000Y36700000D03*
X-36165000Y32700000D03*
D22*
X29879609Y4454198D02*
X30255548Y4398432D01*
X30624230Y4306082D01*
X30982068Y4178046D01*
X31325656Y4015541D01*
X31651635Y3820156D01*
X31956904Y3593753D01*
X32238515Y3338516D01*
X32493752Y3056905D01*
X32720155Y2751636D01*
X32915540Y2425657D01*
X33078045Y2082069D01*
X33206081Y1724231D01*
X33298431Y1355549D01*
X33354197Y979610D01*
X33372999Y596882D01*
X33372999Y-33396882D01*
X33354197Y-33779610D01*
X33298431Y-34155549D01*
X33206081Y-34524231D01*
X33078045Y-34882069D01*
X32915540Y-35225657D01*
X32720155Y-35551636D01*
X32493752Y-35856905D01*
X32238515Y-36138516D01*
X31956904Y-36393753D01*
X31651635Y-36620156D01*
X31325656Y-36815541D01*
X30982068Y-36978046D01*
X30624230Y-37106082D01*
X30255548Y-37198432D01*
X29879609Y-37254198D01*
X29496881Y-37273000D01*
X-29496881Y-37273000D01*
X-29879609Y-37254198D01*
X-30255548Y-37198432D01*
X-30624230Y-37106082D01*
X-30982068Y-36978046D01*
X-31325656Y-36815541D01*
X-31651635Y-36620156D01*
X-31956904Y-36393753D01*
X-32238515Y-36138516D01*
X-32493752Y-35856905D01*
X-32720155Y-35551636D01*
X-32915540Y-35225657D01*
X-33078045Y-34882069D01*
X-33206081Y-34524231D01*
X-33298431Y-34155549D01*
X-33354197Y-33779610D01*
X-33372999Y-33396882D01*
X-33372999Y-1900000D01*
X-31126998Y-1900000D01*
X-31126998Y-30900000D01*
X-31126845Y-30906232D01*
X-31107584Y-31298301D01*
X-31106362Y-31310704D01*
X-31048764Y-31698996D01*
X-31046333Y-31711220D01*
X-30950953Y-32091998D01*
X-30947335Y-32103924D01*
X-30815092Y-32473519D01*
X-30810323Y-32485034D01*
X-30642490Y-32839887D01*
X-30636614Y-32850878D01*
X-30434807Y-33187572D01*
X-30427883Y-33197935D01*
X-30194047Y-33513227D01*
X-30186141Y-33522861D01*
X-29922526Y-33813715D01*
X-29913713Y-33822528D01*
X-29622859Y-34086143D01*
X-29613225Y-34094049D01*
X-29297933Y-34327885D01*
X-29287570Y-34334809D01*
X-28950876Y-34536616D01*
X-28939885Y-34542492D01*
X-28585032Y-34710325D01*
X-28573517Y-34715094D01*
X-28203922Y-34847337D01*
X-28191996Y-34850955D01*
X-27811218Y-34946335D01*
X-27798994Y-34948766D01*
X-27410702Y-35006364D01*
X-27398299Y-35007586D01*
X-27006230Y-35026847D01*
X-26999998Y-35027000D01*
X26999998Y-35027000D01*
X27006230Y-35026847D01*
X27398299Y-35007586D01*
X27410702Y-35006364D01*
X27798994Y-34948766D01*
X27811218Y-34946335D01*
X28191996Y-34850955D01*
X28203922Y-34847337D01*
X28573517Y-34715094D01*
X28585032Y-34710325D01*
X28939885Y-34542492D01*
X28950876Y-34536616D01*
X29287570Y-34334809D01*
X29297933Y-34327885D01*
X29613225Y-34094049D01*
X29622859Y-34086143D01*
X29913713Y-33822528D01*
X29922526Y-33813715D01*
X30186141Y-33522861D01*
X30194047Y-33513227D01*
X30427883Y-33197935D01*
X30434807Y-33187572D01*
X30636614Y-32850878D01*
X30642490Y-32839887D01*
X30810323Y-32485034D01*
X30815092Y-32473519D01*
X30947335Y-32103924D01*
X30950953Y-32091998D01*
X31046333Y-31711220D01*
X31048764Y-31698996D01*
X31106362Y-31310704D01*
X31107584Y-31298301D01*
X31126845Y-30906232D01*
X31126998Y-30900000D01*
X31126998Y-1900000D01*
X31126845Y-1893768D01*
X31107584Y-1501699D01*
X31106362Y-1489296D01*
X31048764Y-1101004D01*
X31046333Y-1088780D01*
X30950953Y-708002D01*
X30947335Y-696076D01*
X30815092Y-326481D01*
X30810323Y-314966D01*
X30642490Y39887D01*
X30636614Y50878D01*
X30434807Y387572D01*
X30427883Y397935D01*
X30194047Y713227D01*
X30186141Y722861D01*
X29922526Y1013715D01*
X29913713Y1022528D01*
X29622859Y1286143D01*
X29613225Y1294049D01*
X29297933Y1527885D01*
X29287570Y1534809D01*
X28950876Y1736616D01*
X28939885Y1742492D01*
X28585032Y1910325D01*
X28573517Y1915094D01*
X28203922Y2047337D01*
X28191996Y2050955D01*
X27811218Y2146335D01*
X27798994Y2148766D01*
X27410702Y2206364D01*
X27398299Y2207586D01*
X27006230Y2226847D01*
X26999998Y2227000D01*
X-26999998Y2227000D01*
X-27006230Y2226847D01*
X-27398299Y2207586D01*
X-27410702Y2206364D01*
X-27798994Y2148766D01*
X-27811218Y2146335D01*
X-28191996Y2050955D01*
X-28203922Y2047337D01*
X-28573517Y1915094D01*
X-28585032Y1910325D01*
X-28939885Y1742492D01*
X-28950876Y1736616D01*
X-29287570Y1534809D01*
X-29297933Y1527885D01*
X-29613225Y1294049D01*
X-29622859Y1286143D01*
X-29913713Y1022528D01*
X-29922526Y1013715D01*
X-30186141Y722861D01*
X-30194047Y713227D01*
X-30427883Y397935D01*
X-30434807Y387572D01*
X-30636614Y50878D01*
X-30642490Y39887D01*
X-30810323Y-314966D01*
X-30815092Y-326481D01*
X-30947335Y-696076D01*
X-30950953Y-708002D01*
X-31046333Y-1088780D01*
X-31048764Y-1101004D01*
X-31106362Y-1489296D01*
X-31107584Y-1501699D01*
X-31126845Y-1893768D01*
X-31126998Y-1900000D01*
X-33372999Y-1900000D01*
X-33372999Y596882D01*
X-33354197Y979610D01*
X-33298431Y1355549D01*
X-33206081Y1724231D01*
X-33078045Y2082069D01*
X-32915540Y2425657D01*
X-32720155Y2751636D01*
X-32493752Y3056905D01*
X-32238515Y3338516D01*
X-31956904Y3593753D01*
X-31651635Y3820156D01*
X-31325656Y4015541D01*
X-30982068Y4178046D01*
X-30624230Y4306082D01*
X-30255548Y4398432D01*
X-29879609Y4454198D01*
X-29496881Y4473000D01*
X29496881Y4473000D01*
X29879609Y4454198D01*
D23*
G36*
X29879609Y4454198D02*
G01*
X30255548Y4398432D01*
X30624230Y4306082D01*
X30982068Y4178046D01*
X31325656Y4015541D01*
X31651635Y3820156D01*
X31956904Y3593753D01*
X32238515Y3338516D01*
X32493752Y3056905D01*
X32720155Y2751636D01*
X32915540Y2425657D01*
X33078045Y2082069D01*
X33206081Y1724231D01*
X33298431Y1355549D01*
X33354197Y979610D01*
X33372999Y596882D01*
X33372999Y-33396882D01*
X33354197Y-33779610D01*
X33298431Y-34155549D01*
X33206081Y-34524231D01*
X33078045Y-34882069D01*
X32915540Y-35225657D01*
X32720155Y-35551636D01*
X32493752Y-35856905D01*
X32238515Y-36138516D01*
X31956904Y-36393753D01*
X31651635Y-36620156D01*
X31325656Y-36815541D01*
X30982068Y-36978046D01*
X30624230Y-37106082D01*
X30255548Y-37198432D01*
X29879609Y-37254198D01*
X29496881Y-37273000D01*
X-29496881Y-37273000D01*
X-29879609Y-37254198D01*
X-30255548Y-37198432D01*
X-30624230Y-37106082D01*
X-30982068Y-36978046D01*
X-31325656Y-36815541D01*
X-31651635Y-36620156D01*
X-31956904Y-36393753D01*
X-32238515Y-36138516D01*
X-32493752Y-35856905D01*
X-32720155Y-35551636D01*
X-32915540Y-35225657D01*
X-33078045Y-34882069D01*
X-33206081Y-34524231D01*
X-33298431Y-34155549D01*
X-33354197Y-33779610D01*
X-33372999Y-33396882D01*
X-33372999Y-1900000D01*
X-31126998Y-1900000D01*
X-31126998Y-30900000D01*
X-31126845Y-30906232D01*
X-31107584Y-31298301D01*
X-31106362Y-31310704D01*
X-31048764Y-31698996D01*
X-31046333Y-31711220D01*
X-30950953Y-32091998D01*
X-30947335Y-32103924D01*
X-30815092Y-32473519D01*
X-30810323Y-32485034D01*
X-30642490Y-32839887D01*
X-30636614Y-32850878D01*
X-30434807Y-33187572D01*
X-30427883Y-33197935D01*
X-30194047Y-33513227D01*
X-30186141Y-33522861D01*
X-29922526Y-33813715D01*
X-29913713Y-33822528D01*
X-29622859Y-34086143D01*
X-29613225Y-34094049D01*
X-29297933Y-34327885D01*
X-29287570Y-34334809D01*
X-28950876Y-34536616D01*
X-28939885Y-34542492D01*
X-28585032Y-34710325D01*
X-28573517Y-34715094D01*
X-28203922Y-34847337D01*
X-28191996Y-34850955D01*
X-27811218Y-34946335D01*
X-27798994Y-34948766D01*
X-27410702Y-35006364D01*
X-27398299Y-35007586D01*
X-27006230Y-35026847D01*
X-26999998Y-35027000D01*
X26999998Y-35027000D01*
X27006230Y-35026847D01*
X27398299Y-35007586D01*
X27410702Y-35006364D01*
X27798994Y-34948766D01*
X27811218Y-34946335D01*
X28191996Y-34850955D01*
X28203922Y-34847337D01*
X28573517Y-34715094D01*
X28585032Y-34710325D01*
X28939885Y-34542492D01*
X28950876Y-34536616D01*
X29287570Y-34334809D01*
X29297933Y-34327885D01*
X29613225Y-34094049D01*
X29622859Y-34086143D01*
X29913713Y-33822528D01*
X29922526Y-33813715D01*
X30186141Y-33522861D01*
X30194047Y-33513227D01*
X30427883Y-33197935D01*
X30434807Y-33187572D01*
X30636614Y-32850878D01*
X30642490Y-32839887D01*
X30810323Y-32485034D01*
X30815092Y-32473519D01*
X30947335Y-32103924D01*
X30950953Y-32091998D01*
X31046333Y-31711220D01*
X31048764Y-31698996D01*
X31106362Y-31310704D01*
X31107584Y-31298301D01*
X31126845Y-30906232D01*
X31126998Y-30900000D01*
X31126998Y-1900000D01*
X31126845Y-1893768D01*
X31107584Y-1501699D01*
X31106362Y-1489296D01*
X31048764Y-1101004D01*
X31046333Y-1088780D01*
X30950953Y-708002D01*
X30947335Y-696076D01*
X30815092Y-326481D01*
X30810323Y-314966D01*
X30642490Y39887D01*
X30636614Y50878D01*
X30434807Y387572D01*
X30427883Y397935D01*
X30194047Y713227D01*
X30186141Y722861D01*
X29922526Y1013715D01*
X29913713Y1022528D01*
X29622859Y1286143D01*
X29613225Y1294049D01*
X29297933Y1527885D01*
X29287570Y1534809D01*
X28950876Y1736616D01*
X28939885Y1742492D01*
X28585032Y1910325D01*
X28573517Y1915094D01*
X28203922Y2047337D01*
X28191996Y2050955D01*
X27811218Y2146335D01*
X27798994Y2148766D01*
X27410702Y2206364D01*
X27398299Y2207586D01*
X27006230Y2226847D01*
X26999998Y2227000D01*
X-26999998Y2227000D01*
X-27006230Y2226847D01*
X-27398299Y2207586D01*
X-27410702Y2206364D01*
X-27798994Y2148766D01*
X-27811218Y2146335D01*
X-28191996Y2050955D01*
X-28203922Y2047337D01*
X-28573517Y1915094D01*
X-28585032Y1910325D01*
X-28939885Y1742492D01*
X-28950876Y1736616D01*
X-29287570Y1534809D01*
X-29297933Y1527885D01*
X-29613225Y1294049D01*
X-29622859Y1286143D01*
X-29913713Y1022528D01*
X-29922526Y1013715D01*
X-30186141Y722861D01*
X-30194047Y713227D01*
X-30427883Y397935D01*
X-30434807Y387572D01*
X-30636614Y50878D01*
X-30642490Y39887D01*
X-30810323Y-314966D01*
X-30815092Y-326481D01*
X-30947335Y-696076D01*
X-30950953Y-708002D01*
X-31046333Y-1088780D01*
X-31048764Y-1101004D01*
X-31106362Y-1489296D01*
X-31107584Y-1501699D01*
X-31126845Y-1893768D01*
X-31126998Y-1900000D01*
X-33372999Y-1900000D01*
X-33372999Y596882D01*
X-33354197Y979610D01*
X-33298431Y1355549D01*
X-33206081Y1724231D01*
X-33078045Y2082069D01*
X-32915540Y2425657D01*
X-32720155Y2751636D01*
X-32493752Y3056905D01*
X-32238515Y3338516D01*
X-31956904Y3593753D01*
X-31651635Y3820156D01*
X-31325656Y4015541D01*
X-30982068Y4178046D01*
X-30624230Y4306082D01*
X-30255548Y4398432D01*
X-29879609Y4454198D01*
X-29496881Y4473000D01*
X29496881Y4473000D01*
X29879609Y4454198D01*
G37*
M02*
