G04 #@! TF.GenerationSoftware,KiCad,Pcbnew,(5.1.10)-1*
G04 #@! TF.CreationDate,2021-12-01T13:01:06+01:00*
G04 #@! TF.ProjectId,USS-Module_V2a,5553532d-4d6f-4647-956c-655f5632612e,rev?*
G04 #@! TF.SameCoordinates,PX8f0d180PY5f5e100*
G04 #@! TF.FileFunction,Soldermask,Top*
G04 #@! TF.FilePolarity,Negative*
%FSLAX46Y46*%
G04 Gerber Fmt 4.6, Leading zero omitted, Abs format (unit mm)*
G04 Created by KiCad (PCBNEW (5.1.10)-1) date 2021-12-01 13:01:06*
%MOMM*%
%LPD*%
G01*
G04 APERTURE LIST*
%ADD10C,0.800000*%
%ADD11C,0.250000*%
%ADD12C,0.200000*%
%ADD13C,0.100000*%
%ADD14R,1.900000X1.200000*%
%ADD15O,1.900000X1.200000*%
%ADD16R,1.900000X1.500000*%
%ADD17C,1.450000*%
%ADD18R,1.350000X0.400000*%
%ADD19R,1.000000X1.400000*%
%ADD20R,1.200000X1.400000*%
%ADD21O,1.400000X2.000000*%
%ADD22R,1.400000X2.000000*%
%ADD23R,1.400000X0.300000*%
%ADD24R,1.320000X1.300000*%
%ADD25R,1.700000X1.700000*%
%ADD26O,1.700000X1.700000*%
%ADD27C,5.600000*%
%ADD28C,7.400000*%
%ADD29R,2.500000X2.000000*%
%ADD30C,0.254000*%
G04 APERTURE END LIST*
D10*
X20300000Y-29000000D02*
G75*
G03*
X20300000Y-29000000I-400000J0D01*
G01*
D11*
X-12350000Y-43800000D02*
X-12600000Y-44300000D01*
X-12600000Y-40800000D02*
X-12600000Y-40800000D01*
X-12600000Y-44300000D02*
X-12850000Y-43800000D01*
D12*
X-12100000Y-40800000D02*
G75*
G03*
X-12100000Y-40800000I-500000J0D01*
G01*
D11*
X-16100000Y-40800000D02*
X-15600000Y-41050000D01*
X-16100000Y-40800000D02*
X-15600000Y-40550000D01*
X-12600000Y-41400000D02*
X-12600000Y-44300000D01*
X-13200000Y-40800000D02*
X-16100000Y-40800000D01*
X-16111905Y-42252380D02*
X-15588096Y-41585714D01*
X-16111905Y-41585714D02*
X-15588096Y-42252380D01*
X-13861905Y-41585714D02*
X-13338096Y-41585714D01*
X-13861905Y-42252380D01*
X-13338096Y-42252380D01*
X-13838096Y-43585714D02*
X-13600000Y-44252380D01*
X-13361905Y-43585714D02*
X-13600000Y-44252380D01*
X-13695239Y-44490476D01*
X-13742858Y-44538095D01*
X-13838096Y-44585714D01*
D13*
G36*
X37150602Y7000000D02*
G01*
X37150602Y7024534D01*
X37155412Y7073365D01*
X37164984Y7121490D01*
X37179228Y7168445D01*
X37198005Y7213778D01*
X37221136Y7257051D01*
X37248396Y7297850D01*
X37279524Y7335779D01*
X37314221Y7370476D01*
X37352150Y7401604D01*
X37392949Y7428864D01*
X37436222Y7451995D01*
X37481555Y7470772D01*
X37528510Y7485016D01*
X37576635Y7494588D01*
X37625466Y7499398D01*
X37650000Y7499398D01*
X37650000Y7500000D01*
X38150000Y7500000D01*
X38150000Y7499398D01*
X38174534Y7499398D01*
X38223365Y7494588D01*
X38271490Y7485016D01*
X38318445Y7470772D01*
X38363778Y7451995D01*
X38407051Y7428864D01*
X38447850Y7401604D01*
X38485779Y7370476D01*
X38520476Y7335779D01*
X38551604Y7297850D01*
X38578864Y7257051D01*
X38601995Y7213778D01*
X38620772Y7168445D01*
X38635016Y7121490D01*
X38644588Y7073365D01*
X38649398Y7024534D01*
X38649398Y7000000D01*
X38650000Y7000000D01*
X38650000Y6500000D01*
X37150000Y6500000D01*
X37150000Y7000000D01*
X37150602Y7000000D01*
G37*
G36*
X38650000Y6200000D02*
G01*
X38650000Y5700000D01*
X38649398Y5700000D01*
X38649398Y5675466D01*
X38644588Y5626635D01*
X38635016Y5578510D01*
X38620772Y5531555D01*
X38601995Y5486222D01*
X38578864Y5442949D01*
X38551604Y5402150D01*
X38520476Y5364221D01*
X38485779Y5329524D01*
X38447850Y5298396D01*
X38407051Y5271136D01*
X38363778Y5248005D01*
X38318445Y5229228D01*
X38271490Y5214984D01*
X38223365Y5205412D01*
X38174534Y5200602D01*
X38150000Y5200602D01*
X38150000Y5200000D01*
X37650000Y5200000D01*
X37650000Y5200602D01*
X37625466Y5200602D01*
X37576635Y5205412D01*
X37528510Y5214984D01*
X37481555Y5229228D01*
X37436222Y5248005D01*
X37392949Y5271136D01*
X37352150Y5298396D01*
X37314221Y5329524D01*
X37279524Y5364221D01*
X37248396Y5402150D01*
X37221136Y5442949D01*
X37198005Y5486222D01*
X37179228Y5531555D01*
X37164984Y5578510D01*
X37155412Y5626635D01*
X37150602Y5675466D01*
X37150602Y5700000D01*
X37150000Y5700000D01*
X37150000Y6200000D01*
X38650000Y6200000D01*
G37*
D14*
X41837500Y-2700000D03*
X41837500Y3100000D03*
D15*
X41837500Y3700000D03*
X41837500Y-3300000D03*
D16*
X41837500Y-800000D03*
D17*
X39137500Y2700000D03*
D18*
X39137500Y200000D03*
X39137500Y850000D03*
X39137500Y1500000D03*
X39137500Y-1100000D03*
X39137500Y-450000D03*
D17*
X39137500Y-2300000D03*
D16*
X41837500Y1200000D03*
D19*
X36925000Y-1250000D03*
X35025000Y-1250000D03*
X35025000Y950000D03*
D20*
X36745000Y950000D03*
D21*
X11430000Y9703000D03*
X1270000Y12243000D03*
X-3810000Y12243000D03*
X-3810000Y9703000D03*
X8890000Y12243000D03*
X-6350000Y12243000D03*
X-1270000Y9703000D03*
X21590000Y9703000D03*
X8890000Y9703000D03*
X-8890000Y12243000D03*
X-8890000Y9703000D03*
X-11430000Y12243000D03*
X3810000Y9703000D03*
D22*
X-11430000Y9703000D03*
D21*
X-1270000Y12243000D03*
X6350000Y9703000D03*
X3810000Y12243000D03*
X21590000Y12243000D03*
X-6350000Y9703000D03*
X26670000Y9703000D03*
X24130000Y9703000D03*
X19050000Y9703000D03*
X24130000Y12243000D03*
X13970000Y9703000D03*
X19050000Y12243000D03*
X11430000Y12243000D03*
X26670000Y12243000D03*
X16510000Y12243000D03*
X13970000Y12243000D03*
X16510000Y9703000D03*
X6350000Y12243000D03*
X1270000Y9703000D03*
X-31750000Y14783000D03*
D22*
X-36830000Y14783000D03*
D21*
X1270000Y17323000D03*
X-34290000Y14783000D03*
X8890000Y14783000D03*
X-19050000Y17323000D03*
X26670000Y14783000D03*
X31750000Y14783000D03*
X-24130000Y14783000D03*
X-3810000Y17323000D03*
X-34290000Y17323000D03*
X1270000Y14783000D03*
X3810000Y14783000D03*
X29210000Y14783000D03*
X-1270000Y17323000D03*
X34290000Y14783000D03*
X16510000Y14783000D03*
X34290000Y17323000D03*
X13970000Y17323000D03*
X24130000Y14783000D03*
X19050000Y17323000D03*
X-6350000Y17323000D03*
X-8890000Y14783000D03*
X-19050000Y14783000D03*
X-29210000Y14783000D03*
X-13970000Y17323000D03*
X16510000Y17323000D03*
X8890000Y17323000D03*
X21590000Y14783000D03*
X11430000Y14783000D03*
X-1270000Y14783000D03*
X-16510000Y14783000D03*
X-29210000Y17323000D03*
X6350000Y17323000D03*
X6350000Y14783000D03*
X-36830000Y17323000D03*
X-16510000Y17323000D03*
X11430000Y17323000D03*
X31750000Y17323000D03*
X3810000Y17323000D03*
X36830000Y14783000D03*
X24130000Y17323000D03*
X36830000Y17323000D03*
X26670000Y17323000D03*
X-11430000Y14783000D03*
X-8890000Y17323000D03*
X19050000Y14783000D03*
X-6350000Y14783000D03*
X21590000Y17323000D03*
X-3810000Y14783000D03*
X-13970000Y14783000D03*
X13970000Y14783000D03*
X-21590000Y17323000D03*
X-21590000Y14783000D03*
X29210000Y17323000D03*
X-24130000Y17323000D03*
X-31750000Y17323000D03*
X-11430000Y17323000D03*
X-26670000Y14783000D03*
X-26670000Y17323000D03*
D23*
X-29350000Y-6750000D03*
X-29350000Y-7250000D03*
X-29350000Y-7750000D03*
X-29350000Y-8250000D03*
X-29350000Y-8750000D03*
X-29350000Y-9250000D03*
X-29350000Y-9750000D03*
X-29350000Y-10250000D03*
X-29350000Y-10750000D03*
X-29350000Y-11250000D03*
X-29350000Y-11750000D03*
X-29350000Y-12250000D03*
X-29350000Y-12750000D03*
X-29350000Y-13250000D03*
X-29350000Y-13750000D03*
X-29350000Y-14250000D03*
X-29350000Y-14750000D03*
X-29350000Y-15250000D03*
X-29350000Y-15750000D03*
X-29350000Y-16250000D03*
X-29350000Y-16750000D03*
X-29350000Y-17250000D03*
X-29350000Y-17750000D03*
X-29350000Y-18250000D03*
X-29350000Y-18750000D03*
X-29350000Y-19250000D03*
X-29350000Y-19750000D03*
X-29350000Y-20250000D03*
X-29350000Y-20750000D03*
X-29350000Y-21250000D03*
X-23650000Y-6750000D03*
X-23650000Y-7250000D03*
X-23650000Y-7750000D03*
X-23650000Y-8250000D03*
X-23650000Y-8750000D03*
X-23650000Y-9250000D03*
X-23650000Y-9750000D03*
X-23650000Y-10250000D03*
X-23650000Y-10750000D03*
X-23650000Y-11250000D03*
X-23650000Y-11750000D03*
X-23650000Y-12250000D03*
X-23650000Y-12750000D03*
X-23650000Y-13250000D03*
X-23650000Y-13750000D03*
X-23650000Y-14250000D03*
X-23650000Y-14750000D03*
X-23650000Y-15250000D03*
X-23650000Y-15750000D03*
X-23650000Y-16250000D03*
X-23650000Y-16750000D03*
X-23650000Y-17250000D03*
X-23650000Y-17750000D03*
X-23650000Y-18250000D03*
X-23650000Y-18750000D03*
X-23650000Y-19250000D03*
X-23650000Y-19750000D03*
X-23650000Y-20250000D03*
X-23650000Y-21250000D03*
X-23650000Y-20750000D03*
D24*
X-29060000Y-22450000D03*
X-23940000Y-22450000D03*
X-29060000Y-5550000D03*
X-23940000Y-5550000D03*
D25*
X32500000Y-37500000D03*
D26*
X35040000Y-37500000D03*
X32500000Y-34960000D03*
X35040000Y-34960000D03*
X32500000Y-32420000D03*
X35040000Y-32420000D03*
X32500000Y-29880000D03*
X35040000Y-29880000D03*
X32500000Y-27340000D03*
X35040000Y-27340000D03*
X32500000Y-24800000D03*
X35040000Y-24800000D03*
X32500000Y-22260000D03*
X35040000Y-22260000D03*
D23*
X13650000Y-6750000D03*
X13650000Y-7250000D03*
X13650000Y-7750000D03*
X13650000Y-8250000D03*
X13650000Y-8750000D03*
X13650000Y-9250000D03*
X13650000Y-9750000D03*
X13650000Y-10250000D03*
X13650000Y-10750000D03*
X13650000Y-11250000D03*
X13650000Y-11750000D03*
X13650000Y-12250000D03*
X13650000Y-12750000D03*
X13650000Y-13250000D03*
X13650000Y-13750000D03*
X13650000Y-14250000D03*
X13650000Y-14750000D03*
X13650000Y-15250000D03*
X13650000Y-15750000D03*
X13650000Y-16250000D03*
X13650000Y-16750000D03*
X13650000Y-17250000D03*
X13650000Y-17750000D03*
X13650000Y-18250000D03*
X13650000Y-18750000D03*
X13650000Y-19250000D03*
X13650000Y-19750000D03*
X13650000Y-20250000D03*
X13650000Y-20750000D03*
X13650000Y-21250000D03*
X19350000Y-6750000D03*
X19350000Y-7250000D03*
X19350000Y-7750000D03*
X19350000Y-8250000D03*
X19350000Y-8750000D03*
X19350000Y-9250000D03*
X19350000Y-9750000D03*
X19350000Y-10250000D03*
X19350000Y-10750000D03*
X19350000Y-11250000D03*
X19350000Y-11750000D03*
X19350000Y-12250000D03*
X19350000Y-12750000D03*
X19350000Y-13250000D03*
X19350000Y-13750000D03*
X19350000Y-14250000D03*
X19350000Y-14750000D03*
X19350000Y-15250000D03*
X19350000Y-15750000D03*
X19350000Y-16250000D03*
X19350000Y-16750000D03*
X19350000Y-17250000D03*
X19350000Y-17750000D03*
X19350000Y-18250000D03*
X19350000Y-18750000D03*
X19350000Y-19250000D03*
X19350000Y-19750000D03*
X19350000Y-20250000D03*
X19350000Y-21250000D03*
X19350000Y-20750000D03*
D24*
X13940000Y-22450000D03*
X19060000Y-22450000D03*
X13940000Y-5550000D03*
X19060000Y-5550000D03*
D27*
X36830000Y42865000D03*
X-40640000Y-42865000D03*
X39370000Y-42865000D03*
X-36830000Y42865000D03*
D21*
X-6350000Y37785000D03*
X-6350000Y35245000D03*
X-8890000Y35245000D03*
X-8890000Y37785000D03*
X13970000Y35245000D03*
X3810000Y37785000D03*
X3810000Y35245000D03*
X6350000Y37785000D03*
X6350000Y35245000D03*
X8890000Y37785000D03*
X8890000Y35245000D03*
X21590000Y37785000D03*
X21590000Y35245000D03*
X19050000Y37785000D03*
X19050000Y35245000D03*
X11430000Y37785000D03*
X11430000Y35245000D03*
X26670000Y37785000D03*
X26670000Y35245000D03*
X24130000Y37785000D03*
X24130000Y35245000D03*
X31750000Y37785000D03*
X31750000Y35245000D03*
X29210000Y37785000D03*
X29210000Y35245000D03*
X-1270000Y37785000D03*
X-1270000Y35245000D03*
X-3810000Y37785000D03*
X-3810000Y35245000D03*
X1270000Y37785000D03*
X1270000Y35245000D03*
X16510000Y37785000D03*
X16510000Y35245000D03*
X13970000Y37785000D03*
X-11430000Y37785000D03*
X-11430000Y35245000D03*
X-13970000Y37785000D03*
X-13970000Y35245000D03*
X-16510000Y37785000D03*
X-16510000Y35245000D03*
X-19050000Y37785000D03*
X-19050000Y35245000D03*
X-21590000Y37785000D03*
X-21590000Y35245000D03*
X-24130000Y37785000D03*
X-24130000Y35245000D03*
X-26670000Y37785000D03*
X-26670000Y35245000D03*
X-29210000Y37785000D03*
X-29210000Y35245000D03*
X-31750000Y37785000D03*
D22*
X-31750000Y35245000D03*
D21*
X-6350000Y42865000D03*
X-6350000Y40325000D03*
X-8890000Y40325000D03*
X-8890000Y42865000D03*
X13970000Y40325000D03*
X3810000Y42865000D03*
X3810000Y40325000D03*
X6350000Y42865000D03*
X6350000Y40325000D03*
X8890000Y42865000D03*
X8890000Y40325000D03*
X21590000Y42865000D03*
X21590000Y40325000D03*
X19050000Y42865000D03*
X19050000Y40325000D03*
X11430000Y42865000D03*
X11430000Y40325000D03*
X26670000Y42865000D03*
X26670000Y40325000D03*
X24130000Y42865000D03*
X24130000Y40325000D03*
X31750000Y42865000D03*
X31750000Y40325000D03*
X29210000Y42865000D03*
X29210000Y40325000D03*
X-1270000Y42865000D03*
X-1270000Y40325000D03*
X-3810000Y42865000D03*
X-3810000Y40325000D03*
X1270000Y42865000D03*
X1270000Y40325000D03*
X16510000Y42865000D03*
X16510000Y40325000D03*
X13970000Y42865000D03*
X-11430000Y42865000D03*
X-11430000Y40325000D03*
X-13970000Y42865000D03*
X-13970000Y40325000D03*
X-16510000Y42865000D03*
X-16510000Y40325000D03*
X-19050000Y42865000D03*
X-19050000Y40325000D03*
X-21590000Y42865000D03*
X-21590000Y40325000D03*
X-24130000Y42865000D03*
X-24130000Y40325000D03*
X-26670000Y42865000D03*
X-26670000Y40325000D03*
X-29210000Y42865000D03*
X-29210000Y40325000D03*
X-31750000Y42865000D03*
D22*
X-31750000Y40325000D03*
D21*
X-6350000Y25860000D03*
X-6350000Y23320000D03*
X-8890000Y23320000D03*
X-8890000Y25860000D03*
X13970000Y23320000D03*
X3810000Y25860000D03*
X3810000Y23320000D03*
X6350000Y25860000D03*
X6350000Y23320000D03*
X8890000Y25860000D03*
X8890000Y23320000D03*
X21590000Y25860000D03*
X21590000Y23320000D03*
X19050000Y25860000D03*
X19050000Y23320000D03*
X11430000Y25860000D03*
X11430000Y23320000D03*
X26670000Y25860000D03*
X26670000Y23320000D03*
X24130000Y25860000D03*
X24130000Y23320000D03*
X31750000Y25860000D03*
X31750000Y23320000D03*
X29210000Y25860000D03*
X29210000Y23320000D03*
X-1270000Y25860000D03*
X-1270000Y23320000D03*
X-3810000Y25860000D03*
X-3810000Y23320000D03*
X1270000Y25860000D03*
X1270000Y23320000D03*
X16510000Y25860000D03*
X16510000Y23320000D03*
X13970000Y25860000D03*
X-11430000Y25860000D03*
X-11430000Y23320000D03*
X-13970000Y25860000D03*
X-13970000Y23320000D03*
X-16510000Y25860000D03*
X-16510000Y23320000D03*
X-19050000Y25860000D03*
X-19050000Y23320000D03*
X-21590000Y25860000D03*
X-21590000Y23320000D03*
X-24130000Y25860000D03*
X-24130000Y23320000D03*
X-26670000Y25860000D03*
X-26670000Y23320000D03*
X-29210000Y25860000D03*
X-29210000Y23320000D03*
X-31750000Y25860000D03*
D22*
X-31750000Y23320000D03*
D21*
X-6350000Y30940000D03*
X-6350000Y28400000D03*
X-8890000Y28400000D03*
X-8890000Y30940000D03*
X13970000Y28400000D03*
X3810000Y30940000D03*
X3810000Y28400000D03*
X6350000Y30940000D03*
X6350000Y28400000D03*
X8890000Y30940000D03*
X8890000Y28400000D03*
X21590000Y30940000D03*
X21590000Y28400000D03*
X19050000Y30940000D03*
X19050000Y28400000D03*
X11430000Y30940000D03*
X11430000Y28400000D03*
X26670000Y30940000D03*
X26670000Y28400000D03*
X24130000Y30940000D03*
X24130000Y28400000D03*
X31750000Y30940000D03*
X31750000Y28400000D03*
X29210000Y30940000D03*
X29210000Y28400000D03*
X-1270000Y30940000D03*
X-1270000Y28400000D03*
X-3810000Y30940000D03*
X-3810000Y28400000D03*
X1270000Y30940000D03*
X1270000Y28400000D03*
X16510000Y30940000D03*
X16510000Y28400000D03*
X13970000Y30940000D03*
X-11430000Y30940000D03*
X-11430000Y28400000D03*
X-13970000Y30940000D03*
X-13970000Y28400000D03*
X-16510000Y30940000D03*
X-16510000Y28400000D03*
X-19050000Y30940000D03*
X-19050000Y28400000D03*
X-21590000Y30940000D03*
X-21590000Y28400000D03*
X-24130000Y30940000D03*
X-24130000Y28400000D03*
X-26670000Y30940000D03*
X-26670000Y28400000D03*
X-29210000Y30940000D03*
X-29210000Y28400000D03*
X-31750000Y30940000D03*
D22*
X-31750000Y28400000D03*
D28*
X-34000000Y-31000000D03*
X-34000000Y3000000D03*
X25000000Y3000000D03*
X25000000Y-31000000D03*
D25*
X37500000Y25500000D03*
D26*
X37500000Y22960000D03*
D25*
X-41500000Y25500000D03*
D26*
X-41500000Y22960000D03*
D25*
X-37500000Y25500000D03*
D26*
X-37500000Y22960000D03*
D29*
X-36800000Y36700000D03*
X-36800000Y32700000D03*
D30*
X25379608Y6854198D02*
X25755547Y6798432D01*
X26124229Y6706082D01*
X26482067Y6578046D01*
X26825655Y6415541D01*
X27151634Y6220156D01*
X27456903Y5993753D01*
X27738514Y5738516D01*
X27993751Y5456905D01*
X28220154Y5151636D01*
X28415539Y4825657D01*
X28578044Y4482069D01*
X28706080Y4124231D01*
X28798430Y3755549D01*
X28854196Y3379610D01*
X28872998Y2996882D01*
X28872998Y-30996882D01*
X28854196Y-31379610D01*
X28798430Y-31755549D01*
X28706080Y-32124231D01*
X28578044Y-32482069D01*
X28415539Y-32825657D01*
X28220154Y-33151636D01*
X27993751Y-33456905D01*
X27738514Y-33738516D01*
X27456903Y-33993753D01*
X27151634Y-34220156D01*
X26825655Y-34415541D01*
X26482067Y-34578046D01*
X26124229Y-34706082D01*
X25755547Y-34798432D01*
X25379608Y-34854198D01*
X24996880Y-34873000D01*
X-33996882Y-34873000D01*
X-34379610Y-34854198D01*
X-34755549Y-34798432D01*
X-35124231Y-34706082D01*
X-35482069Y-34578046D01*
X-35825657Y-34415541D01*
X-36151636Y-34220156D01*
X-36456905Y-33993753D01*
X-36738516Y-33738516D01*
X-36993753Y-33456905D01*
X-37220156Y-33151636D01*
X-37415541Y-32825657D01*
X-37578046Y-32482069D01*
X-37706082Y-32124231D01*
X-37798432Y-31755549D01*
X-37854198Y-31379610D01*
X-37873000Y-30996882D01*
X-37873000Y500000D01*
X-35626999Y500000D01*
X-35626999Y-28500000D01*
X-35626846Y-28506232D01*
X-35607585Y-28898301D01*
X-35606363Y-28910704D01*
X-35548765Y-29298996D01*
X-35546334Y-29311220D01*
X-35450954Y-29691998D01*
X-35447336Y-29703924D01*
X-35315093Y-30073519D01*
X-35310324Y-30085034D01*
X-35142491Y-30439887D01*
X-35136615Y-30450878D01*
X-34934808Y-30787572D01*
X-34927884Y-30797935D01*
X-34694048Y-31113227D01*
X-34686142Y-31122861D01*
X-34422527Y-31413715D01*
X-34413714Y-31422528D01*
X-34122860Y-31686143D01*
X-34113226Y-31694049D01*
X-33797934Y-31927885D01*
X-33787571Y-31934809D01*
X-33450877Y-32136616D01*
X-33439886Y-32142492D01*
X-33085033Y-32310325D01*
X-33073518Y-32315094D01*
X-32703923Y-32447337D01*
X-32691997Y-32450955D01*
X-32311219Y-32546335D01*
X-32298995Y-32548766D01*
X-31910703Y-32606364D01*
X-31898300Y-32607586D01*
X-31506231Y-32626847D01*
X-31499999Y-32627000D01*
X22499997Y-32627000D01*
X22506229Y-32626847D01*
X22898298Y-32607586D01*
X22910701Y-32606364D01*
X23298993Y-32548766D01*
X23311217Y-32546335D01*
X23691995Y-32450955D01*
X23703921Y-32447337D01*
X24073516Y-32315094D01*
X24085031Y-32310325D01*
X24439884Y-32142492D01*
X24450875Y-32136616D01*
X24787569Y-31934809D01*
X24797932Y-31927885D01*
X25113224Y-31694049D01*
X25122858Y-31686143D01*
X25413712Y-31422528D01*
X25422525Y-31413715D01*
X25686140Y-31122861D01*
X25694046Y-31113227D01*
X25927882Y-30797935D01*
X25934806Y-30787572D01*
X26136613Y-30450878D01*
X26142489Y-30439887D01*
X26310322Y-30085034D01*
X26315091Y-30073519D01*
X26447334Y-29703924D01*
X26450952Y-29691998D01*
X26546332Y-29311220D01*
X26548763Y-29298996D01*
X26606361Y-28910704D01*
X26607583Y-28898301D01*
X26626844Y-28506232D01*
X26626997Y-28500000D01*
X26626997Y500000D01*
X26626844Y506232D01*
X26607583Y898301D01*
X26606361Y910704D01*
X26548763Y1298996D01*
X26546332Y1311220D01*
X26450952Y1691998D01*
X26447334Y1703924D01*
X26315091Y2073519D01*
X26310322Y2085034D01*
X26142489Y2439887D01*
X26136613Y2450878D01*
X25934806Y2787572D01*
X25927882Y2797935D01*
X25694046Y3113227D01*
X25686140Y3122861D01*
X25422525Y3413715D01*
X25413712Y3422528D01*
X25122858Y3686143D01*
X25113224Y3694049D01*
X24797932Y3927885D01*
X24787569Y3934809D01*
X24450875Y4136616D01*
X24439884Y4142492D01*
X24085031Y4310325D01*
X24073516Y4315094D01*
X23703921Y4447337D01*
X23691995Y4450955D01*
X23311217Y4546335D01*
X23298993Y4548766D01*
X22910701Y4606364D01*
X22898298Y4607586D01*
X22506229Y4626847D01*
X22499997Y4627000D01*
X-31499999Y4627000D01*
X-31506231Y4626847D01*
X-31898300Y4607586D01*
X-31910703Y4606364D01*
X-32298995Y4548766D01*
X-32311219Y4546335D01*
X-32691997Y4450955D01*
X-32703923Y4447337D01*
X-33073518Y4315094D01*
X-33085033Y4310325D01*
X-33439886Y4142492D01*
X-33450877Y4136616D01*
X-33787571Y3934809D01*
X-33797934Y3927885D01*
X-34113226Y3694049D01*
X-34122860Y3686143D01*
X-34413714Y3422528D01*
X-34422527Y3413715D01*
X-34686142Y3122861D01*
X-34694048Y3113227D01*
X-34927884Y2797935D01*
X-34934808Y2787572D01*
X-35136615Y2450878D01*
X-35142491Y2439887D01*
X-35310324Y2085034D01*
X-35315093Y2073519D01*
X-35447336Y1703924D01*
X-35450954Y1691998D01*
X-35546334Y1311220D01*
X-35548765Y1298996D01*
X-35606363Y910704D01*
X-35607585Y898301D01*
X-35626846Y506232D01*
X-35626999Y500000D01*
X-37873000Y500000D01*
X-37873000Y2996882D01*
X-37854198Y3379610D01*
X-37798432Y3755549D01*
X-37706082Y4124231D01*
X-37578046Y4482069D01*
X-37415541Y4825657D01*
X-37220156Y5151636D01*
X-36993753Y5456905D01*
X-36738516Y5738516D01*
X-36456905Y5993753D01*
X-36151636Y6220156D01*
X-35825657Y6415541D01*
X-35482069Y6578046D01*
X-35124231Y6706082D01*
X-34755549Y6798432D01*
X-34379610Y6854198D01*
X-33996882Y6873000D01*
X24996880Y6873000D01*
X25379608Y6854198D01*
D13*
G36*
X25379608Y6854198D02*
G01*
X25755547Y6798432D01*
X26124229Y6706082D01*
X26482067Y6578046D01*
X26825655Y6415541D01*
X27151634Y6220156D01*
X27456903Y5993753D01*
X27738514Y5738516D01*
X27993751Y5456905D01*
X28220154Y5151636D01*
X28415539Y4825657D01*
X28578044Y4482069D01*
X28706080Y4124231D01*
X28798430Y3755549D01*
X28854196Y3379610D01*
X28872998Y2996882D01*
X28872998Y-30996882D01*
X28854196Y-31379610D01*
X28798430Y-31755549D01*
X28706080Y-32124231D01*
X28578044Y-32482069D01*
X28415539Y-32825657D01*
X28220154Y-33151636D01*
X27993751Y-33456905D01*
X27738514Y-33738516D01*
X27456903Y-33993753D01*
X27151634Y-34220156D01*
X26825655Y-34415541D01*
X26482067Y-34578046D01*
X26124229Y-34706082D01*
X25755547Y-34798432D01*
X25379608Y-34854198D01*
X24996880Y-34873000D01*
X-33996882Y-34873000D01*
X-34379610Y-34854198D01*
X-34755549Y-34798432D01*
X-35124231Y-34706082D01*
X-35482069Y-34578046D01*
X-35825657Y-34415541D01*
X-36151636Y-34220156D01*
X-36456905Y-33993753D01*
X-36738516Y-33738516D01*
X-36993753Y-33456905D01*
X-37220156Y-33151636D01*
X-37415541Y-32825657D01*
X-37578046Y-32482069D01*
X-37706082Y-32124231D01*
X-37798432Y-31755549D01*
X-37854198Y-31379610D01*
X-37873000Y-30996882D01*
X-37873000Y500000D01*
X-35626999Y500000D01*
X-35626999Y-28500000D01*
X-35626846Y-28506232D01*
X-35607585Y-28898301D01*
X-35606363Y-28910704D01*
X-35548765Y-29298996D01*
X-35546334Y-29311220D01*
X-35450954Y-29691998D01*
X-35447336Y-29703924D01*
X-35315093Y-30073519D01*
X-35310324Y-30085034D01*
X-35142491Y-30439887D01*
X-35136615Y-30450878D01*
X-34934808Y-30787572D01*
X-34927884Y-30797935D01*
X-34694048Y-31113227D01*
X-34686142Y-31122861D01*
X-34422527Y-31413715D01*
X-34413714Y-31422528D01*
X-34122860Y-31686143D01*
X-34113226Y-31694049D01*
X-33797934Y-31927885D01*
X-33787571Y-31934809D01*
X-33450877Y-32136616D01*
X-33439886Y-32142492D01*
X-33085033Y-32310325D01*
X-33073518Y-32315094D01*
X-32703923Y-32447337D01*
X-32691997Y-32450955D01*
X-32311219Y-32546335D01*
X-32298995Y-32548766D01*
X-31910703Y-32606364D01*
X-31898300Y-32607586D01*
X-31506231Y-32626847D01*
X-31499999Y-32627000D01*
X22499997Y-32627000D01*
X22506229Y-32626847D01*
X22898298Y-32607586D01*
X22910701Y-32606364D01*
X23298993Y-32548766D01*
X23311217Y-32546335D01*
X23691995Y-32450955D01*
X23703921Y-32447337D01*
X24073516Y-32315094D01*
X24085031Y-32310325D01*
X24439884Y-32142492D01*
X24450875Y-32136616D01*
X24787569Y-31934809D01*
X24797932Y-31927885D01*
X25113224Y-31694049D01*
X25122858Y-31686143D01*
X25413712Y-31422528D01*
X25422525Y-31413715D01*
X25686140Y-31122861D01*
X25694046Y-31113227D01*
X25927882Y-30797935D01*
X25934806Y-30787572D01*
X26136613Y-30450878D01*
X26142489Y-30439887D01*
X26310322Y-30085034D01*
X26315091Y-30073519D01*
X26447334Y-29703924D01*
X26450952Y-29691998D01*
X26546332Y-29311220D01*
X26548763Y-29298996D01*
X26606361Y-28910704D01*
X26607583Y-28898301D01*
X26626844Y-28506232D01*
X26626997Y-28500000D01*
X26626997Y500000D01*
X26626844Y506232D01*
X26607583Y898301D01*
X26606361Y910704D01*
X26548763Y1298996D01*
X26546332Y1311220D01*
X26450952Y1691998D01*
X26447334Y1703924D01*
X26315091Y2073519D01*
X26310322Y2085034D01*
X26142489Y2439887D01*
X26136613Y2450878D01*
X25934806Y2787572D01*
X25927882Y2797935D01*
X25694046Y3113227D01*
X25686140Y3122861D01*
X25422525Y3413715D01*
X25413712Y3422528D01*
X25122858Y3686143D01*
X25113224Y3694049D01*
X24797932Y3927885D01*
X24787569Y3934809D01*
X24450875Y4136616D01*
X24439884Y4142492D01*
X24085031Y4310325D01*
X24073516Y4315094D01*
X23703921Y4447337D01*
X23691995Y4450955D01*
X23311217Y4546335D01*
X23298993Y4548766D01*
X22910701Y4606364D01*
X22898298Y4607586D01*
X22506229Y4626847D01*
X22499997Y4627000D01*
X-31499999Y4627000D01*
X-31506231Y4626847D01*
X-31898300Y4607586D01*
X-31910703Y4606364D01*
X-32298995Y4548766D01*
X-32311219Y4546335D01*
X-32691997Y4450955D01*
X-32703923Y4447337D01*
X-33073518Y4315094D01*
X-33085033Y4310325D01*
X-33439886Y4142492D01*
X-33450877Y4136616D01*
X-33787571Y3934809D01*
X-33797934Y3927885D01*
X-34113226Y3694049D01*
X-34122860Y3686143D01*
X-34413714Y3422528D01*
X-34422527Y3413715D01*
X-34686142Y3122861D01*
X-34694048Y3113227D01*
X-34927884Y2797935D01*
X-34934808Y2787572D01*
X-35136615Y2450878D01*
X-35142491Y2439887D01*
X-35310324Y2085034D01*
X-35315093Y2073519D01*
X-35447336Y1703924D01*
X-35450954Y1691998D01*
X-35546334Y1311220D01*
X-35548765Y1298996D01*
X-35606363Y910704D01*
X-35607585Y898301D01*
X-35626846Y506232D01*
X-35626999Y500000D01*
X-37873000Y500000D01*
X-37873000Y2996882D01*
X-37854198Y3379610D01*
X-37798432Y3755549D01*
X-37706082Y4124231D01*
X-37578046Y4482069D01*
X-37415541Y4825657D01*
X-37220156Y5151636D01*
X-36993753Y5456905D01*
X-36738516Y5738516D01*
X-36456905Y5993753D01*
X-36151636Y6220156D01*
X-35825657Y6415541D01*
X-35482069Y6578046D01*
X-35124231Y6706082D01*
X-34755549Y6798432D01*
X-34379610Y6854198D01*
X-33996882Y6873000D01*
X24996880Y6873000D01*
X25379608Y6854198D01*
G37*
M02*
