G04 #@! TF.GenerationSoftware,KiCad,Pcbnew,(5.1.12)-1*
G04 #@! TF.CreationDate,2022-12-24T10:12:30+01:00*
G04 #@! TF.ProjectId,USS-Module_V2b,5553532d-4d6f-4647-956c-655f5632622e,V2b*
G04 #@! TF.SameCoordinates,PX8f0d180PY5f5e100*
G04 #@! TF.FileFunction,Legend,Bot*
G04 #@! TF.FilePolarity,Positive*
%FSLAX46Y46*%
G04 Gerber Fmt 4.6, Leading zero omitted, Abs format (unit mm)*
G04 Created by KiCad (PCBNEW (5.1.12)-1) date 2022-12-24 10:12:30*
%MOMM*%
%LPD*%
G01*
G04 APERTURE LIST*
%ADD10C,0.250000*%
%ADD11C,0.120000*%
%ADD12C,0.150000*%
G04 APERTURE END LIST*
D10*
X33885714Y-40848571D02*
X33600000Y-41848571D01*
X33314285Y-41134285D01*
X33028571Y-41848571D01*
X32742857Y-40848571D01*
X32314285Y-40848571D02*
X32028571Y-41848571D01*
X31742857Y-41134285D01*
X31457142Y-41848571D01*
X31171428Y-40848571D01*
X30742857Y-40848571D02*
X30457142Y-41848571D01*
X30171428Y-41134285D01*
X29885714Y-41848571D01*
X29600000Y-40848571D01*
X29028571Y-41705714D02*
X28957142Y-41777142D01*
X29028571Y-41848571D01*
X29100000Y-41777142D01*
X29028571Y-41705714D01*
X29028571Y-41848571D01*
X28385714Y-41777142D02*
X28242857Y-41848571D01*
X27957142Y-41848571D01*
X27814285Y-41777142D01*
X27742857Y-41634285D01*
X27742857Y-41562857D01*
X27814285Y-41420000D01*
X27957142Y-41348571D01*
X28171428Y-41348571D01*
X28314285Y-41277142D01*
X28385714Y-41134285D01*
X28385714Y-41062857D01*
X28314285Y-40920000D01*
X28171428Y-40848571D01*
X27957142Y-40848571D01*
X27814285Y-40920000D01*
X27100000Y-40848571D02*
X27100000Y-42348571D01*
X27100000Y-40920000D02*
X26957142Y-40848571D01*
X26671428Y-40848571D01*
X26528571Y-40920000D01*
X26457142Y-40991428D01*
X26385714Y-41134285D01*
X26385714Y-41562857D01*
X26457142Y-41705714D01*
X26528571Y-41777142D01*
X26671428Y-41848571D01*
X26957142Y-41848571D01*
X27100000Y-41777142D01*
X25100000Y-41848571D02*
X25100000Y-41062857D01*
X25171428Y-40920000D01*
X25314285Y-40848571D01*
X25600000Y-40848571D01*
X25742857Y-40920000D01*
X25100000Y-41777142D02*
X25242857Y-41848571D01*
X25600000Y-41848571D01*
X25742857Y-41777142D01*
X25814285Y-41634285D01*
X25814285Y-41491428D01*
X25742857Y-41348571D01*
X25600000Y-41277142D01*
X25242857Y-41277142D01*
X25100000Y-41205714D01*
X23742857Y-41777142D02*
X23885714Y-41848571D01*
X24171428Y-41848571D01*
X24314285Y-41777142D01*
X24385714Y-41705714D01*
X24457142Y-41562857D01*
X24457142Y-41134285D01*
X24385714Y-40991428D01*
X24314285Y-40920000D01*
X24171428Y-40848571D01*
X23885714Y-40848571D01*
X23742857Y-40920000D01*
X22528571Y-41777142D02*
X22671428Y-41848571D01*
X22957142Y-41848571D01*
X23100000Y-41777142D01*
X23171428Y-41634285D01*
X23171428Y-41062857D01*
X23100000Y-40920000D01*
X22957142Y-40848571D01*
X22671428Y-40848571D01*
X22528571Y-40920000D01*
X22457142Y-41062857D01*
X22457142Y-41205714D01*
X23171428Y-41348571D01*
X21814285Y-41848571D02*
X21814285Y-40848571D01*
X21814285Y-40991428D02*
X21742857Y-40920000D01*
X21600000Y-40848571D01*
X21385714Y-40848571D01*
X21242857Y-40920000D01*
X21171428Y-41062857D01*
X21171428Y-41848571D01*
X21171428Y-41062857D02*
X21100000Y-40920000D01*
X20957142Y-40848571D01*
X20742857Y-40848571D01*
X20600000Y-40920000D01*
X20528571Y-41062857D01*
X20528571Y-41848571D01*
X19171428Y-41848571D02*
X19171428Y-41062857D01*
X19242857Y-40920000D01*
X19385714Y-40848571D01*
X19671428Y-40848571D01*
X19814285Y-40920000D01*
X19171428Y-41777142D02*
X19314285Y-41848571D01*
X19671428Y-41848571D01*
X19814285Y-41777142D01*
X19885714Y-41634285D01*
X19885714Y-41491428D01*
X19814285Y-41348571D01*
X19671428Y-41277142D01*
X19314285Y-41277142D01*
X19171428Y-41205714D01*
X18457142Y-40848571D02*
X18457142Y-41848571D01*
X18457142Y-40991428D02*
X18385714Y-40920000D01*
X18242857Y-40848571D01*
X18028571Y-40848571D01*
X17885714Y-40920000D01*
X17814285Y-41062857D01*
X17814285Y-41848571D01*
X17100000Y-41848571D02*
X17100000Y-40848571D01*
X17100000Y-40348571D02*
X17171428Y-40420000D01*
X17100000Y-40491428D01*
X17028571Y-40420000D01*
X17100000Y-40348571D01*
X17100000Y-40491428D01*
X15742857Y-41777142D02*
X15885714Y-41848571D01*
X16171428Y-41848571D01*
X16314285Y-41777142D01*
X16385714Y-41705714D01*
X16457142Y-41562857D01*
X16457142Y-41134285D01*
X16385714Y-40991428D01*
X16314285Y-40920000D01*
X16171428Y-40848571D01*
X15885714Y-40848571D01*
X15742857Y-40920000D01*
X15100000Y-41705714D02*
X15028571Y-41777142D01*
X15100000Y-41848571D01*
X15171428Y-41777142D01*
X15100000Y-41705714D01*
X15100000Y-41848571D01*
X13742857Y-41777142D02*
X13885714Y-41848571D01*
X14171428Y-41848571D01*
X14314285Y-41777142D01*
X14385714Y-41705714D01*
X14457142Y-41562857D01*
X14457142Y-41134285D01*
X14385714Y-40991428D01*
X14314285Y-40920000D01*
X14171428Y-40848571D01*
X13885714Y-40848571D01*
X13742857Y-40920000D01*
X12885714Y-41848571D02*
X13028571Y-41777142D01*
X13100000Y-41705714D01*
X13171428Y-41562857D01*
X13171428Y-41134285D01*
X13100000Y-40991428D01*
X13028571Y-40920000D01*
X12885714Y-40848571D01*
X12671428Y-40848571D01*
X12528571Y-40920000D01*
X12457142Y-40991428D01*
X12385714Y-41134285D01*
X12385714Y-41562857D01*
X12457142Y-41705714D01*
X12528571Y-41777142D01*
X12671428Y-41848571D01*
X12885714Y-41848571D01*
X11742857Y-41848571D02*
X11742857Y-40848571D01*
X11742857Y-40991428D02*
X11671428Y-40920000D01*
X11528571Y-40848571D01*
X11314285Y-40848571D01*
X11171428Y-40920000D01*
X11100000Y-41062857D01*
X11100000Y-41848571D01*
X11100000Y-41062857D02*
X11028571Y-40920000D01*
X10885714Y-40848571D01*
X10671428Y-40848571D01*
X10528571Y-40920000D01*
X10457142Y-41062857D01*
X10457142Y-41848571D01*
D11*
X-14950000Y-25500000D02*
X-12400000Y-25500000D01*
X-14950000Y-23800000D02*
X-12400000Y-23800000D01*
X-14950000Y-24250000D02*
X-14950000Y-23800000D01*
X-14950000Y-25500000D02*
X-14950000Y-25050000D01*
X-14950000Y-27600000D02*
X-12400000Y-27600000D01*
X-14950000Y-25900000D02*
X-12400000Y-25900000D01*
X-14950000Y-26350000D02*
X-14950000Y-25900000D01*
X-14950000Y-27600000D02*
X-14950000Y-27150000D01*
X-8490000Y-21250000D02*
X-8490000Y-25635000D01*
X-8490000Y-25635000D02*
X-11510000Y-25635000D01*
X-11510000Y-25635000D02*
X-11510000Y-21250000D01*
X740000Y-26000000D02*
X740000Y-21615000D01*
X740000Y-21615000D02*
X3760000Y-21615000D01*
X3760000Y-21615000D02*
X3760000Y-26000000D01*
X-3750000Y-21280000D02*
X-2750000Y-21280000D01*
X-2750000Y-19920000D02*
X-3750000Y-19920000D01*
X-6650000Y-21280000D02*
X-5650000Y-21280000D01*
X-5650000Y-19920000D02*
X-6650000Y-19920000D01*
X-6820000Y-24250000D02*
X-6820000Y-23250000D01*
X-8180000Y-23250000D02*
X-8180000Y-24250000D01*
X-3750000Y-19830000D02*
X-2750000Y-19830000D01*
X-2750000Y-18470000D02*
X-3750000Y-18470000D01*
X410000Y-27660000D02*
X-850000Y-27660000D01*
X-6410000Y-27660000D02*
X-5150000Y-27660000D01*
X410000Y-23900000D02*
X410000Y-27660000D01*
X-6410000Y-21650000D02*
X-6410000Y-27660000D01*
D12*
X-12933334Y-23516666D02*
X-12933334Y-22816666D01*
X-13100000Y-22816666D01*
X-13200000Y-22850000D01*
X-13266667Y-22916666D01*
X-13300000Y-22983333D01*
X-13333334Y-23116666D01*
X-13333334Y-23216666D01*
X-13300000Y-23350000D01*
X-13266667Y-23416666D01*
X-13200000Y-23483333D01*
X-13100000Y-23516666D01*
X-12933334Y-23516666D01*
X-13566667Y-22816666D02*
X-14000000Y-22816666D01*
X-13766667Y-23083333D01*
X-13866667Y-23083333D01*
X-13933334Y-23116666D01*
X-13966667Y-23150000D01*
X-14000000Y-23216666D01*
X-14000000Y-23383333D01*
X-13966667Y-23450000D01*
X-13933334Y-23483333D01*
X-13866667Y-23516666D01*
X-13666667Y-23516666D01*
X-13600000Y-23483333D01*
X-13566667Y-23450000D01*
X-12983334Y-28516666D02*
X-12983334Y-27816666D01*
X-13150000Y-27816666D01*
X-13250000Y-27850000D01*
X-13316667Y-27916666D01*
X-13350000Y-27983333D01*
X-13383334Y-28116666D01*
X-13383334Y-28216666D01*
X-13350000Y-28350000D01*
X-13316667Y-28416666D01*
X-13250000Y-28483333D01*
X-13150000Y-28516666D01*
X-12983334Y-28516666D01*
X-13650000Y-27883333D02*
X-13683334Y-27850000D01*
X-13750000Y-27816666D01*
X-13916667Y-27816666D01*
X-13983334Y-27850000D01*
X-14016667Y-27883333D01*
X-14050000Y-27950000D01*
X-14050000Y-28016666D01*
X-14016667Y-28116666D01*
X-13616667Y-28516666D01*
X-14050000Y-28516666D01*
X-11950000Y-21483333D02*
X-11916667Y-21450000D01*
X-11883334Y-21350000D01*
X-11883334Y-21283333D01*
X-11916667Y-21183333D01*
X-11983334Y-21116666D01*
X-12050000Y-21083333D01*
X-12183334Y-21050000D01*
X-12283334Y-21050000D01*
X-12416667Y-21083333D01*
X-12483334Y-21116666D01*
X-12550000Y-21183333D01*
X-12583334Y-21283333D01*
X-12583334Y-21350000D01*
X-12550000Y-21450000D01*
X-12516667Y-21483333D01*
X-12350000Y-22083333D02*
X-11883334Y-22083333D01*
X-12616667Y-21916666D02*
X-12116667Y-21750000D01*
X-12116667Y-22183333D01*
X4750000Y-24133333D02*
X4783333Y-24100000D01*
X4816666Y-24000000D01*
X4816666Y-23933333D01*
X4783333Y-23833333D01*
X4716666Y-23766666D01*
X4650000Y-23733333D01*
X4516666Y-23700000D01*
X4416666Y-23700000D01*
X4283333Y-23733333D01*
X4216666Y-23766666D01*
X4150000Y-23833333D01*
X4116666Y-23933333D01*
X4116666Y-24000000D01*
X4150000Y-24100000D01*
X4183333Y-24133333D01*
X4816666Y-24800000D02*
X4816666Y-24400000D01*
X4816666Y-24600000D02*
X4116666Y-24600000D01*
X4216666Y-24533333D01*
X4283333Y-24466666D01*
X4316666Y-24400000D01*
X-733334Y-20916666D02*
X-500000Y-20583333D01*
X-333334Y-20916666D02*
X-333334Y-20216666D01*
X-600000Y-20216666D01*
X-666667Y-20250000D01*
X-700000Y-20283333D01*
X-733334Y-20350000D01*
X-733334Y-20450000D01*
X-700000Y-20516666D01*
X-666667Y-20550000D01*
X-600000Y-20583333D01*
X-333334Y-20583333D01*
X-1000000Y-20283333D02*
X-1033334Y-20250000D01*
X-1100000Y-20216666D01*
X-1266667Y-20216666D01*
X-1333334Y-20250000D01*
X-1366667Y-20283333D01*
X-1400000Y-20350000D01*
X-1400000Y-20416666D01*
X-1366667Y-20516666D01*
X-966667Y-20916666D01*
X-1400000Y-20916666D01*
X-6083334Y-19516666D02*
X-5850000Y-19183333D01*
X-5683334Y-19516666D02*
X-5683334Y-18816666D01*
X-5950000Y-18816666D01*
X-6016667Y-18850000D01*
X-6050000Y-18883333D01*
X-6083334Y-18950000D01*
X-6083334Y-19050000D01*
X-6050000Y-19116666D01*
X-6016667Y-19150000D01*
X-5950000Y-19183333D01*
X-5683334Y-19183333D01*
X-6750000Y-19516666D02*
X-6350000Y-19516666D01*
X-6550000Y-19516666D02*
X-6550000Y-18816666D01*
X-6483334Y-18916666D01*
X-6416667Y-18983333D01*
X-6350000Y-19016666D01*
X-7250000Y-25883333D02*
X-7216667Y-25850000D01*
X-7183334Y-25750000D01*
X-7183334Y-25683333D01*
X-7216667Y-25583333D01*
X-7283334Y-25516666D01*
X-7350000Y-25483333D01*
X-7483334Y-25450000D01*
X-7583334Y-25450000D01*
X-7716667Y-25483333D01*
X-7783334Y-25516666D01*
X-7850000Y-25583333D01*
X-7883334Y-25683333D01*
X-7883334Y-25750000D01*
X-7850000Y-25850000D01*
X-7816667Y-25883333D01*
X-7883334Y-26116666D02*
X-7883334Y-26550000D01*
X-7616667Y-26316666D01*
X-7616667Y-26416666D01*
X-7583334Y-26483333D01*
X-7550000Y-26516666D01*
X-7483334Y-26550000D01*
X-7316667Y-26550000D01*
X-7250000Y-26516666D01*
X-7216667Y-26483333D01*
X-7183334Y-26416666D01*
X-7183334Y-26216666D01*
X-7216667Y-26150000D01*
X-7250000Y-26116666D01*
X-683334Y-19500000D02*
X-650000Y-19533333D01*
X-550000Y-19566666D01*
X-483334Y-19566666D01*
X-383334Y-19533333D01*
X-316667Y-19466666D01*
X-283334Y-19400000D01*
X-250000Y-19266666D01*
X-250000Y-19166666D01*
X-283334Y-19033333D01*
X-316667Y-18966666D01*
X-383334Y-18900000D01*
X-483334Y-18866666D01*
X-550000Y-18866666D01*
X-650000Y-18900000D01*
X-683334Y-18933333D01*
X-950000Y-18933333D02*
X-983334Y-18900000D01*
X-1050000Y-18866666D01*
X-1216667Y-18866666D01*
X-1283334Y-18900000D01*
X-1316667Y-18933333D01*
X-1350000Y-19000000D01*
X-1350000Y-19066666D01*
X-1316667Y-19166666D01*
X-916667Y-19566666D01*
X-1350000Y-19566666D01*
X-6583334Y-28266666D02*
X-6016667Y-28266666D01*
X-5950000Y-28300000D01*
X-5916667Y-28333333D01*
X-5883334Y-28400000D01*
X-5883334Y-28533333D01*
X-5916667Y-28600000D01*
X-5950000Y-28633333D01*
X-6016667Y-28666666D01*
X-6583334Y-28666666D01*
X-5883334Y-29366666D02*
X-5883334Y-28966666D01*
X-5883334Y-29166666D02*
X-6583334Y-29166666D01*
X-6483334Y-29100000D01*
X-6416667Y-29033333D01*
X-6383334Y-28966666D01*
M02*
