G04 #@! TF.GenerationSoftware,KiCad,Pcbnew,(5.1.12)-1*
G04 #@! TF.CreationDate,2022-12-24T10:12:30+01:00*
G04 #@! TF.ProjectId,USS-Module_V2b,5553532d-4d6f-4647-956c-655f5632622e,V2b*
G04 #@! TF.SameCoordinates,PX8f0d180PY5f5e100*
G04 #@! TF.FileFunction,Copper,L3,Inr*
G04 #@! TF.FilePolarity,Positive*
%FSLAX46Y46*%
G04 Gerber Fmt 4.6, Leading zero omitted, Abs format (unit mm)*
G04 Created by KiCad (PCBNEW (5.1.12)-1) date 2022-12-24 10:12:30*
%MOMM*%
%LPD*%
G01*
G04 APERTURE LIST*
G04 #@! TA.AperFunction,ComponentPad*
%ADD10O,1.900000X1.200000*%
G04 #@! TD*
G04 #@! TA.AperFunction,ComponentPad*
%ADD11C,1.450000*%
G04 #@! TD*
G04 #@! TA.AperFunction,ComponentPad*
%ADD12O,1.400000X2.000000*%
G04 #@! TD*
G04 #@! TA.AperFunction,ComponentPad*
%ADD13R,1.400000X2.000000*%
G04 #@! TD*
G04 #@! TA.AperFunction,ComponentPad*
%ADD14R,1.700000X1.700000*%
G04 #@! TD*
G04 #@! TA.AperFunction,ComponentPad*
%ADD15O,1.700000X1.700000*%
G04 #@! TD*
G04 #@! TA.AperFunction,ComponentPad*
%ADD16C,5.600000*%
G04 #@! TD*
G04 #@! TA.AperFunction,ComponentPad*
%ADD17C,7.400000*%
G04 #@! TD*
G04 #@! TA.AperFunction,ViaPad*
%ADD18C,0.800000*%
G04 #@! TD*
G04 #@! TA.AperFunction,ViaPad*
%ADD19C,0.750000*%
G04 #@! TD*
G04 #@! TA.AperFunction,ViaPad*
%ADD20C,0.600000*%
G04 #@! TD*
G04 #@! TA.AperFunction,ViaPad*
%ADD21C,1.600000*%
G04 #@! TD*
G04 #@! TA.AperFunction,Conductor*
%ADD22C,0.700000*%
G04 #@! TD*
G04 #@! TA.AperFunction,Conductor*
%ADD23C,0.250000*%
G04 #@! TD*
G04 #@! TA.AperFunction,Conductor*
%ADD24C,0.300000*%
G04 #@! TD*
G04 #@! TA.AperFunction,Conductor*
%ADD25C,0.025400*%
G04 #@! TD*
G04 #@! TA.AperFunction,Conductor*
%ADD26C,0.100000*%
G04 #@! TD*
G04 #@! TA.AperFunction,Conductor*
%ADD27C,0.254000*%
G04 #@! TD*
G04 APERTURE END LIST*
D10*
X41837500Y3700000D03*
X41837500Y-3300000D03*
D11*
X39137500Y2700000D03*
X39137500Y-2300000D03*
D12*
X12065000Y9703000D03*
X1905000Y12243000D03*
X-3175000Y12243000D03*
X-3175000Y9703000D03*
X9525000Y12243000D03*
X-5715000Y12243000D03*
X-635000Y9703000D03*
X22225000Y9703000D03*
X9525000Y9703000D03*
X-8255000Y12243000D03*
X-8255000Y9703000D03*
X-10795000Y12243000D03*
X4445000Y9703000D03*
D13*
X-10795000Y9703000D03*
D12*
X-635000Y12243000D03*
X6985000Y9703000D03*
X4445000Y12243000D03*
X22225000Y12243000D03*
X-5715000Y9703000D03*
X27305000Y9703000D03*
X24765000Y9703000D03*
X19685000Y9703000D03*
X24765000Y12243000D03*
X14605000Y9703000D03*
X19685000Y12243000D03*
X12065000Y12243000D03*
X27305000Y12243000D03*
X17145000Y12243000D03*
X14605000Y12243000D03*
X17145000Y9703000D03*
X6985000Y12243000D03*
X1905000Y9703000D03*
X-31115000Y14783000D03*
D13*
X-36195000Y14783000D03*
D12*
X1905000Y17323000D03*
X-33655000Y14783000D03*
X9525000Y14783000D03*
X-18415000Y17323000D03*
X27305000Y14783000D03*
X32385000Y14783000D03*
X-23495000Y14783000D03*
X-3175000Y17323000D03*
X-33655000Y17323000D03*
X1905000Y14783000D03*
X4445000Y14783000D03*
X29845000Y14783000D03*
X-635000Y17323000D03*
X34925000Y14783000D03*
X17145000Y14783000D03*
X34925000Y17323000D03*
X14605000Y17323000D03*
X24765000Y14783000D03*
X19685000Y17323000D03*
X-5715000Y17323000D03*
X-8255000Y14783000D03*
X-18415000Y14783000D03*
X-28575000Y14783000D03*
X-13335000Y17323000D03*
X17145000Y17323000D03*
X9525000Y17323000D03*
X22225000Y14783000D03*
X12065000Y14783000D03*
X-635000Y14783000D03*
X-15875000Y14783000D03*
X-28575000Y17323000D03*
X6985000Y17323000D03*
X6985000Y14783000D03*
X-36195000Y17323000D03*
X-15875000Y17323000D03*
X12065000Y17323000D03*
X32385000Y17323000D03*
X4445000Y17323000D03*
X37465000Y14783000D03*
X24765000Y17323000D03*
X37465000Y17323000D03*
X27305000Y17323000D03*
X-10795000Y14783000D03*
X-8255000Y17323000D03*
X19685000Y14783000D03*
X-5715000Y14783000D03*
X22225000Y17323000D03*
X-3175000Y14783000D03*
X-13335000Y14783000D03*
X14605000Y14783000D03*
X-20955000Y17323000D03*
X-20955000Y14783000D03*
X29845000Y17323000D03*
X-23495000Y17323000D03*
X-31115000Y17323000D03*
X-10795000Y17323000D03*
X-26035000Y14783000D03*
X-26035000Y17323000D03*
D14*
X32500000Y-37500000D03*
D15*
X35040000Y-37500000D03*
X32500000Y-34960000D03*
X35040000Y-34960000D03*
X32500000Y-32420000D03*
X35040000Y-32420000D03*
X32500000Y-29880000D03*
X35040000Y-29880000D03*
X32500000Y-27340000D03*
X35040000Y-27340000D03*
X32500000Y-24800000D03*
X35040000Y-24800000D03*
X32500000Y-22260000D03*
X35040000Y-22260000D03*
D16*
X37465000Y42865000D03*
X-40005000Y-42865000D03*
X40005000Y-42865000D03*
X-36195000Y42865000D03*
D12*
X-5715000Y37785000D03*
X-5715000Y35245000D03*
X-8255000Y35245000D03*
X-8255000Y37785000D03*
X14605000Y35245000D03*
X4445000Y37785000D03*
X4445000Y35245000D03*
X6985000Y37785000D03*
X6985000Y35245000D03*
X9525000Y37785000D03*
X9525000Y35245000D03*
X22225000Y37785000D03*
X22225000Y35245000D03*
X19685000Y37785000D03*
X19685000Y35245000D03*
X12065000Y37785000D03*
X12065000Y35245000D03*
X27305000Y37785000D03*
X27305000Y35245000D03*
X24765000Y37785000D03*
X24765000Y35245000D03*
X32385000Y37785000D03*
X32385000Y35245000D03*
X29845000Y37785000D03*
X29845000Y35245000D03*
X-635000Y37785000D03*
X-635000Y35245000D03*
X-3175000Y37785000D03*
X-3175000Y35245000D03*
X1905000Y37785000D03*
X1905000Y35245000D03*
X17145000Y37785000D03*
X17145000Y35245000D03*
X14605000Y37785000D03*
X-10795000Y37785000D03*
X-10795000Y35245000D03*
X-13335000Y37785000D03*
X-13335000Y35245000D03*
X-15875000Y37785000D03*
X-15875000Y35245000D03*
X-18415000Y37785000D03*
X-18415000Y35245000D03*
X-20955000Y37785000D03*
X-20955000Y35245000D03*
X-23495000Y37785000D03*
X-23495000Y35245000D03*
X-26035000Y37785000D03*
X-26035000Y35245000D03*
X-28575000Y37785000D03*
X-28575000Y35245000D03*
X-31115000Y37785000D03*
D13*
X-31115000Y35245000D03*
D12*
X-5715000Y42865000D03*
X-5715000Y40325000D03*
X-8255000Y40325000D03*
X-8255000Y42865000D03*
X14605000Y40325000D03*
X4445000Y42865000D03*
X4445000Y40325000D03*
X6985000Y42865000D03*
X6985000Y40325000D03*
X9525000Y42865000D03*
X9525000Y40325000D03*
X22225000Y42865000D03*
X22225000Y40325000D03*
X19685000Y42865000D03*
X19685000Y40325000D03*
X12065000Y42865000D03*
X12065000Y40325000D03*
X27305000Y42865000D03*
X27305000Y40325000D03*
X24765000Y42865000D03*
X24765000Y40325000D03*
X32385000Y42865000D03*
X32385000Y40325000D03*
X29845000Y42865000D03*
X29845000Y40325000D03*
X-635000Y42865000D03*
X-635000Y40325000D03*
X-3175000Y42865000D03*
X-3175000Y40325000D03*
X1905000Y42865000D03*
X1905000Y40325000D03*
X17145000Y42865000D03*
X17145000Y40325000D03*
X14605000Y42865000D03*
X-10795000Y42865000D03*
X-10795000Y40325000D03*
X-13335000Y42865000D03*
X-13335000Y40325000D03*
X-15875000Y42865000D03*
X-15875000Y40325000D03*
X-18415000Y42865000D03*
X-18415000Y40325000D03*
X-20955000Y42865000D03*
X-20955000Y40325000D03*
X-23495000Y42865000D03*
X-23495000Y40325000D03*
X-26035000Y42865000D03*
X-26035000Y40325000D03*
X-28575000Y42865000D03*
X-28575000Y40325000D03*
X-31115000Y42865000D03*
D13*
X-31115000Y40325000D03*
D12*
X-5715000Y25860000D03*
X-5715000Y23320000D03*
X-8255000Y23320000D03*
X-8255000Y25860000D03*
X14605000Y23320000D03*
X4445000Y25860000D03*
X4445000Y23320000D03*
X6985000Y25860000D03*
X6985000Y23320000D03*
X9525000Y25860000D03*
X9525000Y23320000D03*
X22225000Y25860000D03*
X22225000Y23320000D03*
X19685000Y25860000D03*
X19685000Y23320000D03*
X12065000Y25860000D03*
X12065000Y23320000D03*
X27305000Y25860000D03*
X27305000Y23320000D03*
X24765000Y25860000D03*
X24765000Y23320000D03*
X32385000Y25860000D03*
X32385000Y23320000D03*
X29845000Y25860000D03*
X29845000Y23320000D03*
X-635000Y25860000D03*
X-635000Y23320000D03*
X-3175000Y25860000D03*
X-3175000Y23320000D03*
X1905000Y25860000D03*
X1905000Y23320000D03*
X17145000Y25860000D03*
X17145000Y23320000D03*
X14605000Y25860000D03*
X-10795000Y25860000D03*
X-10795000Y23320000D03*
X-13335000Y25860000D03*
X-13335000Y23320000D03*
X-15875000Y25860000D03*
X-15875000Y23320000D03*
X-18415000Y25860000D03*
X-18415000Y23320000D03*
X-20955000Y25860000D03*
X-20955000Y23320000D03*
X-23495000Y25860000D03*
X-23495000Y23320000D03*
X-26035000Y25860000D03*
X-26035000Y23320000D03*
X-28575000Y25860000D03*
X-28575000Y23320000D03*
X-31115000Y25860000D03*
D13*
X-31115000Y23320000D03*
D12*
X-5715000Y30940000D03*
X-5715000Y28400000D03*
X-8255000Y28400000D03*
X-8255000Y30940000D03*
X14605000Y28400000D03*
X4445000Y30940000D03*
X4445000Y28400000D03*
X6985000Y30940000D03*
X6985000Y28400000D03*
X9525000Y30940000D03*
X9525000Y28400000D03*
X22225000Y30940000D03*
X22225000Y28400000D03*
X19685000Y30940000D03*
X19685000Y28400000D03*
X12065000Y30940000D03*
X12065000Y28400000D03*
X27305000Y30940000D03*
X27305000Y28400000D03*
X24765000Y30940000D03*
X24765000Y28400000D03*
X32385000Y30940000D03*
X32385000Y28400000D03*
X29845000Y30940000D03*
X29845000Y28400000D03*
X-635000Y30940000D03*
X-635000Y28400000D03*
X-3175000Y30940000D03*
X-3175000Y28400000D03*
X1905000Y30940000D03*
X1905000Y28400000D03*
X17145000Y30940000D03*
X17145000Y28400000D03*
X14605000Y30940000D03*
X-10795000Y30940000D03*
X-10795000Y28400000D03*
X-13335000Y30940000D03*
X-13335000Y28400000D03*
X-15875000Y30940000D03*
X-15875000Y28400000D03*
X-18415000Y30940000D03*
X-18415000Y28400000D03*
X-20955000Y30940000D03*
X-20955000Y28400000D03*
X-23495000Y30940000D03*
X-23495000Y28400000D03*
X-26035000Y30940000D03*
X-26035000Y28400000D03*
X-28575000Y30940000D03*
X-28575000Y28400000D03*
X-31115000Y30940000D03*
D13*
X-31115000Y28400000D03*
D17*
X-34000000Y-31000000D03*
X-34000000Y3000000D03*
X25000000Y3000000D03*
X25000000Y-31000000D03*
D14*
X38135000Y25500000D03*
D15*
X38135000Y22960000D03*
D14*
X-40865000Y25500000D03*
D15*
X-40865000Y22960000D03*
D14*
X-36865000Y25500000D03*
D15*
X-36865000Y22960000D03*
D18*
X27700000Y-6499998D03*
D19*
X16500000Y-14000000D03*
X16500000Y-18525000D03*
X16500000Y-16000000D03*
X16500000Y-9975000D03*
D20*
X-37065000Y31300000D03*
X-36465000Y31300000D03*
X-35865000Y31300000D03*
X-35265000Y31300000D03*
D19*
X-26500000Y-16000000D03*
X-26500000Y-14000000D03*
X-26500000Y-9975000D03*
X-26500000Y-18525000D03*
D18*
X-7000001Y-33700001D03*
X-27000002Y-33700000D03*
X-29500002Y-33700000D03*
X-24500002Y-33700001D03*
X-17000001Y-33700000D03*
X-19500000Y-33700001D03*
X-14500001Y-33700000D03*
X-12000000Y-33700001D03*
X-22000000Y-33700001D03*
X-9500002Y-33700001D03*
X12999999Y-33700001D03*
X-2000001Y-33700001D03*
X2999999Y-33700001D03*
X5499999Y-33700001D03*
X10499999Y-33700001D03*
X7999999Y-33700001D03*
X15500001Y-33700001D03*
X20500000Y-33700000D03*
X18000001Y-33700001D03*
X-4500001Y-33700001D03*
X499999Y-33700001D03*
X-36700000Y-24000000D03*
X-36700000Y-21500002D03*
X-36700000Y-26499999D03*
X-36700000Y-1500000D03*
X-36700000Y-6500000D03*
X-36700000Y-9000000D03*
X-36700000Y-4000000D03*
X-36700000Y-19000002D03*
X-36700000Y-16500000D03*
X-36700000Y-11500000D03*
X-36700000Y-14000000D03*
D19*
X16500000Y-6525000D03*
D18*
X20000000Y-25000000D03*
X15000000Y-25000000D03*
X15000000Y-30000000D03*
D21*
X19900000Y-29000000D03*
D18*
X40000000Y-20000000D03*
X40000000Y-25000000D03*
X40000000Y-30000000D03*
X40000000Y-35000000D03*
X17500000Y-27500000D03*
X12500000Y-27500000D03*
X42500000Y-22500000D03*
X42500000Y-27500000D03*
X42500000Y-32500000D03*
X42500000Y-17500000D03*
X37500000Y-17500000D03*
X32500000Y-20000000D03*
X10000000Y-25000000D03*
X25000000Y-37500000D03*
X30000000Y-37500000D03*
X27500000Y-20000000D03*
X30000000Y-17500000D03*
X25000000Y-17500000D03*
X17500000Y-22500000D03*
X12500000Y-22500000D03*
X-12000000Y5700000D03*
X-14500001Y5700000D03*
X-17000001Y5700000D03*
X-27000002Y5700000D03*
X-29500002Y5700000D03*
X-7500000Y-22000000D03*
X-10000000Y-20000000D03*
X-9200000Y-20000000D03*
X-10800000Y-20000000D03*
X5000000Y-30000000D03*
X-30000000Y-25000000D03*
X-20000000Y-25000000D03*
X-25000000Y-30000000D03*
X-15000000Y-30000000D03*
X-15000000Y-20000000D03*
X-20000000Y-15000000D03*
X35000000Y-5000000D03*
X25000000Y-5000000D03*
X30000000Y-10000000D03*
X40000000Y-10000000D03*
X40000000Y10000000D03*
X40000000Y20000000D03*
X40000000Y30000000D03*
X35000000Y35000000D03*
X-25000000Y10000000D03*
X-40000000Y15000000D03*
X-35000000Y25000000D03*
X-40000000Y30000000D03*
X40000000Y35000000D03*
X-40000000Y35000000D03*
X-40000000Y20000000D03*
X-40000000Y-25000000D03*
X-40000000Y-35000000D03*
X-40000000Y-30000000D03*
D20*
X-22400000Y-6400000D03*
X-18200000Y-6400000D03*
X-20300000Y-6400000D03*
X-11100000Y-6400000D03*
X-12300000Y-6400000D03*
X-11133051Y-7725010D03*
X-12000000Y-7750000D03*
D19*
X-22300000Y-8450010D03*
X-21600000Y-8450010D03*
D20*
X-30650000Y-10100000D03*
X17995012Y511458D03*
X-11600000Y-11200000D03*
X17575000Y-8850000D03*
X-31250000Y-10750004D03*
X15400000Y-113552D03*
X-12600000Y-11600000D03*
X14875002Y-10400000D03*
X-13599988Y-12000000D03*
X11550000Y-10625000D03*
X9749989Y-750006D03*
X-30777133Y-11541939D03*
X-14600000Y-12400000D03*
X10201636Y-11328055D03*
X-15600000Y-12800000D03*
X8435227Y-13235231D03*
X-30822758Y-12791950D03*
X5070010Y-2074996D03*
X-16600000Y-13200000D03*
X5900000Y-14024979D03*
X-31299891Y-13473239D03*
X2530010Y-2800000D03*
X-17600000Y-13600000D03*
X3400000Y-14474990D03*
X-30688211Y-14100012D03*
X-9990Y-3458051D03*
X-18615390Y-14004448D03*
X154130Y-14975076D03*
X-17299998Y-1100000D03*
X-17300000Y-300000D03*
X-31140609Y-15849956D03*
X-21770882Y-16029120D03*
X-32462973Y-16253878D03*
X-20846015Y-16600002D03*
X-32419255Y-17674026D03*
X-21237093Y-17340936D03*
X-31250000Y-18500000D03*
X-20850000Y-18200040D03*
X-34457344Y-18689881D03*
X-21772264Y-18647721D03*
D19*
X-30350000Y-21425010D03*
X-31050000Y-21425010D03*
X-31750000Y-21425010D03*
D20*
X7160041Y-1400000D03*
X-31299891Y-12148932D03*
X21524998Y-19249968D03*
X20900000Y-17925000D03*
X21500000Y-17250000D03*
X20900000Y-16575000D03*
X22025000Y-15900000D03*
X11500000Y-18450000D03*
X12065686Y-17875000D03*
X11500000Y-17250000D03*
X12094636Y-16625000D03*
X11517612Y-16070882D03*
X20900000Y-14125001D03*
X21482388Y-13429118D03*
X20905364Y-12875000D03*
X21500000Y-12250000D03*
X20934314Y-11625000D03*
X21500000Y-11050000D03*
X20600000Y-9250000D03*
X11886380Y-6997518D03*
X16450000Y-8175010D03*
X20644625Y-8275010D03*
X21300000Y-7650000D03*
X20850000Y-6950000D03*
X11500000Y-14000000D03*
X-9500000Y-15600000D03*
X12065686Y-13375000D03*
X-7000000Y-15600000D03*
X11500000Y-12750000D03*
X-4500000Y-15500000D03*
X12094636Y-12125000D03*
X-2100000Y-15474968D03*
X11517612Y-11500000D03*
X1100000Y-15024957D03*
X1475021Y7744709D03*
X12279675Y-8625757D03*
X16745000Y7815236D03*
X11437083Y-7659448D03*
X19275021Y7600000D03*
D19*
X36950000Y-2350000D03*
X4025000Y-22625000D03*
X4775000Y-22625000D03*
X5525000Y-22625000D03*
X36950000Y-3100000D03*
X36950000Y-3850000D03*
D20*
X38004246Y1099990D03*
X37950000Y4350000D03*
X38000000Y300000D03*
X34200000Y400000D03*
X25199479Y-10899479D03*
D19*
X-26500000Y-20500000D03*
X-25750000Y-20500000D03*
X-27250000Y-20500000D03*
X-25750000Y-19500000D03*
X-27250000Y-19500000D03*
X-26500000Y-19500023D03*
D20*
X38000000Y-550000D03*
X34200000Y-650000D03*
X25800521Y-11500521D03*
D22*
X24765000Y28400000D02*
X26015010Y27149990D01*
X26015010Y27149990D02*
X26015010Y22542209D01*
X26015010Y22542209D02*
X26787229Y21769990D01*
X26787229Y21769990D02*
X34404990Y21769990D01*
X34404990Y21769990D02*
X38135000Y25500000D01*
X24765000Y30940000D02*
X24765000Y28400000D01*
X24765000Y40335000D02*
X23514990Y39084990D01*
X23514990Y39084990D02*
X23514990Y32190010D01*
X23514990Y32190010D02*
X24765000Y30940000D01*
X24765000Y42875000D02*
X24765000Y40335000D01*
X-1885010Y32190010D02*
X-635000Y30940000D01*
X-1885010Y33620010D02*
X-1885010Y32190010D01*
X-1885010Y39084990D02*
X-1885010Y33620010D01*
X-635000Y30940000D02*
X-635000Y28400000D01*
X-635000Y40335000D02*
X-1885010Y39084990D01*
X-635000Y42875000D02*
X-635000Y40335000D01*
X-38582500Y33400000D02*
X-2105020Y33400000D01*
X-41150000Y30832500D02*
X-38582500Y33400000D01*
X-40865000Y27615000D02*
X-41150000Y27900000D01*
X-41150000Y27900000D02*
X-41150000Y30832500D01*
X-40865000Y25500000D02*
X-40865000Y27615000D01*
X-32565000Y21200000D02*
X-34065000Y22700000D01*
X-687219Y21200000D02*
X-32565000Y21200000D01*
X654990Y22542209D02*
X-687219Y21200000D01*
X1905000Y28400000D02*
X654990Y27149990D01*
X654990Y27149990D02*
X654990Y22542209D01*
X-34065000Y22700000D02*
X-36865000Y25500000D01*
X1905000Y30940000D02*
X1905000Y28400000D01*
X1905000Y40335000D02*
X654990Y39084990D01*
X654990Y39084990D02*
X654990Y32190010D01*
X654990Y32190010D02*
X1905000Y30940000D01*
X1905000Y42875000D02*
X1905000Y40335000D01*
D23*
X-21600000Y-8450010D02*
X-22300000Y-8450010D01*
D24*
X29845000Y17323000D02*
X29845000Y14783000D01*
D23*
X29845000Y18545000D02*
X29845000Y17323000D01*
X30600000Y19300000D02*
X29845000Y18545000D01*
X-21600000Y-8450010D02*
X-20974990Y-8450010D01*
X-20974990Y-8450010D02*
X-20725000Y-8700000D01*
X29425000Y-3675000D02*
X33050000Y-50000D01*
X5050000Y-8700000D02*
X10075000Y-3675000D01*
X33050000Y11650000D02*
X34325000Y12925000D01*
X10075000Y-3675000D02*
X29425000Y-3675000D01*
X38500000Y18100000D02*
X37300000Y19300000D01*
X-20725000Y-8700000D02*
X5050000Y-8700000D01*
X33050000Y-50000D02*
X33050000Y11650000D01*
X34325000Y12925000D02*
X37375000Y12925000D01*
X37375000Y12925000D02*
X38500000Y14050000D01*
X37300000Y19300000D02*
X30600000Y19300000D01*
X38500000Y14050000D02*
X38500000Y18100000D01*
D22*
X-36195000Y12070000D02*
X-36195000Y16510000D01*
X-40850000Y7415000D02*
X-36195000Y12070000D01*
X-40850000Y-20000000D02*
X-40850000Y7415000D01*
X-38100000Y-22750000D02*
X-40850000Y-20000000D01*
X-33800000Y-22750000D02*
X-38100000Y-22750000D01*
X-32475010Y-21425010D02*
X-33800000Y-22750000D01*
X-30350000Y-21425010D02*
X-32475010Y-21425010D01*
D23*
X-31281875Y-12166948D02*
X-31299891Y-12148932D01*
X1100000Y-15107583D02*
X1100000Y-15024957D01*
D22*
X-38450000Y-20500000D02*
X-39750000Y-19200000D01*
X-25750000Y-20500000D02*
X-38450000Y-20500000D01*
X-35529000Y19400000D02*
X-37305000Y19400000D01*
X-32415000Y16286000D02*
X-35529000Y19400000D01*
X-37305000Y19400000D02*
X-40865000Y22960000D01*
X-32415000Y11750000D02*
X-32415000Y16286000D01*
X-36140000Y10675000D02*
X-33490000Y10675000D01*
X-39750000Y7065000D02*
X-36140000Y10675000D01*
X-33490000Y10675000D02*
X-32415000Y11750000D01*
X-39750000Y4450000D02*
X-39750000Y7065000D01*
X-39750000Y-19200000D02*
X-39750000Y4450000D01*
X-31450000Y-19500000D02*
X-25750000Y-19500000D01*
X-34200000Y-17700000D02*
X-32400000Y-19500000D01*
X-38650000Y-16550000D02*
X-37500000Y-17700000D01*
X-37500000Y-17700000D02*
X-34200000Y-17700000D01*
X-32400000Y-19500000D02*
X-31450000Y-19500000D01*
X-27315000Y16266000D02*
X-31115000Y20066000D01*
X-27315000Y11750000D02*
X-27315000Y16266000D01*
X-31115000Y20066000D02*
X-33971000Y20066000D01*
X-29515000Y9550000D02*
X-27315000Y11750000D01*
X-35665000Y9550000D02*
X-29515000Y9550000D01*
X-33971000Y20066000D02*
X-36865000Y22960000D01*
X-38650000Y3250000D02*
X-38650000Y6565000D01*
X-38650000Y6565000D02*
X-35665000Y9550000D01*
X-38650000Y3250000D02*
X-38650000Y-16550000D01*
D25*
X-35318700Y17901680D02*
X-35318700Y13213260D01*
X-35946260Y12585700D01*
X-36443740Y12585700D01*
X-37071300Y13213260D01*
X-37071300Y17901799D01*
X-36709679Y18269300D01*
X-35692202Y18269300D01*
X-35318700Y17901680D01*
G04 #@! TA.AperFunction,Conductor*
D26*
G36*
X-35318700Y17901680D02*
G01*
X-35318700Y13213260D01*
X-35946260Y12585700D01*
X-36443740Y12585700D01*
X-37071300Y13213260D01*
X-37071300Y17901799D01*
X-36709679Y18269300D01*
X-35692202Y18269300D01*
X-35318700Y17901680D01*
G37*
G04 #@! TD.AperFunction*
D25*
X-30111700Y17846180D02*
X-30111700Y14256760D01*
X-32136260Y12232200D01*
X-32633740Y12232200D01*
X-34658300Y14256760D01*
X-34658300Y17901740D01*
X-34221240Y18338800D01*
X-30612202Y18338800D01*
X-30111700Y17846180D01*
G04 #@! TA.AperFunction,Conductor*
D26*
G36*
X-30111700Y17846180D02*
G01*
X-30111700Y14256760D01*
X-32136260Y12232200D01*
X-32633740Y12232200D01*
X-34658300Y14256760D01*
X-34658300Y17901740D01*
X-34221240Y18338800D01*
X-30612202Y18338800D01*
X-30111700Y17846180D01*
G37*
G04 #@! TD.AperFunction*
D25*
X-25031700Y17846180D02*
X-25031700Y14256760D01*
X-27056260Y12232200D01*
X-27553740Y12232200D01*
X-29578300Y14256760D01*
X-29578300Y17965240D01*
X-29204740Y18338800D01*
X-25532202Y18338800D01*
X-25031700Y17846180D01*
G04 #@! TA.AperFunction,Conductor*
D26*
G36*
X-25031700Y17846180D02*
G01*
X-25031700Y14256760D01*
X-27056260Y12232200D01*
X-27553740Y12232200D01*
X-29578300Y14256760D01*
X-29578300Y17965240D01*
X-29204740Y18338800D01*
X-25532202Y18338800D01*
X-25031700Y17846180D01*
G37*
G04 #@! TD.AperFunction*
D27*
X14910197Y-14489803D02*
X14929443Y-14505597D01*
X14951399Y-14517333D01*
X14975224Y-14524560D01*
X15000000Y-14527000D01*
X18000000Y-14527000D01*
X18024776Y-14524560D01*
X18048601Y-14517333D01*
X18070557Y-14505597D01*
X18089803Y-14489803D01*
X18452606Y-14127000D01*
X20273000Y-14127000D01*
X20273000Y-14186755D01*
X20297095Y-14307890D01*
X20344360Y-14421997D01*
X20412977Y-14524690D01*
X20500311Y-14612024D01*
X20603004Y-14680641D01*
X20717111Y-14727906D01*
X20838246Y-14752001D01*
X20961754Y-14752001D01*
X21082889Y-14727906D01*
X21196996Y-14680641D01*
X21299689Y-14612024D01*
X21387023Y-14524690D01*
X21455640Y-14421997D01*
X21502905Y-14307890D01*
X21527000Y-14186755D01*
X21527000Y-14127000D01*
X34946959Y-14127000D01*
X43373000Y-22652171D01*
X43373000Y-32447394D01*
X36947394Y-38873000D01*
X22852606Y-38873000D01*
X20629606Y-36650000D01*
X31321418Y-36650000D01*
X31321418Y-38350000D01*
X31327732Y-38414103D01*
X31346430Y-38475743D01*
X31376794Y-38532550D01*
X31417657Y-38582343D01*
X31467450Y-38623206D01*
X31524257Y-38653570D01*
X31585897Y-38672268D01*
X31650000Y-38678582D01*
X33350000Y-38678582D01*
X33414103Y-38672268D01*
X33475743Y-38653570D01*
X33532550Y-38623206D01*
X33582343Y-38582343D01*
X33623206Y-38532550D01*
X33653570Y-38475743D01*
X33672268Y-38414103D01*
X33678582Y-38350000D01*
X33678582Y-37384076D01*
X33863000Y-37384076D01*
X33863000Y-37615924D01*
X33908231Y-37843318D01*
X33996956Y-38057519D01*
X34125764Y-38250294D01*
X34289706Y-38414236D01*
X34482481Y-38543044D01*
X34696682Y-38631769D01*
X34924076Y-38677000D01*
X35155924Y-38677000D01*
X35383318Y-38631769D01*
X35597519Y-38543044D01*
X35790294Y-38414236D01*
X35954236Y-38250294D01*
X36083044Y-38057519D01*
X36171769Y-37843318D01*
X36217000Y-37615924D01*
X36217000Y-37384076D01*
X36171769Y-37156682D01*
X36083044Y-36942481D01*
X35954236Y-36749706D01*
X35790294Y-36585764D01*
X35597519Y-36456956D01*
X35383318Y-36368231D01*
X35155924Y-36323000D01*
X34924076Y-36323000D01*
X34696682Y-36368231D01*
X34482481Y-36456956D01*
X34289706Y-36585764D01*
X34125764Y-36749706D01*
X33996956Y-36942481D01*
X33908231Y-37156682D01*
X33863000Y-37384076D01*
X33678582Y-37384076D01*
X33678582Y-36650000D01*
X33672268Y-36585897D01*
X33653570Y-36524257D01*
X33623206Y-36467450D01*
X33582343Y-36417657D01*
X33532550Y-36376794D01*
X33475743Y-36346430D01*
X33414103Y-36327732D01*
X33350000Y-36321418D01*
X31650000Y-36321418D01*
X31585897Y-36327732D01*
X31524257Y-36346430D01*
X31467450Y-36376794D01*
X31417657Y-36417657D01*
X31376794Y-36467450D01*
X31346430Y-36524257D01*
X31327732Y-36585897D01*
X31321418Y-36650000D01*
X20629606Y-36650000D01*
X18061219Y-34081613D01*
X22445889Y-34081613D01*
X22903769Y-34519799D01*
X23630727Y-34861122D01*
X24410304Y-35054064D01*
X25212544Y-35091210D01*
X26006615Y-34971133D01*
X26358585Y-34844076D01*
X31323000Y-34844076D01*
X31323000Y-35075924D01*
X31368231Y-35303318D01*
X31456956Y-35517519D01*
X31585764Y-35710294D01*
X31749706Y-35874236D01*
X31942481Y-36003044D01*
X32156682Y-36091769D01*
X32384076Y-36137000D01*
X32615924Y-36137000D01*
X32843318Y-36091769D01*
X33057519Y-36003044D01*
X33250294Y-35874236D01*
X33414236Y-35710294D01*
X33543044Y-35517519D01*
X33631769Y-35303318D01*
X33677000Y-35075924D01*
X33677000Y-34844076D01*
X33863000Y-34844076D01*
X33863000Y-35075924D01*
X33908231Y-35303318D01*
X33996956Y-35517519D01*
X34125764Y-35710294D01*
X34289706Y-35874236D01*
X34482481Y-36003044D01*
X34696682Y-36091769D01*
X34924076Y-36137000D01*
X35155924Y-36137000D01*
X35383318Y-36091769D01*
X35597519Y-36003044D01*
X35790294Y-35874236D01*
X35954236Y-35710294D01*
X36083044Y-35517519D01*
X36171769Y-35303318D01*
X36217000Y-35075924D01*
X36217000Y-34844076D01*
X36171769Y-34616682D01*
X36083044Y-34402481D01*
X35954236Y-34209706D01*
X35790294Y-34045764D01*
X35597519Y-33916956D01*
X35383318Y-33828231D01*
X35155924Y-33783000D01*
X34924076Y-33783000D01*
X34696682Y-33828231D01*
X34482481Y-33916956D01*
X34289706Y-34045764D01*
X34125764Y-34209706D01*
X33996956Y-34402481D01*
X33908231Y-34616682D01*
X33863000Y-34844076D01*
X33677000Y-34844076D01*
X33631769Y-34616682D01*
X33543044Y-34402481D01*
X33414236Y-34209706D01*
X33250294Y-34045764D01*
X33057519Y-33916956D01*
X32843318Y-33828231D01*
X32615924Y-33783000D01*
X32384076Y-33783000D01*
X32156682Y-33828231D01*
X31942481Y-33916956D01*
X31749706Y-34045764D01*
X31585764Y-34209706D01*
X31456956Y-34402481D01*
X31368231Y-34616682D01*
X31323000Y-34844076D01*
X26358585Y-34844076D01*
X26762002Y-34698448D01*
X27096231Y-34519799D01*
X27554111Y-34081613D01*
X25000000Y-31527502D01*
X22445889Y-34081613D01*
X18061219Y-34081613D01*
X15192150Y-31212544D01*
X20908790Y-31212544D01*
X21028867Y-32006615D01*
X21301552Y-32762002D01*
X21480201Y-33096231D01*
X21918387Y-33554111D01*
X24472498Y-31000000D01*
X25527502Y-31000000D01*
X28081613Y-33554111D01*
X28519799Y-33096231D01*
X28861122Y-32369273D01*
X28877257Y-32304076D01*
X31323000Y-32304076D01*
X31323000Y-32535924D01*
X31368231Y-32763318D01*
X31456956Y-32977519D01*
X31585764Y-33170294D01*
X31749706Y-33334236D01*
X31942481Y-33463044D01*
X32156682Y-33551769D01*
X32384076Y-33597000D01*
X32615924Y-33597000D01*
X32843318Y-33551769D01*
X33057519Y-33463044D01*
X33250294Y-33334236D01*
X33414236Y-33170294D01*
X33543044Y-32977519D01*
X33631769Y-32763318D01*
X33677000Y-32535924D01*
X33677000Y-32304076D01*
X33863000Y-32304076D01*
X33863000Y-32535924D01*
X33908231Y-32763318D01*
X33996956Y-32977519D01*
X34125764Y-33170294D01*
X34289706Y-33334236D01*
X34482481Y-33463044D01*
X34696682Y-33551769D01*
X34924076Y-33597000D01*
X35155924Y-33597000D01*
X35383318Y-33551769D01*
X35597519Y-33463044D01*
X35790294Y-33334236D01*
X35954236Y-33170294D01*
X36083044Y-32977519D01*
X36171769Y-32763318D01*
X36217000Y-32535924D01*
X36217000Y-32304076D01*
X36171769Y-32076682D01*
X36083044Y-31862481D01*
X35954236Y-31669706D01*
X35790294Y-31505764D01*
X35597519Y-31376956D01*
X35383318Y-31288231D01*
X35155924Y-31243000D01*
X34924076Y-31243000D01*
X34696682Y-31288231D01*
X34482481Y-31376956D01*
X34289706Y-31505764D01*
X34125764Y-31669706D01*
X33996956Y-31862481D01*
X33908231Y-32076682D01*
X33863000Y-32304076D01*
X33677000Y-32304076D01*
X33631769Y-32076682D01*
X33543044Y-31862481D01*
X33414236Y-31669706D01*
X33250294Y-31505764D01*
X33057519Y-31376956D01*
X32843318Y-31288231D01*
X32615924Y-31243000D01*
X32384076Y-31243000D01*
X32156682Y-31288231D01*
X31942481Y-31376956D01*
X31749706Y-31505764D01*
X31585764Y-31669706D01*
X31456956Y-31862481D01*
X31368231Y-32076682D01*
X31323000Y-32304076D01*
X28877257Y-32304076D01*
X29054064Y-31589696D01*
X29091210Y-30787456D01*
X28971133Y-29993385D01*
X28888356Y-29764076D01*
X31323000Y-29764076D01*
X31323000Y-29995924D01*
X31368231Y-30223318D01*
X31456956Y-30437519D01*
X31585764Y-30630294D01*
X31749706Y-30794236D01*
X31942481Y-30923044D01*
X32156682Y-31011769D01*
X32384076Y-31057000D01*
X32615924Y-31057000D01*
X32843318Y-31011769D01*
X33057519Y-30923044D01*
X33250294Y-30794236D01*
X33414236Y-30630294D01*
X33543044Y-30437519D01*
X33631769Y-30223318D01*
X33677000Y-29995924D01*
X33677000Y-29764076D01*
X33863000Y-29764076D01*
X33863000Y-29995924D01*
X33908231Y-30223318D01*
X33996956Y-30437519D01*
X34125764Y-30630294D01*
X34289706Y-30794236D01*
X34482481Y-30923044D01*
X34696682Y-31011769D01*
X34924076Y-31057000D01*
X35155924Y-31057000D01*
X35383318Y-31011769D01*
X35597519Y-30923044D01*
X35790294Y-30794236D01*
X35954236Y-30630294D01*
X36083044Y-30437519D01*
X36171769Y-30223318D01*
X36217000Y-29995924D01*
X36217000Y-29764076D01*
X36171769Y-29536682D01*
X36083044Y-29322481D01*
X35954236Y-29129706D01*
X35790294Y-28965764D01*
X35597519Y-28836956D01*
X35383318Y-28748231D01*
X35155924Y-28703000D01*
X34924076Y-28703000D01*
X34696682Y-28748231D01*
X34482481Y-28836956D01*
X34289706Y-28965764D01*
X34125764Y-29129706D01*
X33996956Y-29322481D01*
X33908231Y-29536682D01*
X33863000Y-29764076D01*
X33677000Y-29764076D01*
X33631769Y-29536682D01*
X33543044Y-29322481D01*
X33414236Y-29129706D01*
X33250294Y-28965764D01*
X33057519Y-28836956D01*
X32843318Y-28748231D01*
X32615924Y-28703000D01*
X32384076Y-28703000D01*
X32156682Y-28748231D01*
X31942481Y-28836956D01*
X31749706Y-28965764D01*
X31585764Y-29129706D01*
X31456956Y-29322481D01*
X31368231Y-29536682D01*
X31323000Y-29764076D01*
X28888356Y-29764076D01*
X28698448Y-29237998D01*
X28519799Y-28903769D01*
X28081613Y-28445889D01*
X25527502Y-31000000D01*
X24472498Y-31000000D01*
X21918387Y-28445889D01*
X21480201Y-28903769D01*
X21138878Y-29630727D01*
X20945936Y-30410304D01*
X20908790Y-31212544D01*
X15192150Y-31212544D01*
X11897993Y-27918387D01*
X22445889Y-27918387D01*
X25000000Y-30472498D01*
X27554111Y-27918387D01*
X27096231Y-27480201D01*
X26550730Y-27224076D01*
X31323000Y-27224076D01*
X31323000Y-27455924D01*
X31368231Y-27683318D01*
X31456956Y-27897519D01*
X31585764Y-28090294D01*
X31749706Y-28254236D01*
X31942481Y-28383044D01*
X32156682Y-28471769D01*
X32384076Y-28517000D01*
X32615924Y-28517000D01*
X32843318Y-28471769D01*
X33057519Y-28383044D01*
X33250294Y-28254236D01*
X33414236Y-28090294D01*
X33543044Y-27897519D01*
X33631769Y-27683318D01*
X33677000Y-27455924D01*
X33677000Y-27224076D01*
X33863000Y-27224076D01*
X33863000Y-27455924D01*
X33908231Y-27683318D01*
X33996956Y-27897519D01*
X34125764Y-28090294D01*
X34289706Y-28254236D01*
X34482481Y-28383044D01*
X34696682Y-28471769D01*
X34924076Y-28517000D01*
X35155924Y-28517000D01*
X35383318Y-28471769D01*
X35597519Y-28383044D01*
X35790294Y-28254236D01*
X35954236Y-28090294D01*
X36083044Y-27897519D01*
X36171769Y-27683318D01*
X36217000Y-27455924D01*
X36217000Y-27224076D01*
X36171769Y-26996682D01*
X36083044Y-26782481D01*
X35954236Y-26589706D01*
X35790294Y-26425764D01*
X35597519Y-26296956D01*
X35383318Y-26208231D01*
X35155924Y-26163000D01*
X34924076Y-26163000D01*
X34696682Y-26208231D01*
X34482481Y-26296956D01*
X34289706Y-26425764D01*
X34125764Y-26589706D01*
X33996956Y-26782481D01*
X33908231Y-26996682D01*
X33863000Y-27224076D01*
X33677000Y-27224076D01*
X33631769Y-26996682D01*
X33543044Y-26782481D01*
X33414236Y-26589706D01*
X33250294Y-26425764D01*
X33057519Y-26296956D01*
X32843318Y-26208231D01*
X32615924Y-26163000D01*
X32384076Y-26163000D01*
X32156682Y-26208231D01*
X31942481Y-26296956D01*
X31749706Y-26425764D01*
X31585764Y-26589706D01*
X31456956Y-26782481D01*
X31368231Y-26996682D01*
X31323000Y-27224076D01*
X26550730Y-27224076D01*
X26369273Y-27138878D01*
X25589696Y-26945936D01*
X24787456Y-26908790D01*
X23993385Y-27028867D01*
X23237998Y-27301552D01*
X22903769Y-27480201D01*
X22445889Y-27918387D01*
X11897993Y-27918387D01*
X9527000Y-25547394D01*
X9527000Y-25343041D01*
X31455761Y-25343041D01*
X31468317Y-25366569D01*
X31598673Y-25556954D01*
X31763666Y-25718250D01*
X31956956Y-25844258D01*
X32127000Y-25834602D01*
X32127000Y-25173000D01*
X32873000Y-25173000D01*
X32873000Y-25834602D01*
X33043044Y-25844258D01*
X33236334Y-25718250D01*
X33401327Y-25556954D01*
X33531683Y-25366569D01*
X33544239Y-25343041D01*
X33995761Y-25343041D01*
X34008317Y-25366569D01*
X34138673Y-25556954D01*
X34303666Y-25718250D01*
X34496956Y-25844258D01*
X34667000Y-25834602D01*
X34667000Y-25173000D01*
X35413000Y-25173000D01*
X35413000Y-25834602D01*
X35583044Y-25844258D01*
X35776334Y-25718250D01*
X35941327Y-25556954D01*
X36071683Y-25366569D01*
X36084239Y-25343041D01*
X36069778Y-25173000D01*
X35413000Y-25173000D01*
X34667000Y-25173000D01*
X34010222Y-25173000D01*
X33995761Y-25343041D01*
X33544239Y-25343041D01*
X33529778Y-25173000D01*
X32873000Y-25173000D01*
X32127000Y-25173000D01*
X31470222Y-25173000D01*
X31455761Y-25343041D01*
X9527000Y-25343041D01*
X9527000Y-24256959D01*
X31455761Y-24256959D01*
X31470222Y-24427000D01*
X32127000Y-24427000D01*
X32127000Y-23765398D01*
X32873000Y-23765398D01*
X32873000Y-24427000D01*
X33529778Y-24427000D01*
X33544239Y-24256959D01*
X33995761Y-24256959D01*
X34010222Y-24427000D01*
X34667000Y-24427000D01*
X34667000Y-23765398D01*
X35413000Y-23765398D01*
X35413000Y-24427000D01*
X36069778Y-24427000D01*
X36084239Y-24256959D01*
X36071683Y-24233431D01*
X35941327Y-24043046D01*
X35776334Y-23881750D01*
X35583044Y-23755742D01*
X35413000Y-23765398D01*
X34667000Y-23765398D01*
X34496956Y-23755742D01*
X34303666Y-23881750D01*
X34138673Y-24043046D01*
X34008317Y-24233431D01*
X33995761Y-24256959D01*
X33544239Y-24256959D01*
X33531683Y-24233431D01*
X33401327Y-24043046D01*
X33236334Y-23881750D01*
X33043044Y-23755742D01*
X32873000Y-23765398D01*
X32127000Y-23765398D01*
X31956956Y-23755742D01*
X31763666Y-23881750D01*
X31598673Y-24043046D01*
X31468317Y-24233431D01*
X31455761Y-24256959D01*
X9527000Y-24256959D01*
X9527000Y-22144076D01*
X31323000Y-22144076D01*
X31323000Y-22375924D01*
X31368231Y-22603318D01*
X31456956Y-22817519D01*
X31585764Y-23010294D01*
X31749706Y-23174236D01*
X31942481Y-23303044D01*
X32156682Y-23391769D01*
X32384076Y-23437000D01*
X32615924Y-23437000D01*
X32843318Y-23391769D01*
X33057519Y-23303044D01*
X33250294Y-23174236D01*
X33414236Y-23010294D01*
X33543044Y-22817519D01*
X33631769Y-22603318D01*
X33677000Y-22375924D01*
X33677000Y-22144076D01*
X33863000Y-22144076D01*
X33863000Y-22375924D01*
X33908231Y-22603318D01*
X33996956Y-22817519D01*
X34125764Y-23010294D01*
X34289706Y-23174236D01*
X34482481Y-23303044D01*
X34696682Y-23391769D01*
X34924076Y-23437000D01*
X35155924Y-23437000D01*
X35383318Y-23391769D01*
X35597519Y-23303044D01*
X35790294Y-23174236D01*
X35954236Y-23010294D01*
X36083044Y-22817519D01*
X36171769Y-22603318D01*
X36217000Y-22375924D01*
X36217000Y-22144076D01*
X36171769Y-21916682D01*
X36083044Y-21702481D01*
X35954236Y-21509706D01*
X35790294Y-21345764D01*
X35597519Y-21216956D01*
X35383318Y-21128231D01*
X35155924Y-21083000D01*
X34924076Y-21083000D01*
X34696682Y-21128231D01*
X34482481Y-21216956D01*
X34289706Y-21345764D01*
X34125764Y-21509706D01*
X33996956Y-21702481D01*
X33908231Y-21916682D01*
X33863000Y-22144076D01*
X33677000Y-22144076D01*
X33631769Y-21916682D01*
X33543044Y-21702481D01*
X33414236Y-21509706D01*
X33250294Y-21345764D01*
X33057519Y-21216956D01*
X32843318Y-21128231D01*
X32615924Y-21083000D01*
X32384076Y-21083000D01*
X32156682Y-21128231D01*
X31942481Y-21216956D01*
X31749706Y-21345764D01*
X31585764Y-21509706D01*
X31456956Y-21702481D01*
X31368231Y-21916682D01*
X31323000Y-22144076D01*
X9527000Y-22144076D01*
X9527000Y-19188214D01*
X20897998Y-19188214D01*
X20897998Y-19311722D01*
X20922093Y-19432857D01*
X20969358Y-19546964D01*
X21037975Y-19649657D01*
X21125309Y-19736991D01*
X21228002Y-19805608D01*
X21342109Y-19852873D01*
X21463244Y-19876968D01*
X21586752Y-19876968D01*
X21707887Y-19852873D01*
X21821994Y-19805608D01*
X21924687Y-19736991D01*
X22012021Y-19649657D01*
X22080638Y-19546964D01*
X22127903Y-19432857D01*
X22151998Y-19311722D01*
X22151998Y-19188214D01*
X22127903Y-19067079D01*
X22080638Y-18952972D01*
X22012021Y-18850279D01*
X21924687Y-18762945D01*
X21821994Y-18694328D01*
X21707887Y-18647063D01*
X21586752Y-18622968D01*
X21463244Y-18622968D01*
X21342109Y-18647063D01*
X21228002Y-18694328D01*
X21125309Y-18762945D01*
X21037975Y-18850279D01*
X20969358Y-18952972D01*
X20922093Y-19067079D01*
X20897998Y-19188214D01*
X9527000Y-19188214D01*
X9527000Y-17188246D01*
X10873000Y-17188246D01*
X10873000Y-17311754D01*
X10897095Y-17432889D01*
X10944360Y-17546996D01*
X11012977Y-17649689D01*
X11100311Y-17737023D01*
X11203004Y-17805640D01*
X11310098Y-17850000D01*
X11203004Y-17894360D01*
X11100311Y-17962977D01*
X11012977Y-18050311D01*
X10944360Y-18153004D01*
X10897095Y-18267111D01*
X10873000Y-18388246D01*
X10873000Y-18511754D01*
X10897095Y-18632889D01*
X10944360Y-18746996D01*
X11012977Y-18849689D01*
X11100311Y-18937023D01*
X11203004Y-19005640D01*
X11317111Y-19052905D01*
X11438246Y-19077000D01*
X11561754Y-19077000D01*
X11682889Y-19052905D01*
X11796996Y-19005640D01*
X11899689Y-18937023D01*
X11987023Y-18849689D01*
X12055640Y-18746996D01*
X12102905Y-18632889D01*
X12127000Y-18511754D01*
X12127000Y-18502000D01*
X12127440Y-18502000D01*
X12248575Y-18477905D01*
X12362682Y-18430640D01*
X12465375Y-18362023D01*
X12552709Y-18274689D01*
X12621326Y-18171996D01*
X12668591Y-18057889D01*
X12692686Y-17936754D01*
X12692686Y-17813246D01*
X12668591Y-17692111D01*
X12621326Y-17578004D01*
X12552709Y-17475311D01*
X12465375Y-17387977D01*
X12362682Y-17319360D01*
X12248575Y-17272095D01*
X12147550Y-17252000D01*
X12156390Y-17252000D01*
X12277525Y-17227905D01*
X12391632Y-17180640D01*
X12494325Y-17112023D01*
X12581659Y-17024689D01*
X12650276Y-16921996D01*
X12697541Y-16807889D01*
X12721636Y-16686754D01*
X12721636Y-16563246D01*
X12711691Y-16513246D01*
X20273000Y-16513246D01*
X20273000Y-16636754D01*
X20297095Y-16757889D01*
X20344360Y-16871996D01*
X20412977Y-16974689D01*
X20500311Y-17062023D01*
X20603004Y-17130640D01*
X20717111Y-17177905D01*
X20838246Y-17202000D01*
X20873000Y-17202000D01*
X20873000Y-17298000D01*
X20838246Y-17298000D01*
X20717111Y-17322095D01*
X20603004Y-17369360D01*
X20500311Y-17437977D01*
X20412977Y-17525311D01*
X20344360Y-17628004D01*
X20297095Y-17742111D01*
X20273000Y-17863246D01*
X20273000Y-17986754D01*
X20297095Y-18107889D01*
X20344360Y-18221996D01*
X20412977Y-18324689D01*
X20500311Y-18412023D01*
X20603004Y-18480640D01*
X20717111Y-18527905D01*
X20838246Y-18552000D01*
X20961754Y-18552000D01*
X21082889Y-18527905D01*
X21196996Y-18480640D01*
X21299689Y-18412023D01*
X21387023Y-18324689D01*
X21455640Y-18221996D01*
X21502905Y-18107889D01*
X21527000Y-17986754D01*
X21527000Y-17877000D01*
X21561754Y-17877000D01*
X21682889Y-17852905D01*
X21796996Y-17805640D01*
X21899689Y-17737023D01*
X21987023Y-17649689D01*
X22055640Y-17546996D01*
X22102905Y-17432889D01*
X22127000Y-17311754D01*
X22127000Y-17188246D01*
X22102905Y-17067111D01*
X22055640Y-16953004D01*
X21987023Y-16850311D01*
X21899689Y-16762977D01*
X21796996Y-16694360D01*
X21682889Y-16647095D01*
X21561754Y-16623000D01*
X21527000Y-16623000D01*
X21527000Y-16513246D01*
X21502905Y-16392111D01*
X21455640Y-16278004D01*
X21387023Y-16175311D01*
X21299689Y-16087977D01*
X21196996Y-16019360D01*
X21082889Y-15972095D01*
X20961754Y-15948000D01*
X20838246Y-15948000D01*
X20717111Y-15972095D01*
X20603004Y-16019360D01*
X20500311Y-16087977D01*
X20412977Y-16175311D01*
X20344360Y-16278004D01*
X20297095Y-16392111D01*
X20273000Y-16513246D01*
X12711691Y-16513246D01*
X12697541Y-16442111D01*
X12650276Y-16328004D01*
X12581659Y-16225311D01*
X12494325Y-16137977D01*
X12391632Y-16069360D01*
X12277525Y-16022095D01*
X12156390Y-15998000D01*
X12142399Y-15998000D01*
X12120517Y-15887993D01*
X12099911Y-15838246D01*
X21398000Y-15838246D01*
X21398000Y-15961754D01*
X21422095Y-16082889D01*
X21469360Y-16196996D01*
X21537977Y-16299689D01*
X21625311Y-16387023D01*
X21728004Y-16455640D01*
X21842111Y-16502905D01*
X21963246Y-16527000D01*
X22086754Y-16527000D01*
X22207889Y-16502905D01*
X22321996Y-16455640D01*
X22424689Y-16387023D01*
X22512023Y-16299689D01*
X22580640Y-16196996D01*
X22627905Y-16082889D01*
X22652000Y-15961754D01*
X22652000Y-15838246D01*
X22627905Y-15717111D01*
X22580640Y-15603004D01*
X22512023Y-15500311D01*
X22424689Y-15412977D01*
X22321996Y-15344360D01*
X22207889Y-15297095D01*
X22086754Y-15273000D01*
X21963246Y-15273000D01*
X21842111Y-15297095D01*
X21728004Y-15344360D01*
X21625311Y-15412977D01*
X21537977Y-15500311D01*
X21469360Y-15603004D01*
X21422095Y-15717111D01*
X21398000Y-15838246D01*
X12099911Y-15838246D01*
X12073252Y-15773886D01*
X12004635Y-15671193D01*
X11917301Y-15583859D01*
X11814608Y-15515242D01*
X11700501Y-15467977D01*
X11579366Y-15443882D01*
X11455858Y-15443882D01*
X11334723Y-15467977D01*
X11220616Y-15515242D01*
X11117923Y-15583859D01*
X11030589Y-15671193D01*
X10961972Y-15773886D01*
X10914707Y-15887993D01*
X10890612Y-16009128D01*
X10890612Y-16132636D01*
X10914707Y-16253771D01*
X10961972Y-16367878D01*
X11030589Y-16470571D01*
X11117923Y-16557905D01*
X11220616Y-16626522D01*
X11293697Y-16656793D01*
X11203004Y-16694360D01*
X11100311Y-16762977D01*
X11012977Y-16850311D01*
X10944360Y-16953004D01*
X10897095Y-17067111D01*
X10873000Y-17188246D01*
X9527000Y-17188246D01*
X9527000Y-16052606D01*
X11096447Y-14483159D01*
X11100311Y-14487023D01*
X11203004Y-14555640D01*
X11317111Y-14602905D01*
X11438246Y-14627000D01*
X11561754Y-14627000D01*
X11682889Y-14602905D01*
X11796996Y-14555640D01*
X11899689Y-14487023D01*
X11987023Y-14399689D01*
X12055640Y-14296996D01*
X12102905Y-14182889D01*
X12114022Y-14127000D01*
X14547394Y-14127000D01*
X14910197Y-14489803D01*
G04 #@! TA.AperFunction,Conductor*
D26*
G36*
X14910197Y-14489803D02*
G01*
X14929443Y-14505597D01*
X14951399Y-14517333D01*
X14975224Y-14524560D01*
X15000000Y-14527000D01*
X18000000Y-14527000D01*
X18024776Y-14524560D01*
X18048601Y-14517333D01*
X18070557Y-14505597D01*
X18089803Y-14489803D01*
X18452606Y-14127000D01*
X20273000Y-14127000D01*
X20273000Y-14186755D01*
X20297095Y-14307890D01*
X20344360Y-14421997D01*
X20412977Y-14524690D01*
X20500311Y-14612024D01*
X20603004Y-14680641D01*
X20717111Y-14727906D01*
X20838246Y-14752001D01*
X20961754Y-14752001D01*
X21082889Y-14727906D01*
X21196996Y-14680641D01*
X21299689Y-14612024D01*
X21387023Y-14524690D01*
X21455640Y-14421997D01*
X21502905Y-14307890D01*
X21527000Y-14186755D01*
X21527000Y-14127000D01*
X34946959Y-14127000D01*
X43373000Y-22652171D01*
X43373000Y-32447394D01*
X36947394Y-38873000D01*
X22852606Y-38873000D01*
X20629606Y-36650000D01*
X31321418Y-36650000D01*
X31321418Y-38350000D01*
X31327732Y-38414103D01*
X31346430Y-38475743D01*
X31376794Y-38532550D01*
X31417657Y-38582343D01*
X31467450Y-38623206D01*
X31524257Y-38653570D01*
X31585897Y-38672268D01*
X31650000Y-38678582D01*
X33350000Y-38678582D01*
X33414103Y-38672268D01*
X33475743Y-38653570D01*
X33532550Y-38623206D01*
X33582343Y-38582343D01*
X33623206Y-38532550D01*
X33653570Y-38475743D01*
X33672268Y-38414103D01*
X33678582Y-38350000D01*
X33678582Y-37384076D01*
X33863000Y-37384076D01*
X33863000Y-37615924D01*
X33908231Y-37843318D01*
X33996956Y-38057519D01*
X34125764Y-38250294D01*
X34289706Y-38414236D01*
X34482481Y-38543044D01*
X34696682Y-38631769D01*
X34924076Y-38677000D01*
X35155924Y-38677000D01*
X35383318Y-38631769D01*
X35597519Y-38543044D01*
X35790294Y-38414236D01*
X35954236Y-38250294D01*
X36083044Y-38057519D01*
X36171769Y-37843318D01*
X36217000Y-37615924D01*
X36217000Y-37384076D01*
X36171769Y-37156682D01*
X36083044Y-36942481D01*
X35954236Y-36749706D01*
X35790294Y-36585764D01*
X35597519Y-36456956D01*
X35383318Y-36368231D01*
X35155924Y-36323000D01*
X34924076Y-36323000D01*
X34696682Y-36368231D01*
X34482481Y-36456956D01*
X34289706Y-36585764D01*
X34125764Y-36749706D01*
X33996956Y-36942481D01*
X33908231Y-37156682D01*
X33863000Y-37384076D01*
X33678582Y-37384076D01*
X33678582Y-36650000D01*
X33672268Y-36585897D01*
X33653570Y-36524257D01*
X33623206Y-36467450D01*
X33582343Y-36417657D01*
X33532550Y-36376794D01*
X33475743Y-36346430D01*
X33414103Y-36327732D01*
X33350000Y-36321418D01*
X31650000Y-36321418D01*
X31585897Y-36327732D01*
X31524257Y-36346430D01*
X31467450Y-36376794D01*
X31417657Y-36417657D01*
X31376794Y-36467450D01*
X31346430Y-36524257D01*
X31327732Y-36585897D01*
X31321418Y-36650000D01*
X20629606Y-36650000D01*
X18061219Y-34081613D01*
X22445889Y-34081613D01*
X22903769Y-34519799D01*
X23630727Y-34861122D01*
X24410304Y-35054064D01*
X25212544Y-35091210D01*
X26006615Y-34971133D01*
X26358585Y-34844076D01*
X31323000Y-34844076D01*
X31323000Y-35075924D01*
X31368231Y-35303318D01*
X31456956Y-35517519D01*
X31585764Y-35710294D01*
X31749706Y-35874236D01*
X31942481Y-36003044D01*
X32156682Y-36091769D01*
X32384076Y-36137000D01*
X32615924Y-36137000D01*
X32843318Y-36091769D01*
X33057519Y-36003044D01*
X33250294Y-35874236D01*
X33414236Y-35710294D01*
X33543044Y-35517519D01*
X33631769Y-35303318D01*
X33677000Y-35075924D01*
X33677000Y-34844076D01*
X33863000Y-34844076D01*
X33863000Y-35075924D01*
X33908231Y-35303318D01*
X33996956Y-35517519D01*
X34125764Y-35710294D01*
X34289706Y-35874236D01*
X34482481Y-36003044D01*
X34696682Y-36091769D01*
X34924076Y-36137000D01*
X35155924Y-36137000D01*
X35383318Y-36091769D01*
X35597519Y-36003044D01*
X35790294Y-35874236D01*
X35954236Y-35710294D01*
X36083044Y-35517519D01*
X36171769Y-35303318D01*
X36217000Y-35075924D01*
X36217000Y-34844076D01*
X36171769Y-34616682D01*
X36083044Y-34402481D01*
X35954236Y-34209706D01*
X35790294Y-34045764D01*
X35597519Y-33916956D01*
X35383318Y-33828231D01*
X35155924Y-33783000D01*
X34924076Y-33783000D01*
X34696682Y-33828231D01*
X34482481Y-33916956D01*
X34289706Y-34045764D01*
X34125764Y-34209706D01*
X33996956Y-34402481D01*
X33908231Y-34616682D01*
X33863000Y-34844076D01*
X33677000Y-34844076D01*
X33631769Y-34616682D01*
X33543044Y-34402481D01*
X33414236Y-34209706D01*
X33250294Y-34045764D01*
X33057519Y-33916956D01*
X32843318Y-33828231D01*
X32615924Y-33783000D01*
X32384076Y-33783000D01*
X32156682Y-33828231D01*
X31942481Y-33916956D01*
X31749706Y-34045764D01*
X31585764Y-34209706D01*
X31456956Y-34402481D01*
X31368231Y-34616682D01*
X31323000Y-34844076D01*
X26358585Y-34844076D01*
X26762002Y-34698448D01*
X27096231Y-34519799D01*
X27554111Y-34081613D01*
X25000000Y-31527502D01*
X22445889Y-34081613D01*
X18061219Y-34081613D01*
X15192150Y-31212544D01*
X20908790Y-31212544D01*
X21028867Y-32006615D01*
X21301552Y-32762002D01*
X21480201Y-33096231D01*
X21918387Y-33554111D01*
X24472498Y-31000000D01*
X25527502Y-31000000D01*
X28081613Y-33554111D01*
X28519799Y-33096231D01*
X28861122Y-32369273D01*
X28877257Y-32304076D01*
X31323000Y-32304076D01*
X31323000Y-32535924D01*
X31368231Y-32763318D01*
X31456956Y-32977519D01*
X31585764Y-33170294D01*
X31749706Y-33334236D01*
X31942481Y-33463044D01*
X32156682Y-33551769D01*
X32384076Y-33597000D01*
X32615924Y-33597000D01*
X32843318Y-33551769D01*
X33057519Y-33463044D01*
X33250294Y-33334236D01*
X33414236Y-33170294D01*
X33543044Y-32977519D01*
X33631769Y-32763318D01*
X33677000Y-32535924D01*
X33677000Y-32304076D01*
X33863000Y-32304076D01*
X33863000Y-32535924D01*
X33908231Y-32763318D01*
X33996956Y-32977519D01*
X34125764Y-33170294D01*
X34289706Y-33334236D01*
X34482481Y-33463044D01*
X34696682Y-33551769D01*
X34924076Y-33597000D01*
X35155924Y-33597000D01*
X35383318Y-33551769D01*
X35597519Y-33463044D01*
X35790294Y-33334236D01*
X35954236Y-33170294D01*
X36083044Y-32977519D01*
X36171769Y-32763318D01*
X36217000Y-32535924D01*
X36217000Y-32304076D01*
X36171769Y-32076682D01*
X36083044Y-31862481D01*
X35954236Y-31669706D01*
X35790294Y-31505764D01*
X35597519Y-31376956D01*
X35383318Y-31288231D01*
X35155924Y-31243000D01*
X34924076Y-31243000D01*
X34696682Y-31288231D01*
X34482481Y-31376956D01*
X34289706Y-31505764D01*
X34125764Y-31669706D01*
X33996956Y-31862481D01*
X33908231Y-32076682D01*
X33863000Y-32304076D01*
X33677000Y-32304076D01*
X33631769Y-32076682D01*
X33543044Y-31862481D01*
X33414236Y-31669706D01*
X33250294Y-31505764D01*
X33057519Y-31376956D01*
X32843318Y-31288231D01*
X32615924Y-31243000D01*
X32384076Y-31243000D01*
X32156682Y-31288231D01*
X31942481Y-31376956D01*
X31749706Y-31505764D01*
X31585764Y-31669706D01*
X31456956Y-31862481D01*
X31368231Y-32076682D01*
X31323000Y-32304076D01*
X28877257Y-32304076D01*
X29054064Y-31589696D01*
X29091210Y-30787456D01*
X28971133Y-29993385D01*
X28888356Y-29764076D01*
X31323000Y-29764076D01*
X31323000Y-29995924D01*
X31368231Y-30223318D01*
X31456956Y-30437519D01*
X31585764Y-30630294D01*
X31749706Y-30794236D01*
X31942481Y-30923044D01*
X32156682Y-31011769D01*
X32384076Y-31057000D01*
X32615924Y-31057000D01*
X32843318Y-31011769D01*
X33057519Y-30923044D01*
X33250294Y-30794236D01*
X33414236Y-30630294D01*
X33543044Y-30437519D01*
X33631769Y-30223318D01*
X33677000Y-29995924D01*
X33677000Y-29764076D01*
X33863000Y-29764076D01*
X33863000Y-29995924D01*
X33908231Y-30223318D01*
X33996956Y-30437519D01*
X34125764Y-30630294D01*
X34289706Y-30794236D01*
X34482481Y-30923044D01*
X34696682Y-31011769D01*
X34924076Y-31057000D01*
X35155924Y-31057000D01*
X35383318Y-31011769D01*
X35597519Y-30923044D01*
X35790294Y-30794236D01*
X35954236Y-30630294D01*
X36083044Y-30437519D01*
X36171769Y-30223318D01*
X36217000Y-29995924D01*
X36217000Y-29764076D01*
X36171769Y-29536682D01*
X36083044Y-29322481D01*
X35954236Y-29129706D01*
X35790294Y-28965764D01*
X35597519Y-28836956D01*
X35383318Y-28748231D01*
X35155924Y-28703000D01*
X34924076Y-28703000D01*
X34696682Y-28748231D01*
X34482481Y-28836956D01*
X34289706Y-28965764D01*
X34125764Y-29129706D01*
X33996956Y-29322481D01*
X33908231Y-29536682D01*
X33863000Y-29764076D01*
X33677000Y-29764076D01*
X33631769Y-29536682D01*
X33543044Y-29322481D01*
X33414236Y-29129706D01*
X33250294Y-28965764D01*
X33057519Y-28836956D01*
X32843318Y-28748231D01*
X32615924Y-28703000D01*
X32384076Y-28703000D01*
X32156682Y-28748231D01*
X31942481Y-28836956D01*
X31749706Y-28965764D01*
X31585764Y-29129706D01*
X31456956Y-29322481D01*
X31368231Y-29536682D01*
X31323000Y-29764076D01*
X28888356Y-29764076D01*
X28698448Y-29237998D01*
X28519799Y-28903769D01*
X28081613Y-28445889D01*
X25527502Y-31000000D01*
X24472498Y-31000000D01*
X21918387Y-28445889D01*
X21480201Y-28903769D01*
X21138878Y-29630727D01*
X20945936Y-30410304D01*
X20908790Y-31212544D01*
X15192150Y-31212544D01*
X11897993Y-27918387D01*
X22445889Y-27918387D01*
X25000000Y-30472498D01*
X27554111Y-27918387D01*
X27096231Y-27480201D01*
X26550730Y-27224076D01*
X31323000Y-27224076D01*
X31323000Y-27455924D01*
X31368231Y-27683318D01*
X31456956Y-27897519D01*
X31585764Y-28090294D01*
X31749706Y-28254236D01*
X31942481Y-28383044D01*
X32156682Y-28471769D01*
X32384076Y-28517000D01*
X32615924Y-28517000D01*
X32843318Y-28471769D01*
X33057519Y-28383044D01*
X33250294Y-28254236D01*
X33414236Y-28090294D01*
X33543044Y-27897519D01*
X33631769Y-27683318D01*
X33677000Y-27455924D01*
X33677000Y-27224076D01*
X33863000Y-27224076D01*
X33863000Y-27455924D01*
X33908231Y-27683318D01*
X33996956Y-27897519D01*
X34125764Y-28090294D01*
X34289706Y-28254236D01*
X34482481Y-28383044D01*
X34696682Y-28471769D01*
X34924076Y-28517000D01*
X35155924Y-28517000D01*
X35383318Y-28471769D01*
X35597519Y-28383044D01*
X35790294Y-28254236D01*
X35954236Y-28090294D01*
X36083044Y-27897519D01*
X36171769Y-27683318D01*
X36217000Y-27455924D01*
X36217000Y-27224076D01*
X36171769Y-26996682D01*
X36083044Y-26782481D01*
X35954236Y-26589706D01*
X35790294Y-26425764D01*
X35597519Y-26296956D01*
X35383318Y-26208231D01*
X35155924Y-26163000D01*
X34924076Y-26163000D01*
X34696682Y-26208231D01*
X34482481Y-26296956D01*
X34289706Y-26425764D01*
X34125764Y-26589706D01*
X33996956Y-26782481D01*
X33908231Y-26996682D01*
X33863000Y-27224076D01*
X33677000Y-27224076D01*
X33631769Y-26996682D01*
X33543044Y-26782481D01*
X33414236Y-26589706D01*
X33250294Y-26425764D01*
X33057519Y-26296956D01*
X32843318Y-26208231D01*
X32615924Y-26163000D01*
X32384076Y-26163000D01*
X32156682Y-26208231D01*
X31942481Y-26296956D01*
X31749706Y-26425764D01*
X31585764Y-26589706D01*
X31456956Y-26782481D01*
X31368231Y-26996682D01*
X31323000Y-27224076D01*
X26550730Y-27224076D01*
X26369273Y-27138878D01*
X25589696Y-26945936D01*
X24787456Y-26908790D01*
X23993385Y-27028867D01*
X23237998Y-27301552D01*
X22903769Y-27480201D01*
X22445889Y-27918387D01*
X11897993Y-27918387D01*
X9527000Y-25547394D01*
X9527000Y-25343041D01*
X31455761Y-25343041D01*
X31468317Y-25366569D01*
X31598673Y-25556954D01*
X31763666Y-25718250D01*
X31956956Y-25844258D01*
X32127000Y-25834602D01*
X32127000Y-25173000D01*
X32873000Y-25173000D01*
X32873000Y-25834602D01*
X33043044Y-25844258D01*
X33236334Y-25718250D01*
X33401327Y-25556954D01*
X33531683Y-25366569D01*
X33544239Y-25343041D01*
X33995761Y-25343041D01*
X34008317Y-25366569D01*
X34138673Y-25556954D01*
X34303666Y-25718250D01*
X34496956Y-25844258D01*
X34667000Y-25834602D01*
X34667000Y-25173000D01*
X35413000Y-25173000D01*
X35413000Y-25834602D01*
X35583044Y-25844258D01*
X35776334Y-25718250D01*
X35941327Y-25556954D01*
X36071683Y-25366569D01*
X36084239Y-25343041D01*
X36069778Y-25173000D01*
X35413000Y-25173000D01*
X34667000Y-25173000D01*
X34010222Y-25173000D01*
X33995761Y-25343041D01*
X33544239Y-25343041D01*
X33529778Y-25173000D01*
X32873000Y-25173000D01*
X32127000Y-25173000D01*
X31470222Y-25173000D01*
X31455761Y-25343041D01*
X9527000Y-25343041D01*
X9527000Y-24256959D01*
X31455761Y-24256959D01*
X31470222Y-24427000D01*
X32127000Y-24427000D01*
X32127000Y-23765398D01*
X32873000Y-23765398D01*
X32873000Y-24427000D01*
X33529778Y-24427000D01*
X33544239Y-24256959D01*
X33995761Y-24256959D01*
X34010222Y-24427000D01*
X34667000Y-24427000D01*
X34667000Y-23765398D01*
X35413000Y-23765398D01*
X35413000Y-24427000D01*
X36069778Y-24427000D01*
X36084239Y-24256959D01*
X36071683Y-24233431D01*
X35941327Y-24043046D01*
X35776334Y-23881750D01*
X35583044Y-23755742D01*
X35413000Y-23765398D01*
X34667000Y-23765398D01*
X34496956Y-23755742D01*
X34303666Y-23881750D01*
X34138673Y-24043046D01*
X34008317Y-24233431D01*
X33995761Y-24256959D01*
X33544239Y-24256959D01*
X33531683Y-24233431D01*
X33401327Y-24043046D01*
X33236334Y-23881750D01*
X33043044Y-23755742D01*
X32873000Y-23765398D01*
X32127000Y-23765398D01*
X31956956Y-23755742D01*
X31763666Y-23881750D01*
X31598673Y-24043046D01*
X31468317Y-24233431D01*
X31455761Y-24256959D01*
X9527000Y-24256959D01*
X9527000Y-22144076D01*
X31323000Y-22144076D01*
X31323000Y-22375924D01*
X31368231Y-22603318D01*
X31456956Y-22817519D01*
X31585764Y-23010294D01*
X31749706Y-23174236D01*
X31942481Y-23303044D01*
X32156682Y-23391769D01*
X32384076Y-23437000D01*
X32615924Y-23437000D01*
X32843318Y-23391769D01*
X33057519Y-23303044D01*
X33250294Y-23174236D01*
X33414236Y-23010294D01*
X33543044Y-22817519D01*
X33631769Y-22603318D01*
X33677000Y-22375924D01*
X33677000Y-22144076D01*
X33863000Y-22144076D01*
X33863000Y-22375924D01*
X33908231Y-22603318D01*
X33996956Y-22817519D01*
X34125764Y-23010294D01*
X34289706Y-23174236D01*
X34482481Y-23303044D01*
X34696682Y-23391769D01*
X34924076Y-23437000D01*
X35155924Y-23437000D01*
X35383318Y-23391769D01*
X35597519Y-23303044D01*
X35790294Y-23174236D01*
X35954236Y-23010294D01*
X36083044Y-22817519D01*
X36171769Y-22603318D01*
X36217000Y-22375924D01*
X36217000Y-22144076D01*
X36171769Y-21916682D01*
X36083044Y-21702481D01*
X35954236Y-21509706D01*
X35790294Y-21345764D01*
X35597519Y-21216956D01*
X35383318Y-21128231D01*
X35155924Y-21083000D01*
X34924076Y-21083000D01*
X34696682Y-21128231D01*
X34482481Y-21216956D01*
X34289706Y-21345764D01*
X34125764Y-21509706D01*
X33996956Y-21702481D01*
X33908231Y-21916682D01*
X33863000Y-22144076D01*
X33677000Y-22144076D01*
X33631769Y-21916682D01*
X33543044Y-21702481D01*
X33414236Y-21509706D01*
X33250294Y-21345764D01*
X33057519Y-21216956D01*
X32843318Y-21128231D01*
X32615924Y-21083000D01*
X32384076Y-21083000D01*
X32156682Y-21128231D01*
X31942481Y-21216956D01*
X31749706Y-21345764D01*
X31585764Y-21509706D01*
X31456956Y-21702481D01*
X31368231Y-21916682D01*
X31323000Y-22144076D01*
X9527000Y-22144076D01*
X9527000Y-19188214D01*
X20897998Y-19188214D01*
X20897998Y-19311722D01*
X20922093Y-19432857D01*
X20969358Y-19546964D01*
X21037975Y-19649657D01*
X21125309Y-19736991D01*
X21228002Y-19805608D01*
X21342109Y-19852873D01*
X21463244Y-19876968D01*
X21586752Y-19876968D01*
X21707887Y-19852873D01*
X21821994Y-19805608D01*
X21924687Y-19736991D01*
X22012021Y-19649657D01*
X22080638Y-19546964D01*
X22127903Y-19432857D01*
X22151998Y-19311722D01*
X22151998Y-19188214D01*
X22127903Y-19067079D01*
X22080638Y-18952972D01*
X22012021Y-18850279D01*
X21924687Y-18762945D01*
X21821994Y-18694328D01*
X21707887Y-18647063D01*
X21586752Y-18622968D01*
X21463244Y-18622968D01*
X21342109Y-18647063D01*
X21228002Y-18694328D01*
X21125309Y-18762945D01*
X21037975Y-18850279D01*
X20969358Y-18952972D01*
X20922093Y-19067079D01*
X20897998Y-19188214D01*
X9527000Y-19188214D01*
X9527000Y-17188246D01*
X10873000Y-17188246D01*
X10873000Y-17311754D01*
X10897095Y-17432889D01*
X10944360Y-17546996D01*
X11012977Y-17649689D01*
X11100311Y-17737023D01*
X11203004Y-17805640D01*
X11310098Y-17850000D01*
X11203004Y-17894360D01*
X11100311Y-17962977D01*
X11012977Y-18050311D01*
X10944360Y-18153004D01*
X10897095Y-18267111D01*
X10873000Y-18388246D01*
X10873000Y-18511754D01*
X10897095Y-18632889D01*
X10944360Y-18746996D01*
X11012977Y-18849689D01*
X11100311Y-18937023D01*
X11203004Y-19005640D01*
X11317111Y-19052905D01*
X11438246Y-19077000D01*
X11561754Y-19077000D01*
X11682889Y-19052905D01*
X11796996Y-19005640D01*
X11899689Y-18937023D01*
X11987023Y-18849689D01*
X12055640Y-18746996D01*
X12102905Y-18632889D01*
X12127000Y-18511754D01*
X12127000Y-18502000D01*
X12127440Y-18502000D01*
X12248575Y-18477905D01*
X12362682Y-18430640D01*
X12465375Y-18362023D01*
X12552709Y-18274689D01*
X12621326Y-18171996D01*
X12668591Y-18057889D01*
X12692686Y-17936754D01*
X12692686Y-17813246D01*
X12668591Y-17692111D01*
X12621326Y-17578004D01*
X12552709Y-17475311D01*
X12465375Y-17387977D01*
X12362682Y-17319360D01*
X12248575Y-17272095D01*
X12147550Y-17252000D01*
X12156390Y-17252000D01*
X12277525Y-17227905D01*
X12391632Y-17180640D01*
X12494325Y-17112023D01*
X12581659Y-17024689D01*
X12650276Y-16921996D01*
X12697541Y-16807889D01*
X12721636Y-16686754D01*
X12721636Y-16563246D01*
X12711691Y-16513246D01*
X20273000Y-16513246D01*
X20273000Y-16636754D01*
X20297095Y-16757889D01*
X20344360Y-16871996D01*
X20412977Y-16974689D01*
X20500311Y-17062023D01*
X20603004Y-17130640D01*
X20717111Y-17177905D01*
X20838246Y-17202000D01*
X20873000Y-17202000D01*
X20873000Y-17298000D01*
X20838246Y-17298000D01*
X20717111Y-17322095D01*
X20603004Y-17369360D01*
X20500311Y-17437977D01*
X20412977Y-17525311D01*
X20344360Y-17628004D01*
X20297095Y-17742111D01*
X20273000Y-17863246D01*
X20273000Y-17986754D01*
X20297095Y-18107889D01*
X20344360Y-18221996D01*
X20412977Y-18324689D01*
X20500311Y-18412023D01*
X20603004Y-18480640D01*
X20717111Y-18527905D01*
X20838246Y-18552000D01*
X20961754Y-18552000D01*
X21082889Y-18527905D01*
X21196996Y-18480640D01*
X21299689Y-18412023D01*
X21387023Y-18324689D01*
X21455640Y-18221996D01*
X21502905Y-18107889D01*
X21527000Y-17986754D01*
X21527000Y-17877000D01*
X21561754Y-17877000D01*
X21682889Y-17852905D01*
X21796996Y-17805640D01*
X21899689Y-17737023D01*
X21987023Y-17649689D01*
X22055640Y-17546996D01*
X22102905Y-17432889D01*
X22127000Y-17311754D01*
X22127000Y-17188246D01*
X22102905Y-17067111D01*
X22055640Y-16953004D01*
X21987023Y-16850311D01*
X21899689Y-16762977D01*
X21796996Y-16694360D01*
X21682889Y-16647095D01*
X21561754Y-16623000D01*
X21527000Y-16623000D01*
X21527000Y-16513246D01*
X21502905Y-16392111D01*
X21455640Y-16278004D01*
X21387023Y-16175311D01*
X21299689Y-16087977D01*
X21196996Y-16019360D01*
X21082889Y-15972095D01*
X20961754Y-15948000D01*
X20838246Y-15948000D01*
X20717111Y-15972095D01*
X20603004Y-16019360D01*
X20500311Y-16087977D01*
X20412977Y-16175311D01*
X20344360Y-16278004D01*
X20297095Y-16392111D01*
X20273000Y-16513246D01*
X12711691Y-16513246D01*
X12697541Y-16442111D01*
X12650276Y-16328004D01*
X12581659Y-16225311D01*
X12494325Y-16137977D01*
X12391632Y-16069360D01*
X12277525Y-16022095D01*
X12156390Y-15998000D01*
X12142399Y-15998000D01*
X12120517Y-15887993D01*
X12099911Y-15838246D01*
X21398000Y-15838246D01*
X21398000Y-15961754D01*
X21422095Y-16082889D01*
X21469360Y-16196996D01*
X21537977Y-16299689D01*
X21625311Y-16387023D01*
X21728004Y-16455640D01*
X21842111Y-16502905D01*
X21963246Y-16527000D01*
X22086754Y-16527000D01*
X22207889Y-16502905D01*
X22321996Y-16455640D01*
X22424689Y-16387023D01*
X22512023Y-16299689D01*
X22580640Y-16196996D01*
X22627905Y-16082889D01*
X22652000Y-15961754D01*
X22652000Y-15838246D01*
X22627905Y-15717111D01*
X22580640Y-15603004D01*
X22512023Y-15500311D01*
X22424689Y-15412977D01*
X22321996Y-15344360D01*
X22207889Y-15297095D01*
X22086754Y-15273000D01*
X21963246Y-15273000D01*
X21842111Y-15297095D01*
X21728004Y-15344360D01*
X21625311Y-15412977D01*
X21537977Y-15500311D01*
X21469360Y-15603004D01*
X21422095Y-15717111D01*
X21398000Y-15838246D01*
X12099911Y-15838246D01*
X12073252Y-15773886D01*
X12004635Y-15671193D01*
X11917301Y-15583859D01*
X11814608Y-15515242D01*
X11700501Y-15467977D01*
X11579366Y-15443882D01*
X11455858Y-15443882D01*
X11334723Y-15467977D01*
X11220616Y-15515242D01*
X11117923Y-15583859D01*
X11030589Y-15671193D01*
X10961972Y-15773886D01*
X10914707Y-15887993D01*
X10890612Y-16009128D01*
X10890612Y-16132636D01*
X10914707Y-16253771D01*
X10961972Y-16367878D01*
X11030589Y-16470571D01*
X11117923Y-16557905D01*
X11220616Y-16626522D01*
X11293697Y-16656793D01*
X11203004Y-16694360D01*
X11100311Y-16762977D01*
X11012977Y-16850311D01*
X10944360Y-16953004D01*
X10897095Y-17067111D01*
X10873000Y-17188246D01*
X9527000Y-17188246D01*
X9527000Y-16052606D01*
X11096447Y-14483159D01*
X11100311Y-14487023D01*
X11203004Y-14555640D01*
X11317111Y-14602905D01*
X11438246Y-14627000D01*
X11561754Y-14627000D01*
X11682889Y-14602905D01*
X11796996Y-14555640D01*
X11899689Y-14487023D01*
X11987023Y-14399689D01*
X12055640Y-14296996D01*
X12102905Y-14182889D01*
X12114022Y-14127000D01*
X14547394Y-14127000D01*
X14910197Y-14489803D01*
G37*
G04 #@! TD.AperFunction*
D25*
X29617937Y18795516D02*
X29605055Y18784944D01*
X29594486Y18772065D01*
X29562855Y18733523D01*
X29546094Y18702165D01*
X29531497Y18674856D01*
X29512187Y18611200D01*
X29507300Y18561581D01*
X29505667Y18545000D01*
X29507300Y18528422D01*
X29507300Y18474329D01*
X29494035Y18470305D01*
X29335478Y18385554D01*
X29196501Y18271499D01*
X29082446Y18132521D01*
X28997695Y17973964D01*
X28945506Y17801919D01*
X28932300Y17667836D01*
X28932300Y16978163D01*
X28945506Y16844080D01*
X28997696Y16672035D01*
X29082447Y16513478D01*
X29196502Y16374501D01*
X29335479Y16260446D01*
X29482300Y16181968D01*
X29482301Y15924033D01*
X29335478Y15845554D01*
X29196501Y15731499D01*
X29082446Y15592521D01*
X28997695Y15433964D01*
X28945506Y15261919D01*
X28932300Y15127836D01*
X28932300Y14438163D01*
X28945506Y14304080D01*
X28997696Y14132035D01*
X29082447Y13973478D01*
X29196502Y13834501D01*
X29335479Y13720446D01*
X29494036Y13635695D01*
X29666081Y13583506D01*
X29845000Y13565884D01*
X30023920Y13583506D01*
X30195965Y13635695D01*
X30354522Y13720446D01*
X30493499Y13834501D01*
X30607554Y13973478D01*
X30692305Y14132035D01*
X30744494Y14304080D01*
X30757700Y14438163D01*
X30757700Y15127836D01*
X31472300Y15127836D01*
X31472300Y14438163D01*
X31485506Y14304080D01*
X31537696Y14132035D01*
X31622447Y13973478D01*
X31736502Y13834501D01*
X31875479Y13720446D01*
X32034036Y13635695D01*
X32206081Y13583506D01*
X32385000Y13565884D01*
X32563920Y13583506D01*
X32735965Y13635695D01*
X32894522Y13720446D01*
X33033499Y13834501D01*
X33147554Y13973478D01*
X33232305Y14132035D01*
X33284494Y14304080D01*
X33297700Y14438163D01*
X33297700Y15127836D01*
X34012300Y15127836D01*
X34012300Y14438163D01*
X34025506Y14304080D01*
X34077696Y14132035D01*
X34162447Y13973478D01*
X34276502Y13834501D01*
X34415479Y13720446D01*
X34574036Y13635695D01*
X34746081Y13583506D01*
X34925000Y13565884D01*
X35103920Y13583506D01*
X35275965Y13635695D01*
X35434522Y13720446D01*
X35573499Y13834501D01*
X35687554Y13973478D01*
X35772305Y14132035D01*
X35824494Y14304080D01*
X35837700Y14438163D01*
X35837700Y15127837D01*
X35824494Y15261920D01*
X35772305Y15433965D01*
X35687554Y15592522D01*
X35573499Y15731499D01*
X35434521Y15845554D01*
X35275964Y15930305D01*
X35103919Y15982494D01*
X34925000Y16000116D01*
X34746080Y15982494D01*
X34574035Y15930305D01*
X34415478Y15845554D01*
X34276501Y15731499D01*
X34162446Y15592521D01*
X34077695Y15433964D01*
X34025506Y15261919D01*
X34012300Y15127836D01*
X33297700Y15127836D01*
X33297700Y15127837D01*
X33284494Y15261920D01*
X33232305Y15433965D01*
X33147554Y15592522D01*
X33033499Y15731499D01*
X32894521Y15845554D01*
X32735964Y15930305D01*
X32563919Y15982494D01*
X32385000Y16000116D01*
X32206080Y15982494D01*
X32034035Y15930305D01*
X31875478Y15845554D01*
X31736501Y15731499D01*
X31622446Y15592521D01*
X31537695Y15433964D01*
X31485506Y15261919D01*
X31472300Y15127836D01*
X30757700Y15127836D01*
X30757700Y15127837D01*
X30744494Y15261920D01*
X30692305Y15433965D01*
X30607554Y15592522D01*
X30493499Y15731499D01*
X30354521Y15845554D01*
X30207700Y15924032D01*
X30207700Y16181968D01*
X30354522Y16260446D01*
X30493499Y16374501D01*
X30607554Y16513478D01*
X30692305Y16672035D01*
X30744494Y16844080D01*
X30757700Y16978163D01*
X30757700Y17667836D01*
X31472300Y17667836D01*
X31472300Y16978163D01*
X31485506Y16844080D01*
X31537696Y16672035D01*
X31622447Y16513478D01*
X31736502Y16374501D01*
X31875479Y16260446D01*
X32034036Y16175695D01*
X32206081Y16123506D01*
X32385000Y16105884D01*
X32563920Y16123506D01*
X32735965Y16175695D01*
X32894522Y16260446D01*
X33033499Y16374501D01*
X33147554Y16513478D01*
X33232305Y16672035D01*
X33284494Y16844080D01*
X33297700Y16978163D01*
X33297700Y17667836D01*
X34012300Y17667836D01*
X34012300Y16978163D01*
X34025506Y16844080D01*
X34077696Y16672035D01*
X34162447Y16513478D01*
X34276502Y16374501D01*
X34415479Y16260446D01*
X34574036Y16175695D01*
X34746081Y16123506D01*
X34925000Y16105884D01*
X35103920Y16123506D01*
X35275965Y16175695D01*
X35434522Y16260446D01*
X35573499Y16374501D01*
X35687554Y16513478D01*
X35772305Y16672035D01*
X35824494Y16844080D01*
X35837700Y16978163D01*
X35837700Y17667837D01*
X35824494Y17801920D01*
X35772305Y17973965D01*
X35687554Y18132522D01*
X35573499Y18271499D01*
X35434521Y18385554D01*
X35275964Y18470305D01*
X35103919Y18522494D01*
X34925000Y18540116D01*
X34746080Y18522494D01*
X34574035Y18470305D01*
X34415478Y18385554D01*
X34276501Y18271499D01*
X34162446Y18132521D01*
X34077695Y17973964D01*
X34025506Y17801919D01*
X34012300Y17667836D01*
X33297700Y17667836D01*
X33297700Y17667837D01*
X33284494Y17801920D01*
X33232305Y17973965D01*
X33147554Y18132522D01*
X33033499Y18271499D01*
X32894521Y18385554D01*
X32735964Y18470305D01*
X32563919Y18522494D01*
X32385000Y18540116D01*
X32206080Y18522494D01*
X32034035Y18470305D01*
X31875478Y18385554D01*
X31736501Y18271499D01*
X31622446Y18132521D01*
X31537695Y17973964D01*
X31485506Y17801919D01*
X31472300Y17667836D01*
X30757700Y17667836D01*
X30757700Y17667837D01*
X30744494Y17801920D01*
X30692305Y17973965D01*
X30607554Y18132522D01*
X30493499Y18271499D01*
X30354521Y18385554D01*
X30229799Y18452220D01*
X30739880Y18962300D01*
X37160121Y18962300D01*
X38162301Y17960119D01*
X38162300Y14189880D01*
X37235121Y13262700D01*
X34341577Y13262700D01*
X34324999Y13264333D01*
X34308421Y13262700D01*
X34308419Y13262700D01*
X34258799Y13257813D01*
X34195143Y13238503D01*
X34167834Y13223906D01*
X34136476Y13207145D01*
X34117412Y13191499D01*
X34085055Y13164945D01*
X34074485Y13152065D01*
X32822936Y11900516D01*
X32810056Y11889945D01*
X32799486Y11877065D01*
X32767855Y11838523D01*
X32736498Y11779857D01*
X32719058Y11722363D01*
X32717188Y11716200D01*
X32710667Y11650000D01*
X32712301Y11633412D01*
X32712300Y89880D01*
X29285121Y-3337300D01*
X10091577Y-3337300D01*
X10074999Y-3335667D01*
X10058421Y-3337300D01*
X10058419Y-3337300D01*
X10008799Y-3342187D01*
X9945143Y-3361497D01*
X9917834Y-3376094D01*
X9886476Y-3392855D01*
X9857882Y-3416322D01*
X9835055Y-3435055D01*
X9824485Y-3447935D01*
X4910121Y-8362300D01*
X-20585120Y-8362300D01*
X-20724470Y-8222951D01*
X-20735045Y-8210065D01*
X-20786467Y-8167865D01*
X-20845133Y-8136507D01*
X-20908789Y-8117197D01*
X-20958409Y-8112310D01*
X-20958412Y-8112310D01*
X-20974990Y-8110677D01*
X-20991568Y-8112310D01*
X-21118823Y-8112310D01*
X-21143503Y-8075373D01*
X-21225363Y-7993513D01*
X-21321619Y-7929197D01*
X-21428574Y-7884895D01*
X-21542117Y-7862310D01*
X-21657883Y-7862310D01*
X-21771426Y-7884895D01*
X-21878381Y-7929197D01*
X-21950000Y-7977051D01*
X-22021619Y-7929197D01*
X-22128574Y-7884895D01*
X-22242117Y-7862310D01*
X-22357883Y-7862310D01*
X-22471426Y-7884895D01*
X-22578381Y-7929197D01*
X-22674637Y-7993513D01*
X-22756497Y-8075373D01*
X-22820813Y-8171629D01*
X-22865115Y-8278584D01*
X-22887700Y-8392127D01*
X-22887700Y-8507893D01*
X-22881806Y-8537523D01*
X-29944777Y-8587263D01*
X-30087300Y-8444740D01*
X-30087300Y-7699503D01*
X-12512700Y-7699503D01*
X-12512700Y-7800497D01*
X-12492997Y-7899549D01*
X-12454349Y-7992855D01*
X-12398240Y-8076827D01*
X-12326827Y-8148240D01*
X-12242855Y-8204349D01*
X-12149549Y-8242997D01*
X-12050497Y-8262700D01*
X-11949503Y-8262700D01*
X-11850451Y-8242997D01*
X-11757145Y-8204349D01*
X-11673173Y-8148240D01*
X-11601760Y-8076827D01*
X-11558177Y-8011601D01*
X-11531291Y-8051837D01*
X-11459878Y-8123250D01*
X-11375906Y-8179359D01*
X-11282600Y-8218007D01*
X-11183548Y-8237710D01*
X-11082554Y-8237710D01*
X-10983502Y-8218007D01*
X-10890196Y-8179359D01*
X-10806224Y-8123250D01*
X-10734811Y-8051837D01*
X-10678702Y-7967865D01*
X-10640054Y-7874559D01*
X-10620351Y-7775507D01*
X-10620351Y-7674513D01*
X-10640054Y-7575461D01*
X-10678702Y-7482155D01*
X-10734811Y-7398183D01*
X-10806224Y-7326770D01*
X-10890196Y-7270661D01*
X-10983502Y-7232013D01*
X-11082554Y-7212310D01*
X-11183548Y-7212310D01*
X-11282600Y-7232013D01*
X-11375906Y-7270661D01*
X-11459878Y-7326770D01*
X-11531291Y-7398183D01*
X-11574874Y-7463409D01*
X-11601760Y-7423173D01*
X-11673173Y-7351760D01*
X-11757145Y-7295651D01*
X-11850451Y-7257003D01*
X-11949503Y-7237300D01*
X-12050497Y-7237300D01*
X-12149549Y-7257003D01*
X-12242855Y-7295651D01*
X-12326827Y-7351760D01*
X-12398240Y-7423173D01*
X-12454349Y-7507145D01*
X-12492997Y-7600451D01*
X-12512700Y-7699503D01*
X-30087300Y-7699503D01*
X-30087300Y-6555260D01*
X-29944740Y-6412700D01*
X-22900000Y-6412700D01*
X-22897522Y-6412456D01*
X-22895140Y-6411733D01*
X-22892944Y-6410560D01*
X-22891020Y-6408980D01*
X-22594740Y-6112700D01*
X4400000Y-6112700D01*
X4402478Y-6112456D01*
X4404860Y-6111733D01*
X4407056Y-6110560D01*
X4408980Y-6108980D01*
X8905260Y-1612700D01*
X28400000Y-1612700D01*
X28402478Y-1612456D01*
X28404860Y-1611733D01*
X28407056Y-1610560D01*
X28408980Y-1608980D01*
X30908980Y891020D01*
X30910560Y892944D01*
X30911733Y895140D01*
X30912456Y897522D01*
X30912700Y900000D01*
X30912700Y11600000D01*
X30912456Y11602478D01*
X30911733Y11604860D01*
X30910560Y11607056D01*
X30908980Y11608980D01*
X29708980Y12808980D01*
X29707056Y12810560D01*
X29704860Y12811733D01*
X29702478Y12812456D01*
X29700000Y12812700D01*
X29405260Y12812700D01*
X28612700Y13605260D01*
X28612700Y18194740D01*
X29805260Y19387300D01*
X30209720Y19387300D01*
X29617937Y18795516D01*
G04 #@! TA.AperFunction,Conductor*
D26*
G36*
X29617937Y18795516D02*
G01*
X29605055Y18784944D01*
X29594486Y18772065D01*
X29562855Y18733523D01*
X29546094Y18702165D01*
X29531497Y18674856D01*
X29512187Y18611200D01*
X29507300Y18561581D01*
X29505667Y18545000D01*
X29507300Y18528422D01*
X29507300Y18474329D01*
X29494035Y18470305D01*
X29335478Y18385554D01*
X29196501Y18271499D01*
X29082446Y18132521D01*
X28997695Y17973964D01*
X28945506Y17801919D01*
X28932300Y17667836D01*
X28932300Y16978163D01*
X28945506Y16844080D01*
X28997696Y16672035D01*
X29082447Y16513478D01*
X29196502Y16374501D01*
X29335479Y16260446D01*
X29482300Y16181968D01*
X29482301Y15924033D01*
X29335478Y15845554D01*
X29196501Y15731499D01*
X29082446Y15592521D01*
X28997695Y15433964D01*
X28945506Y15261919D01*
X28932300Y15127836D01*
X28932300Y14438163D01*
X28945506Y14304080D01*
X28997696Y14132035D01*
X29082447Y13973478D01*
X29196502Y13834501D01*
X29335479Y13720446D01*
X29494036Y13635695D01*
X29666081Y13583506D01*
X29845000Y13565884D01*
X30023920Y13583506D01*
X30195965Y13635695D01*
X30354522Y13720446D01*
X30493499Y13834501D01*
X30607554Y13973478D01*
X30692305Y14132035D01*
X30744494Y14304080D01*
X30757700Y14438163D01*
X30757700Y15127836D01*
X31472300Y15127836D01*
X31472300Y14438163D01*
X31485506Y14304080D01*
X31537696Y14132035D01*
X31622447Y13973478D01*
X31736502Y13834501D01*
X31875479Y13720446D01*
X32034036Y13635695D01*
X32206081Y13583506D01*
X32385000Y13565884D01*
X32563920Y13583506D01*
X32735965Y13635695D01*
X32894522Y13720446D01*
X33033499Y13834501D01*
X33147554Y13973478D01*
X33232305Y14132035D01*
X33284494Y14304080D01*
X33297700Y14438163D01*
X33297700Y15127836D01*
X34012300Y15127836D01*
X34012300Y14438163D01*
X34025506Y14304080D01*
X34077696Y14132035D01*
X34162447Y13973478D01*
X34276502Y13834501D01*
X34415479Y13720446D01*
X34574036Y13635695D01*
X34746081Y13583506D01*
X34925000Y13565884D01*
X35103920Y13583506D01*
X35275965Y13635695D01*
X35434522Y13720446D01*
X35573499Y13834501D01*
X35687554Y13973478D01*
X35772305Y14132035D01*
X35824494Y14304080D01*
X35837700Y14438163D01*
X35837700Y15127837D01*
X35824494Y15261920D01*
X35772305Y15433965D01*
X35687554Y15592522D01*
X35573499Y15731499D01*
X35434521Y15845554D01*
X35275964Y15930305D01*
X35103919Y15982494D01*
X34925000Y16000116D01*
X34746080Y15982494D01*
X34574035Y15930305D01*
X34415478Y15845554D01*
X34276501Y15731499D01*
X34162446Y15592521D01*
X34077695Y15433964D01*
X34025506Y15261919D01*
X34012300Y15127836D01*
X33297700Y15127836D01*
X33297700Y15127837D01*
X33284494Y15261920D01*
X33232305Y15433965D01*
X33147554Y15592522D01*
X33033499Y15731499D01*
X32894521Y15845554D01*
X32735964Y15930305D01*
X32563919Y15982494D01*
X32385000Y16000116D01*
X32206080Y15982494D01*
X32034035Y15930305D01*
X31875478Y15845554D01*
X31736501Y15731499D01*
X31622446Y15592521D01*
X31537695Y15433964D01*
X31485506Y15261919D01*
X31472300Y15127836D01*
X30757700Y15127836D01*
X30757700Y15127837D01*
X30744494Y15261920D01*
X30692305Y15433965D01*
X30607554Y15592522D01*
X30493499Y15731499D01*
X30354521Y15845554D01*
X30207700Y15924032D01*
X30207700Y16181968D01*
X30354522Y16260446D01*
X30493499Y16374501D01*
X30607554Y16513478D01*
X30692305Y16672035D01*
X30744494Y16844080D01*
X30757700Y16978163D01*
X30757700Y17667836D01*
X31472300Y17667836D01*
X31472300Y16978163D01*
X31485506Y16844080D01*
X31537696Y16672035D01*
X31622447Y16513478D01*
X31736502Y16374501D01*
X31875479Y16260446D01*
X32034036Y16175695D01*
X32206081Y16123506D01*
X32385000Y16105884D01*
X32563920Y16123506D01*
X32735965Y16175695D01*
X32894522Y16260446D01*
X33033499Y16374501D01*
X33147554Y16513478D01*
X33232305Y16672035D01*
X33284494Y16844080D01*
X33297700Y16978163D01*
X33297700Y17667836D01*
X34012300Y17667836D01*
X34012300Y16978163D01*
X34025506Y16844080D01*
X34077696Y16672035D01*
X34162447Y16513478D01*
X34276502Y16374501D01*
X34415479Y16260446D01*
X34574036Y16175695D01*
X34746081Y16123506D01*
X34925000Y16105884D01*
X35103920Y16123506D01*
X35275965Y16175695D01*
X35434522Y16260446D01*
X35573499Y16374501D01*
X35687554Y16513478D01*
X35772305Y16672035D01*
X35824494Y16844080D01*
X35837700Y16978163D01*
X35837700Y17667837D01*
X35824494Y17801920D01*
X35772305Y17973965D01*
X35687554Y18132522D01*
X35573499Y18271499D01*
X35434521Y18385554D01*
X35275964Y18470305D01*
X35103919Y18522494D01*
X34925000Y18540116D01*
X34746080Y18522494D01*
X34574035Y18470305D01*
X34415478Y18385554D01*
X34276501Y18271499D01*
X34162446Y18132521D01*
X34077695Y17973964D01*
X34025506Y17801919D01*
X34012300Y17667836D01*
X33297700Y17667836D01*
X33297700Y17667837D01*
X33284494Y17801920D01*
X33232305Y17973965D01*
X33147554Y18132522D01*
X33033499Y18271499D01*
X32894521Y18385554D01*
X32735964Y18470305D01*
X32563919Y18522494D01*
X32385000Y18540116D01*
X32206080Y18522494D01*
X32034035Y18470305D01*
X31875478Y18385554D01*
X31736501Y18271499D01*
X31622446Y18132521D01*
X31537695Y17973964D01*
X31485506Y17801919D01*
X31472300Y17667836D01*
X30757700Y17667836D01*
X30757700Y17667837D01*
X30744494Y17801920D01*
X30692305Y17973965D01*
X30607554Y18132522D01*
X30493499Y18271499D01*
X30354521Y18385554D01*
X30229799Y18452220D01*
X30739880Y18962300D01*
X37160121Y18962300D01*
X38162301Y17960119D01*
X38162300Y14189880D01*
X37235121Y13262700D01*
X34341577Y13262700D01*
X34324999Y13264333D01*
X34308421Y13262700D01*
X34308419Y13262700D01*
X34258799Y13257813D01*
X34195143Y13238503D01*
X34167834Y13223906D01*
X34136476Y13207145D01*
X34117412Y13191499D01*
X34085055Y13164945D01*
X34074485Y13152065D01*
X32822936Y11900516D01*
X32810056Y11889945D01*
X32799486Y11877065D01*
X32767855Y11838523D01*
X32736498Y11779857D01*
X32719058Y11722363D01*
X32717188Y11716200D01*
X32710667Y11650000D01*
X32712301Y11633412D01*
X32712300Y89880D01*
X29285121Y-3337300D01*
X10091577Y-3337300D01*
X10074999Y-3335667D01*
X10058421Y-3337300D01*
X10058419Y-3337300D01*
X10008799Y-3342187D01*
X9945143Y-3361497D01*
X9917834Y-3376094D01*
X9886476Y-3392855D01*
X9857882Y-3416322D01*
X9835055Y-3435055D01*
X9824485Y-3447935D01*
X4910121Y-8362300D01*
X-20585120Y-8362300D01*
X-20724470Y-8222951D01*
X-20735045Y-8210065D01*
X-20786467Y-8167865D01*
X-20845133Y-8136507D01*
X-20908789Y-8117197D01*
X-20958409Y-8112310D01*
X-20958412Y-8112310D01*
X-20974990Y-8110677D01*
X-20991568Y-8112310D01*
X-21118823Y-8112310D01*
X-21143503Y-8075373D01*
X-21225363Y-7993513D01*
X-21321619Y-7929197D01*
X-21428574Y-7884895D01*
X-21542117Y-7862310D01*
X-21657883Y-7862310D01*
X-21771426Y-7884895D01*
X-21878381Y-7929197D01*
X-21950000Y-7977051D01*
X-22021619Y-7929197D01*
X-22128574Y-7884895D01*
X-22242117Y-7862310D01*
X-22357883Y-7862310D01*
X-22471426Y-7884895D01*
X-22578381Y-7929197D01*
X-22674637Y-7993513D01*
X-22756497Y-8075373D01*
X-22820813Y-8171629D01*
X-22865115Y-8278584D01*
X-22887700Y-8392127D01*
X-22887700Y-8507893D01*
X-22881806Y-8537523D01*
X-29944777Y-8587263D01*
X-30087300Y-8444740D01*
X-30087300Y-7699503D01*
X-12512700Y-7699503D01*
X-12512700Y-7800497D01*
X-12492997Y-7899549D01*
X-12454349Y-7992855D01*
X-12398240Y-8076827D01*
X-12326827Y-8148240D01*
X-12242855Y-8204349D01*
X-12149549Y-8242997D01*
X-12050497Y-8262700D01*
X-11949503Y-8262700D01*
X-11850451Y-8242997D01*
X-11757145Y-8204349D01*
X-11673173Y-8148240D01*
X-11601760Y-8076827D01*
X-11558177Y-8011601D01*
X-11531291Y-8051837D01*
X-11459878Y-8123250D01*
X-11375906Y-8179359D01*
X-11282600Y-8218007D01*
X-11183548Y-8237710D01*
X-11082554Y-8237710D01*
X-10983502Y-8218007D01*
X-10890196Y-8179359D01*
X-10806224Y-8123250D01*
X-10734811Y-8051837D01*
X-10678702Y-7967865D01*
X-10640054Y-7874559D01*
X-10620351Y-7775507D01*
X-10620351Y-7674513D01*
X-10640054Y-7575461D01*
X-10678702Y-7482155D01*
X-10734811Y-7398183D01*
X-10806224Y-7326770D01*
X-10890196Y-7270661D01*
X-10983502Y-7232013D01*
X-11082554Y-7212310D01*
X-11183548Y-7212310D01*
X-11282600Y-7232013D01*
X-11375906Y-7270661D01*
X-11459878Y-7326770D01*
X-11531291Y-7398183D01*
X-11574874Y-7463409D01*
X-11601760Y-7423173D01*
X-11673173Y-7351760D01*
X-11757145Y-7295651D01*
X-11850451Y-7257003D01*
X-11949503Y-7237300D01*
X-12050497Y-7237300D01*
X-12149549Y-7257003D01*
X-12242855Y-7295651D01*
X-12326827Y-7351760D01*
X-12398240Y-7423173D01*
X-12454349Y-7507145D01*
X-12492997Y-7600451D01*
X-12512700Y-7699503D01*
X-30087300Y-7699503D01*
X-30087300Y-6555260D01*
X-29944740Y-6412700D01*
X-22900000Y-6412700D01*
X-22897522Y-6412456D01*
X-22895140Y-6411733D01*
X-22892944Y-6410560D01*
X-22891020Y-6408980D01*
X-22594740Y-6112700D01*
X4400000Y-6112700D01*
X4402478Y-6112456D01*
X4404860Y-6111733D01*
X4407056Y-6110560D01*
X4408980Y-6108980D01*
X8905260Y-1612700D01*
X28400000Y-1612700D01*
X28402478Y-1612456D01*
X28404860Y-1611733D01*
X28407056Y-1610560D01*
X28408980Y-1608980D01*
X30908980Y891020D01*
X30910560Y892944D01*
X30911733Y895140D01*
X30912456Y897522D01*
X30912700Y900000D01*
X30912700Y11600000D01*
X30912456Y11602478D01*
X30911733Y11604860D01*
X30910560Y11607056D01*
X30908980Y11608980D01*
X29708980Y12808980D01*
X29707056Y12810560D01*
X29704860Y12811733D01*
X29702478Y12812456D01*
X29700000Y12812700D01*
X29405260Y12812700D01*
X28612700Y13605260D01*
X28612700Y18194740D01*
X29805260Y19387300D01*
X30209720Y19387300D01*
X29617937Y18795516D01*
G37*
G04 #@! TD.AperFunction*
M02*
