M48
; DRILL file {KiCad (5.1.12)-1} date 12/24/22 10:12:32
; FORMAT={-:-/ absolute / metric / decimal}
; #@! TF.CreationDate,2022-12-24T10:12:32+01:00
; #@! TF.GenerationSoftware,Kicad,Pcbnew,(5.1.12)-1
; #@! TF.FileFunction,Plated,1,4,PTH
FMAT,2
METRIC
T1C0.300
T2C0.400
T3C0.600
T4C0.800
T5C0.850
T6C1.000
T7C3.200
T8C4.400
%
G90
G05
T1
X-37.065Y31.3
X-36.465Y31.3
X-35.865Y31.3
X-35.265Y31.3
X-34.457Y-18.69
X-32.463Y-16.254
X-32.419Y-17.674
X-31.3Y-12.149
X-31.3Y-13.473
X-31.25Y-10.75
X-31.25Y-18.5
X-31.141Y-15.85
X-30.823Y-12.792
X-30.777Y-11.542
X-30.688Y-14.1
X-30.65Y-10.1
X-22.4Y-6.4
X-21.772Y-18.648
X-21.771Y-16.029
X-21.237Y-17.341
X-20.85Y-18.2
X-20.846Y-16.6
X-20.3Y-6.4
X-18.615Y-14.004
X-18.2Y-6.4
X-17.6Y-13.6
X-17.3Y-0.3
X-17.3Y-1.1
X-16.6Y-13.2
X-15.6Y-12.8
X-14.6Y-12.4
X-13.6Y-12.0
X-12.6Y-11.6
X-12.3Y-6.4
X-12.0Y-7.75
X-11.6Y-11.2
X-11.133Y-7.725
X-11.1Y-6.4
X-9.5Y-15.6
X-7.0Y-15.6
X-4.5Y-15.5
X-2.1Y-15.475
X-0.01Y-3.458
X0.154Y-14.975
X1.1Y-15.025
X1.475Y7.745
X2.53Y-2.8
X3.4Y-14.475
X5.07Y-2.075
X5.9Y-14.025
X7.16Y-1.4
X8.435Y-13.235
X9.75Y-0.75
X10.202Y-11.328
X11.437Y-7.659
X11.5Y-12.75
X11.5Y-14.0
X11.5Y-17.25
X11.5Y-18.45
X11.518Y-11.5
X11.518Y-16.071
X11.55Y-10.625
X11.886Y-6.998
X12.066Y-13.375
X12.066Y-17.875
X12.095Y-12.125
X12.095Y-16.625
X12.28Y-8.626
X14.875Y-10.4
X15.4Y-0.114
X16.45Y-8.175
X16.745Y7.815
X17.575Y-8.85
X17.995Y0.511
X19.275Y7.6
X20.6Y-9.25
X20.645Y-8.275
X20.85Y-6.95
X20.9Y-14.125
X20.9Y-16.575
X20.9Y-17.925
X20.905Y-12.875
X20.934Y-11.625
X21.3Y-7.65
X21.482Y-13.429
X21.5Y-11.05
X21.5Y-12.25
X21.5Y-17.25
X21.525Y-19.25
X22.025Y-15.9
X25.199Y-10.899
X25.801Y-11.501
X34.2Y0.4
X34.2Y-0.65
X37.95Y4.35
X38.0Y0.3
X38.0Y-0.55
X38.004Y1.1
T2
X-40.0Y35.0
X-40.0Y30.0
X-40.0Y20.0
X-40.0Y15.0
X-40.0Y-25.0
X-40.0Y-30.0
X-40.0Y-35.0
X-36.7Y-1.5
X-36.7Y-4.0
X-36.7Y-6.5
X-36.7Y-9.0
X-36.7Y-11.5
X-36.7Y-14.0
X-36.7Y-16.5
X-36.7Y-19.0
X-36.7Y-21.5
X-36.7Y-24.0
X-36.7Y-26.5
X-35.0Y25.0
X-31.75Y-21.425
X-31.05Y-21.425
X-30.35Y-21.425
X-30.0Y-25.0
X-29.5Y5.7
X-29.5Y-33.7
X-27.25Y-19.5
X-27.25Y-20.5
X-27.0Y5.7
X-27.0Y-33.7
X-26.5Y-9.975
X-26.5Y-14.0
X-26.5Y-16.0
X-26.5Y-18.525
X-26.5Y-19.5
X-26.5Y-20.5
X-25.75Y-19.5
X-25.75Y-20.5
X-25.0Y10.0
X-25.0Y-30.0
X-24.5Y-33.7
X-22.3Y-8.45
X-22.0Y-33.7
X-21.6Y-8.45
X-20.0Y-15.0
X-20.0Y-25.0
X-19.5Y-33.7
X-17.0Y5.7
X-17.0Y-33.7
X-15.0Y-20.0
X-15.0Y-30.0
X-14.5Y5.7
X-14.5Y-33.7
X-12.0Y5.7
X-12.0Y-33.7
X-10.8Y-20.0
X-10.0Y-20.0
X-9.5Y-33.7
X-9.2Y-20.0
X-7.5Y-22.0
X-7.0Y-33.7
X-4.5Y-33.7
X-2.0Y-33.7
X0.5Y-33.7
X3.0Y-33.7
X4.025Y-22.625
X4.775Y-22.625
X5.0Y-30.0
X5.5Y-33.7
X5.525Y-22.625
X8.0Y-33.7
X10.0Y-25.0
X10.5Y-33.7
X12.5Y-22.5
X12.5Y-27.5
X13.0Y-33.7
X15.0Y-25.0
X15.0Y-30.0
X15.5Y-33.7
X16.5Y-6.525
X16.5Y-9.975
X16.5Y-14.0
X16.5Y-16.0
X16.5Y-18.525
X17.5Y-22.5
X17.5Y-27.5
X18.0Y-33.7
X20.0Y-25.0
X20.5Y-33.7
X25.0Y-5.0
X25.0Y-17.5
X25.0Y-37.5
X27.5Y-20.0
X27.7Y-6.5
X30.0Y-10.0
X30.0Y-17.5
X30.0Y-37.5
X32.5Y-20.0
X35.0Y35.0
X35.0Y-5.0
X36.95Y-2.35
X36.95Y-3.1
X36.95Y-3.85
X37.5Y-17.5
X40.0Y35.0
X40.0Y30.0
X40.0Y20.0
X40.0Y10.0
X40.0Y-10.0
X40.0Y-20.0
X40.0Y-25.0
X40.0Y-30.0
X40.0Y-35.0
X42.5Y-17.5
X42.5Y-22.5
X42.5Y-27.5
X42.5Y-32.5
T4
X19.9Y-29.0
T5
X39.137Y2.7
X39.137Y-2.3
T6
X-40.865Y25.5
X-40.865Y22.96
X-36.865Y25.5
X-36.865Y22.96
X-36.195Y17.323
X-36.195Y14.783
X-33.655Y17.323
X-33.655Y14.783
X-31.115Y42.865
X-31.115Y40.325
X-31.115Y37.785
X-31.115Y35.245
X-31.115Y30.94
X-31.115Y28.4
X-31.115Y25.86
X-31.115Y23.32
X-31.115Y17.323
X-31.115Y14.783
X-28.575Y42.865
X-28.575Y40.325
X-28.575Y37.785
X-28.575Y35.245
X-28.575Y30.94
X-28.575Y28.4
X-28.575Y25.86
X-28.575Y23.32
X-28.575Y17.323
X-28.575Y14.783
X-26.035Y42.865
X-26.035Y40.325
X-26.035Y37.785
X-26.035Y35.245
X-26.035Y30.94
X-26.035Y28.4
X-26.035Y25.86
X-26.035Y23.32
X-26.035Y17.323
X-26.035Y14.783
X-23.495Y42.865
X-23.495Y40.325
X-23.495Y37.785
X-23.495Y35.245
X-23.495Y30.94
X-23.495Y28.4
X-23.495Y25.86
X-23.495Y23.32
X-23.495Y17.323
X-23.495Y14.783
X-20.955Y42.865
X-20.955Y40.325
X-20.955Y37.785
X-20.955Y35.245
X-20.955Y30.94
X-20.955Y28.4
X-20.955Y25.86
X-20.955Y23.32
X-20.955Y17.323
X-20.955Y14.783
X-18.415Y42.865
X-18.415Y40.325
X-18.415Y37.785
X-18.415Y35.245
X-18.415Y30.94
X-18.415Y28.4
X-18.415Y25.86
X-18.415Y23.32
X-18.415Y17.323
X-18.415Y14.783
X-15.875Y42.865
X-15.875Y40.325
X-15.875Y37.785
X-15.875Y35.245
X-15.875Y30.94
X-15.875Y28.4
X-15.875Y25.86
X-15.875Y23.32
X-15.875Y17.323
X-15.875Y14.783
X-13.335Y42.865
X-13.335Y40.325
X-13.335Y37.785
X-13.335Y35.245
X-13.335Y30.94
X-13.335Y28.4
X-13.335Y25.86
X-13.335Y23.32
X-13.335Y17.323
X-13.335Y14.783
X-10.795Y42.865
X-10.795Y40.325
X-10.795Y37.785
X-10.795Y35.245
X-10.795Y30.94
X-10.795Y28.4
X-10.795Y25.86
X-10.795Y23.32
X-10.795Y17.323
X-10.795Y14.783
X-10.795Y12.243
X-10.795Y9.703
X-8.255Y42.865
X-8.255Y40.325
X-8.255Y37.785
X-8.255Y35.245
X-8.255Y30.94
X-8.255Y28.4
X-8.255Y25.86
X-8.255Y23.32
X-8.255Y17.323
X-8.255Y14.783
X-8.255Y12.243
X-8.255Y9.703
X-5.715Y42.865
X-5.715Y40.325
X-5.715Y37.785
X-5.715Y35.245
X-5.715Y30.94
X-5.715Y28.4
X-5.715Y25.86
X-5.715Y23.32
X-5.715Y17.323
X-5.715Y14.783
X-5.715Y12.243
X-5.715Y9.703
X-3.175Y42.865
X-3.175Y40.325
X-3.175Y37.785
X-3.175Y35.245
X-3.175Y30.94
X-3.175Y28.4
X-3.175Y25.86
X-3.175Y23.32
X-3.175Y17.323
X-3.175Y14.783
X-3.175Y12.243
X-3.175Y9.703
X-0.635Y42.865
X-0.635Y40.325
X-0.635Y37.785
X-0.635Y35.245
X-0.635Y30.94
X-0.635Y28.4
X-0.635Y25.86
X-0.635Y23.32
X-0.635Y17.323
X-0.635Y14.783
X-0.635Y12.243
X-0.635Y9.703
X1.905Y42.865
X1.905Y40.325
X1.905Y37.785
X1.905Y35.245
X1.905Y30.94
X1.905Y28.4
X1.905Y25.86
X1.905Y23.32
X1.905Y17.323
X1.905Y14.783
X1.905Y12.243
X1.905Y9.703
X4.445Y42.865
X4.445Y40.325
X4.445Y37.785
X4.445Y35.245
X4.445Y30.94
X4.445Y28.4
X4.445Y25.86
X4.445Y23.32
X4.445Y17.323
X4.445Y14.783
X4.445Y12.243
X4.445Y9.703
X6.985Y42.865
X6.985Y40.325
X6.985Y37.785
X6.985Y35.245
X6.985Y30.94
X6.985Y28.4
X6.985Y25.86
X6.985Y23.32
X6.985Y17.323
X6.985Y14.783
X6.985Y12.243
X6.985Y9.703
X9.525Y42.865
X9.525Y40.325
X9.525Y37.785
X9.525Y35.245
X9.525Y30.94
X9.525Y28.4
X9.525Y25.86
X9.525Y23.32
X9.525Y17.323
X9.525Y14.783
X9.525Y12.243
X9.525Y9.703
X12.065Y42.865
X12.065Y40.325
X12.065Y37.785
X12.065Y35.245
X12.065Y30.94
X12.065Y28.4
X12.065Y25.86
X12.065Y23.32
X12.065Y17.323
X12.065Y14.783
X12.065Y12.243
X12.065Y9.703
X14.605Y42.865
X14.605Y40.325
X14.605Y37.785
X14.605Y35.245
X14.605Y30.94
X14.605Y28.4
X14.605Y25.86
X14.605Y23.32
X14.605Y17.323
X14.605Y14.783
X14.605Y12.243
X14.605Y9.703
X17.145Y42.865
X17.145Y40.325
X17.145Y37.785
X17.145Y35.245
X17.145Y30.94
X17.145Y28.4
X17.145Y25.86
X17.145Y23.32
X17.145Y17.323
X17.145Y14.783
X17.145Y12.243
X17.145Y9.703
X19.685Y42.865
X19.685Y40.325
X19.685Y37.785
X19.685Y35.245
X19.685Y30.94
X19.685Y28.4
X19.685Y25.86
X19.685Y23.32
X19.685Y17.323
X19.685Y14.783
X19.685Y12.243
X19.685Y9.703
X22.225Y42.865
X22.225Y40.325
X22.225Y37.785
X22.225Y35.245
X22.225Y30.94
X22.225Y28.4
X22.225Y25.86
X22.225Y23.32
X22.225Y17.323
X22.225Y14.783
X22.225Y12.243
X22.225Y9.703
X24.765Y42.865
X24.765Y40.325
X24.765Y37.785
X24.765Y35.245
X24.765Y30.94
X24.765Y28.4
X24.765Y25.86
X24.765Y23.32
X24.765Y17.323
X24.765Y14.783
X24.765Y12.243
X24.765Y9.703
X27.305Y42.865
X27.305Y40.325
X27.305Y37.785
X27.305Y35.245
X27.305Y30.94
X27.305Y28.4
X27.305Y25.86
X27.305Y23.32
X27.305Y17.323
X27.305Y14.783
X27.305Y12.243
X27.305Y9.703
X29.845Y42.865
X29.845Y40.325
X29.845Y37.785
X29.845Y35.245
X29.845Y30.94
X29.845Y28.4
X29.845Y25.86
X29.845Y23.32
X29.845Y17.323
X29.845Y14.783
X32.385Y42.865
X32.385Y40.325
X32.385Y37.785
X32.385Y35.245
X32.385Y30.94
X32.385Y28.4
X32.385Y25.86
X32.385Y23.32
X32.385Y17.323
X32.385Y14.783
X32.5Y-22.26
X32.5Y-24.8
X32.5Y-27.34
X32.5Y-29.88
X32.5Y-32.42
X32.5Y-34.96
X32.5Y-37.5
X34.925Y17.323
X34.925Y14.783
X35.04Y-22.26
X35.04Y-24.8
X35.04Y-27.34
X35.04Y-29.88
X35.04Y-32.42
X35.04Y-34.96
X35.04Y-37.5
X37.465Y17.323
X37.465Y14.783
X38.135Y25.5
X38.135Y22.96
T7
X-40.005Y-42.865
X-36.195Y42.865
X37.465Y42.865
X40.005Y-42.865
T8
X-34.0Y3.0
X-34.0Y-31.0
X25.0Y3.0
X25.0Y-31.0
T3
X41.487Y3.7G85X42.188Y3.7
G05
X42.188Y-3.3G85X41.487Y-3.3
G05
T0
M30
