G04 #@! TF.GenerationSoftware,KiCad,Pcbnew,(5.1.12)-1*
G04 #@! TF.CreationDate,2022-12-24T10:12:30+01:00*
G04 #@! TF.ProjectId,USS-Module_V2b,5553532d-4d6f-4647-956c-655f5632622e,V2b*
G04 #@! TF.SameCoordinates,PX8f0d180PY5f5e100*
G04 #@! TF.FileFunction,Paste,Top*
G04 #@! TF.FilePolarity,Positive*
%FSLAX46Y46*%
G04 Gerber Fmt 4.6, Leading zero omitted, Abs format (unit mm)*
G04 Created by KiCad (PCBNEW (5.1.12)-1) date 2022-12-24 10:12:30*
%MOMM*%
%LPD*%
G01*
G04 APERTURE LIST*
%ADD10C,1.000000*%
%ADD11C,0.100000*%
%ADD12R,1.900000X1.500000*%
%ADD13R,1.350000X0.400000*%
%ADD14R,1.000000X1.400000*%
%ADD15R,1.200000X1.400000*%
%ADD16R,1.400000X0.300000*%
%ADD17R,1.320000X1.300000*%
%ADD18R,2.500000X2.000000*%
G04 APERTURE END LIST*
D10*
X-31186281Y-31750324D02*
G75*
G02*
X-33200000Y-33800000I-2813719J750324D01*
G01*
X-34750324Y-33813719D02*
G75*
G02*
X-36800000Y-31800000I750324J2813719D01*
G01*
X-36813719Y-30249676D02*
G75*
G02*
X-34800000Y-28200000I2813719J-750324D01*
G01*
X-33249676Y-28186281D02*
G75*
G02*
X-31200000Y-30200000I-750324J-2813719D01*
G01*
X-31186281Y2249676D02*
G75*
G02*
X-33200000Y200000I-2813719J750324D01*
G01*
X-34750324Y186281D02*
G75*
G02*
X-36800000Y2200000I750324J2813719D01*
G01*
X-36813719Y3750324D02*
G75*
G02*
X-34800000Y5800000I2813719J-750324D01*
G01*
X-33249676Y5813719D02*
G75*
G02*
X-31200000Y3800000I-750324J-2813719D01*
G01*
X27813719Y2249676D02*
G75*
G02*
X25800000Y200000I-2813719J750324D01*
G01*
X24249676Y186281D02*
G75*
G02*
X22200000Y2200000I750324J2813719D01*
G01*
X22186281Y3750324D02*
G75*
G02*
X24200000Y5800000I2813719J-750324D01*
G01*
X25750324Y5813719D02*
G75*
G02*
X27800000Y3800000I-750324J-2813719D01*
G01*
X27813719Y-31750324D02*
G75*
G02*
X25800000Y-33800000I-2813719J750324D01*
G01*
X24249676Y-33813719D02*
G75*
G02*
X22200000Y-31800000I750324J2813719D01*
G01*
X22186281Y-30249676D02*
G75*
G02*
X24200000Y-28200000I2813719J-750324D01*
G01*
X25750324Y-28186281D02*
G75*
G02*
X27800000Y-30200000I-750324J-2813719D01*
G01*
D11*
G36*
X37495096Y7400975D02*
G01*
X37495381Y7401913D01*
X37495843Y7402778D01*
X37496464Y7403536D01*
X37497222Y7404157D01*
X37498087Y7404619D01*
X37499025Y7404904D01*
X37500000Y7405000D01*
X38400000Y7405000D01*
X38400975Y7404904D01*
X38401913Y7404619D01*
X38402778Y7404157D01*
X38403536Y7403536D01*
X38404157Y7402778D01*
X38404619Y7401913D01*
X38404904Y7400975D01*
X38405000Y7400000D01*
X38405000Y6800000D01*
X38404904Y6799025D01*
X38404619Y6798087D01*
X38404157Y6797222D01*
X38403536Y6796464D01*
X37953536Y6346464D01*
X37952778Y6345843D01*
X37951913Y6345381D01*
X37950975Y6345096D01*
X37950000Y6345000D01*
X37949025Y6345096D01*
X37948087Y6345381D01*
X37947222Y6345843D01*
X37946464Y6346464D01*
X37496464Y6796464D01*
X37495843Y6797222D01*
X37495381Y6798087D01*
X37495096Y6799025D01*
X37495000Y6800000D01*
X37495000Y7400000D01*
X37495096Y7400975D01*
G37*
G36*
X37495096Y6300975D02*
G01*
X37495381Y6301913D01*
X37495843Y6302778D01*
X37496464Y6303536D01*
X37497222Y6304157D01*
X37498087Y6304619D01*
X37499025Y6304904D01*
X37500000Y6305000D01*
X37500975Y6304904D01*
X37501913Y6304619D01*
X37502778Y6304157D01*
X37503536Y6303536D01*
X37950000Y5857072D01*
X38396464Y6303536D01*
X38397222Y6304157D01*
X38398087Y6304619D01*
X38399025Y6304904D01*
X38400000Y6305000D01*
X38400975Y6304904D01*
X38401913Y6304619D01*
X38402778Y6304157D01*
X38403536Y6303536D01*
X38404157Y6302778D01*
X38404619Y6301913D01*
X38404904Y6300975D01*
X38405000Y6300000D01*
X38405000Y5300000D01*
X38404904Y5299025D01*
X38404619Y5298087D01*
X38404157Y5297222D01*
X38403536Y5296464D01*
X38402778Y5295843D01*
X38401913Y5295381D01*
X38400975Y5295096D01*
X38400000Y5295000D01*
X37500000Y5295000D01*
X37499025Y5295096D01*
X37498087Y5295381D01*
X37497222Y5295843D01*
X37496464Y5296464D01*
X37495843Y5297222D01*
X37495381Y5298087D01*
X37495096Y5299025D01*
X37495000Y5300000D01*
X37495000Y6300000D01*
X37495096Y6300975D01*
G37*
D12*
X41837500Y-800000D03*
D13*
X39137500Y200000D03*
X39137500Y850000D03*
X39137500Y1500000D03*
X39137500Y-1100000D03*
X39137500Y-450000D03*
D12*
X41837500Y1200000D03*
D14*
X36925000Y-1250000D03*
X35025000Y-1250000D03*
X35025000Y950000D03*
D15*
X36745000Y950000D03*
D16*
X-29350000Y-6750000D03*
X-29350000Y-7250000D03*
X-29350000Y-7750000D03*
X-29350000Y-8250000D03*
X-29350000Y-8750000D03*
X-29350000Y-9250000D03*
X-29350000Y-9750000D03*
X-29350000Y-10250000D03*
X-29350000Y-10750000D03*
X-29350000Y-11250000D03*
X-29350000Y-11750000D03*
X-29350000Y-12250000D03*
X-29350000Y-12750000D03*
X-29350000Y-13250000D03*
X-29350000Y-13750000D03*
X-29350000Y-14250000D03*
X-29350000Y-14750000D03*
X-29350000Y-15250000D03*
X-29350000Y-15750000D03*
X-29350000Y-16250000D03*
X-29350000Y-16750000D03*
X-29350000Y-17250000D03*
X-29350000Y-17750000D03*
X-29350000Y-18250000D03*
X-29350000Y-18750000D03*
X-29350000Y-19250000D03*
X-29350000Y-19750000D03*
X-29350000Y-20250000D03*
X-29350000Y-20750000D03*
X-29350000Y-21250000D03*
X-23650000Y-6750000D03*
X-23650000Y-7250000D03*
X-23650000Y-7750000D03*
X-23650000Y-8250000D03*
X-23650000Y-8750000D03*
X-23650000Y-9250000D03*
X-23650000Y-9750000D03*
X-23650000Y-10250000D03*
X-23650000Y-10750000D03*
X-23650000Y-11250000D03*
X-23650000Y-11750000D03*
X-23650000Y-12250000D03*
X-23650000Y-12750000D03*
X-23650000Y-13250000D03*
X-23650000Y-13750000D03*
X-23650000Y-14250000D03*
X-23650000Y-14750000D03*
X-23650000Y-15250000D03*
X-23650000Y-15750000D03*
X-23650000Y-16250000D03*
X-23650000Y-16750000D03*
X-23650000Y-17250000D03*
X-23650000Y-17750000D03*
X-23650000Y-18250000D03*
X-23650000Y-18750000D03*
X-23650000Y-19250000D03*
X-23650000Y-19750000D03*
X-23650000Y-20250000D03*
X-23650000Y-21250000D03*
X-23650000Y-20750000D03*
D17*
X-29060000Y-22450000D03*
X-23940000Y-22450000D03*
X-29060000Y-5550000D03*
X-23940000Y-5550000D03*
D16*
X13650000Y-6750000D03*
X13650000Y-7250000D03*
X13650000Y-7750000D03*
X13650000Y-8250000D03*
X13650000Y-8750000D03*
X13650000Y-9250000D03*
X13650000Y-9750000D03*
X13650000Y-10250000D03*
X13650000Y-10750000D03*
X13650000Y-11250000D03*
X13650000Y-11750000D03*
X13650000Y-12250000D03*
X13650000Y-12750000D03*
X13650000Y-13250000D03*
X13650000Y-13750000D03*
X13650000Y-14250000D03*
X13650000Y-14750000D03*
X13650000Y-15250000D03*
X13650000Y-15750000D03*
X13650000Y-16250000D03*
X13650000Y-16750000D03*
X13650000Y-17250000D03*
X13650000Y-17750000D03*
X13650000Y-18250000D03*
X13650000Y-18750000D03*
X13650000Y-19250000D03*
X13650000Y-19750000D03*
X13650000Y-20250000D03*
X13650000Y-20750000D03*
X13650000Y-21250000D03*
X19350000Y-6750000D03*
X19350000Y-7250000D03*
X19350000Y-7750000D03*
X19350000Y-8250000D03*
X19350000Y-8750000D03*
X19350000Y-9250000D03*
X19350000Y-9750000D03*
X19350000Y-10250000D03*
X19350000Y-10750000D03*
X19350000Y-11250000D03*
X19350000Y-11750000D03*
X19350000Y-12250000D03*
X19350000Y-12750000D03*
X19350000Y-13250000D03*
X19350000Y-13750000D03*
X19350000Y-14250000D03*
X19350000Y-14750000D03*
X19350000Y-15250000D03*
X19350000Y-15750000D03*
X19350000Y-16250000D03*
X19350000Y-16750000D03*
X19350000Y-17250000D03*
X19350000Y-17750000D03*
X19350000Y-18250000D03*
X19350000Y-18750000D03*
X19350000Y-19250000D03*
X19350000Y-19750000D03*
X19350000Y-20250000D03*
X19350000Y-21250000D03*
X19350000Y-20750000D03*
D17*
X13940000Y-22450000D03*
X19060000Y-22450000D03*
X13940000Y-5550000D03*
X19060000Y-5550000D03*
D18*
X-36165000Y36700000D03*
X-36165000Y32700000D03*
M02*
