G04 #@! TF.GenerationSoftware,KiCad,Pcbnew,(5.1.12)-1*
G04 #@! TF.CreationDate,2022-12-24T10:12:30+01:00*
G04 #@! TF.ProjectId,USS-Module_V2b,5553532d-4d6f-4647-956c-655f5632622e,V2b*
G04 #@! TF.SameCoordinates,PX8f0d180PY5f5e100*
G04 #@! TF.FileFunction,Profile,NP*
%FSLAX46Y46*%
G04 Gerber Fmt 4.6, Leading zero omitted, Abs format (unit mm)*
G04 Created by KiCad (PCBNEW (5.1.12)-1) date 2022-12-24 10:12:30*
%MOMM*%
%LPD*%
G01*
G04 APERTURE LIST*
G04 #@! TA.AperFunction,Profile*
%ADD10C,0.100000*%
G04 #@! TD*
G04 APERTURE END LIST*
D10*
X-9015000Y-46215000D02*
G75*
G02*
X-7815000Y-45015000I1200000J0D01*
G01*
X-9015000Y-46215000D02*
X-9015000Y-47445000D01*
X-43885000Y-47945000D02*
G75*
G02*
X-45085000Y-46745000I0J1200000D01*
G01*
X-43885000Y-47945000D02*
X-9515000Y-47945000D01*
X11805000Y-47945000D02*
X43885000Y-47945000D01*
X-43165000Y-8935000D02*
G75*
G02*
X-44365000Y-10135000I-1200000J0D01*
G01*
X11305000Y-46215000D02*
X11305000Y-47445000D01*
X44365000Y10135000D02*
X44585000Y10135000D01*
X-45085000Y-10635000D02*
X-45085000Y-46745000D01*
X11305000Y46215000D02*
G75*
G02*
X10105000Y45015000I-1200000J0D01*
G01*
X-44365000Y-10135000D02*
X-44585000Y-10135000D01*
X-7815000Y-45015000D02*
X10105000Y-45015000D01*
X-9015000Y46215000D02*
X-9015000Y47445000D01*
X11305000Y47445000D02*
G75*
G02*
X11805000Y47945000I500000J0D01*
G01*
X11305000Y46215000D02*
X11305000Y47445000D01*
X-44365000Y10135000D02*
G75*
G02*
X-43165000Y8935000I0J-1200000D01*
G01*
X11805000Y47945000D02*
X39315000Y47945000D01*
X-45085000Y10635000D02*
X-45085000Y46745000D01*
X10105000Y-45015000D02*
G75*
G02*
X11305000Y-46215000I0J-1200000D01*
G01*
X44365000Y-10135000D02*
X44585000Y-10135000D01*
X43165000Y8935000D02*
X43165000Y-8935000D01*
X45085000Y10635000D02*
G75*
G02*
X44585000Y10135000I-500000J0D01*
G01*
X45085000Y-46745000D02*
G75*
G02*
X43885000Y-47945000I-1200000J0D01*
G01*
X-9015000Y-47445000D02*
G75*
G02*
X-9515000Y-47945000I-500000J0D01*
G01*
X45085000Y23800000D02*
X45085000Y10635000D01*
X-45085000Y46745000D02*
G75*
G02*
X-43885000Y47945000I1200000J0D01*
G01*
X43885000Y47945000D02*
G75*
G02*
X45085000Y46745000I0J-1200000D01*
G01*
X45085000Y46745000D02*
X45085000Y23800000D01*
X43165000Y8935000D02*
G75*
G02*
X44365000Y10135000I1200000J0D01*
G01*
X-45085000Y-10635000D02*
G75*
G02*
X-44585000Y-10135000I500000J0D01*
G01*
X39315000Y47945000D02*
X43885000Y47945000D01*
X-7815000Y45015000D02*
X10105000Y45015000D01*
X44585000Y-10135000D02*
G75*
G02*
X45085000Y-10635000I0J-500000D01*
G01*
X11805000Y-47945000D02*
G75*
G02*
X11305000Y-47445000I0J500000D01*
G01*
X-44585000Y10135000D02*
G75*
G02*
X-45085000Y10635000I0J500000D01*
G01*
X-44365000Y10135000D02*
X-44585000Y10135000D01*
X-9515000Y47945000D02*
G75*
G02*
X-9015000Y47445000I0J-500000D01*
G01*
X45085000Y-10635000D02*
X45085000Y-46745000D01*
X-43165000Y8935000D02*
X-43165000Y-8935000D01*
X-7815000Y45015000D02*
G75*
G02*
X-9015000Y46215000I0J1200000D01*
G01*
X-9515000Y47945000D02*
X-43885000Y47945000D01*
X44365000Y-10135000D02*
G75*
G02*
X43165000Y-8935000I0J1200000D01*
G01*
M02*
